<svg width="1200pt" height="1200pt" version="1.1" viewBox="0 0 1200 1200"
  xmlns="http://www.w3.org/2000/svg">
  <path transform="scale(12)"
    d="m34.6 32.003s-2.2881-18.066 15.727-19.693c1.0329-0.011068 16.606 0.78613 15.057 19.693l0.10807 33.474h-30.378z"
    fill="none" stroke="#000" stroke-miterlimit="10" stroke-width="1.2397" />
  <path d="m426.67 278.57h61.02v62.711h-70.043c0.011718 0.003906 4.4766-50.074 9.0234-62.711z" />
  <path d="m776.06 278.57h-70.164l3.7227 62.715h76.066" />
  <path d="m551.54 298.5h17.363v42.77h-17.363z" />
  <path d="m576.96 298.5h68.797v42.77h-68.797z" />
  <path d="m417.66 349.96h368.22l-0.19141 12.395h-371.62z" />
  <path d="m599.98 153.46v33.48h-101.11s51.098-35.281 101.11-33.48z" />
  <path d="m606.1 153.39v33.539h99.805c-0.003906 0.003906-51.16-39.645-99.805-33.539z" />
  <path
    d="m645.76 210.48h-76.859l-17.363 76.871h104.45zm-42.145 56.41c-15.059 0-27.277-12.215-27.277-27.277 0-15.059 12.215-27.277 27.277-27.277 15.07 0 27.277 12.215 27.277 27.277-0.003906 15.062-12.207 27.277-27.277 27.277z" />
  <path
    d="m676.3 287.35c-12.742 0-23.102 11.172-23.102 24.949 0 13.777 10.344 24.961 23.102 24.961 12.742 0 23.09-11.172 23.09-24.961-0.003907-13.777-10.348-24.949-23.09-24.949zm9.457 35.293c-6 0-10.848-5.6875-10.848-12.719 0-7.0195 4.8477-12.707 10.848-12.707s10.848 5.6875 10.848 12.707c0 7.0312-4.8477 12.719-10.848 12.719z" />
  <path transform="scale(12)" d="m53.813 17.714h1.0658l0.85221 5.0762h-1.2422z" stroke="#010202"
    stroke-miterlimit="10" stroke-width=".3099" />
  <path d="m417.66 374.12h366.95v9.9102h-366.95z" />
  <path d="m497.47 384.04h208.44v9.6133h-208.44z" />
  <path d="m696.9 393.65v8.3633h-187.36l-0.45312-8.3633h-8.3672v16.738h202.69v-16.738z" />
  <path
    d="m500.72 424.8s23.941-8.6055 48.348 0h32.531v-3.9258h89.723l6.9727 3.9258h25.117v19.992h-24.648l-9.2891 4.1875h-87.875v-7.4414h-33s-19.523 7.4414-47.879 0.9375z" />
  <path
    d="m703.02 493.07s-23.941 8.6055-48.348 0h-32.543v3.9258h-89.723l-6.9844-3.9258h-25.105v-19.992h24.637l9.3008-4.1875h87.863v7.4414h33s19.535-7.4414 47.891-0.9375v17.676z" />
  <path
    d="m568.91 521.03v152.5h70.031l0.003906-152.5zm35.02 150.01c-17.461 0-31.609-16.523-31.609-36.875 0-20.375 14.16-36.887 31.609-36.887-16.691 0-30.215-16.512-30.215-36.875 0-20.375 13.523-36.887 30.215-36.887 16.691 0 30.227 16.512 30.227 36.887 0 20.352-13.535 36.875-30.227 36.875 17.449 0 31.621 16.5 31.621 36.887-0.003906 20.352-14.176 36.875-31.621 36.875z" />
  <path d="m484.6 721.86v63.852h70.043v-63.852zm32.219 53.316h-24.168v-41.52h24.168z" />
  <path d="m480.73 584.72h28.129v8.832h-28.129z" />
  <path d="m480.73 601.69h28.129v8.832h-28.129z" />
  <path d="m480.73 616.8h28.129v8.832h-28.129z" />
  <path d="m480.73 634.01h28.129v8.8203h-28.129z" />
  <path d="m480.73 650.51h28.129v8.832h-28.129z" />
  <path d="m480.73 667.01h28.129v8.832h-28.129z" />
  <path transform="scale(12)"
    d="m38.472 65.477 2.7601 4.055h17.593l2.9701-4.055zm3.2161 3.667-2.208-3.0999h2.1309l1.3561 3.0221zm1.821 0-1.1038-3.0999h5.0039l0.47786 3.0999zm7.903 0h-2.5189l-0.38704-3.0999h3.4479zm0.8138 0 0.50391-3.0999h5.1901l-1.2389 3.0999zm5.3841 0 1.2399-3.0999h2.1309l-2.1309 3.0999z"
    stroke="#010202" stroke-miterlimit="10" stroke-width="1.2397" />
  <path d="m894.35 1002.1-148.14-1.8594 8.6758 26.652h131.4z" />
  <path d="m305.64 1002.1 148.15-1.8594-8.6875 26.652h-131.4z" />
  <path d="m857.75 500.58h18.602v50.211l-18.602 7.668z" />
  <path d="m325.92 500.58h16.32v51.133h-16.32z" />
  <path transform="scale(12)"
    d="m66.78 32.003v1.292h-1.307l0.019857 29.91h5.986v-31.202zm4.6989 31.202h-5.986l-9.77e-4 -29.91h1.32l-0.031901-1.292h4.3929z"
    stroke="#010202" stroke-miterlimit="10" />
  <path transform="scale(12)"
    d="m65.924 50.509v12.308l3.6159 0.061849v-12.308zm3.6159 12.37-3.6159-0.061849v-12.308l3.6159 0.061849z"
    stroke="#010202" stroke-miterlimit="10" stroke-width="1.2397" />
  <path transform="scale(12)"
    d="m65.696 63.205 0.051106 2.2718v6.1992h-4.1839v2.1699-2.1699h4.1839v-6.1992l-0.051106-2.2718h5.7829v10.641-10.641z"
    stroke="#010202" stroke-miterlimit="10" stroke-width="1.2397" />
  <path transform="scale(12)"
    d="m71.479 73.846h-9.916l0.62012 9.5049 0.72396 2.222h10.95l0.67188-2.0661zm2.3783 11.726h-10.95l-0.72396-2.222-0.62012-9.5049h9.916l3.0501 9.6602z"
    stroke="#010202" stroke-miterlimit="10" stroke-width="1.2397" />
  <path transform="scale(12)"
    d="m28.593 32.003v31.202h5.986l0.019856-29.91h-1.307v-1.292zm0.30599 0h4.3929l-0.031901 1.292h1.32l-9.76e-4 29.91h-5.986z"
    stroke="#010202" stroke-miterlimit="10" />
  <path transform="scale(12)"
    d="m30.532 50.571v12.308l3.6159-0.061849 3.26e-4 -12.308zm0 0 3.6159-0.061849v12.308l-3.6159 0.061849z"
    stroke="#010202" stroke-miterlimit="10" stroke-width="1.2397" />
  <path transform="scale(12)"
    d="m34.376 63.205-0.051107 2.2718v6.1992h4.1842v2.1699-2.1699h-4.1842v-6.1992l0.051107-2.2718h-5.7829v10.641-10.641z"
    stroke="#010202" stroke-miterlimit="10" stroke-width="1.2397" />
  <path transform="scale(12)"
    d="m25.543 83.506 0.67188 2.0661h10.951l0.72396-2.222 0.62012-9.5049h-9.917zm0 0 3.0501-9.6602h9.917l-0.62012 9.5049-0.72396 2.222-10.951 3.26e-4z"
    stroke="#010202" stroke-miterlimit="10" stroke-width="1.2397" />
</svg>
