<svg enable-background="new 0 0 512 512" viewBox="0 0 512 512" xmlns="http://www.w3.org/2000/svg">
  <path
    d="m357.02 152.235-45.255-45.255c-3.125-3.124-8.189-3.124-11.314 0l-30.735 30.735 56.568 56.568 30.735-30.735c3.125-3.123 3.125-8.189.001-11.313z"
    fill="#000000" />
  <circle cx="184" cy="280" fill="#000000" r="176" />
  <path
    d="m239.214 383.219c-83.322-7.733-150.7-75.111-158.433-158.433-1.536-16.55-.773-32.68 2.004-48.11 3.051-16.958-17.988-27.276-29.528-14.481-31.288 34.692-48.963 81.897-44.6 133.21 7.176 84.39 75.548 152.762 159.938 159.938 51.313 4.364 98.518-13.311 133.21-44.6 12.795-11.54 2.477-32.58-14.481-29.528-15.431 2.777-31.56 3.54-48.11 2.004z"
    fill="#000000" />
  <path
    d="m271.076 155.805c-3.388-2.383-8.067-1.568-10.449 1.82-2.383 3.388-1.568 8.066 1.82 10.449 25.498 17.932 44.271 44.211 52.86 73.999.948 3.286 3.946 5.424 7.203 5.424.688 0 1.387-.095 2.082-.295 3.98-1.148 6.276-5.305 5.128-9.285-9.533-33.06-30.36-62.222-58.644-82.112z" />
  <path
    d="m138.199 409.036c-23.783-8.417-44.787-23.29-60.743-43.009-2.606-3.22-7.328-3.717-10.548-1.113-3.22 2.605-3.718 7.328-1.113 10.548 17.698 21.873 41.004 38.372 67.399 47.714.828.293 1.672.432 2.502.432 3.088 0 5.981-1.922 7.07-5 1.383-3.904-.662-8.19-4.567-9.572z" />
  <path
    d="m242.897 140.171c-5.489-2.32-11.174-4.333-16.899-5.984-3.982-1.152-8.137 1.147-9.285 5.127s1.147 8.137 5.127 9.285c5.155 1.487 10.274 3.3 15.216 5.389.954.403 1.943.594 2.917.594 2.923 0 5.702-1.72 6.912-4.582 1.613-3.816-.173-8.216-3.988-9.829z" />
  <path
    d="m461.707 98.39c-2.929-2.929-7.678-2.929-10.606 0l-36.073 36.073c-1.795 1.795-4.182 2.784-6.721 2.784s-4.925-.989-6.721-2.784c-3.706-3.706-3.706-9.736 0-13.442l8.016-8.016c9.555-9.554 9.555-25.101 0-34.655-4.628-4.628-10.782-7.178-17.328-7.178-6.545 0-12.699 2.549-17.327 7.178l-40.397 40.396-17.37-17.37c-6.049-6.049-15.893-6.049-21.943 0l-19.403 19.403c-27.656-16.032-59.159-24.586-91.979-24.586-101.378 0-183.855 82.477-183.855 183.855s82.477 183.855 183.855 183.855 183.854-82.477 183.854-183.855c0-32.613-8.471-64.087-24.614-91.952l19.431-19.431c6.05-6.05 6.05-15.893 0-21.943l-17.37-17.37 40.397-40.397c1.795-1.795 4.182-2.784 6.72-2.784 2.539 0 4.926.989 6.721 2.784 3.706 3.706 3.706 9.736 0 13.442l-8.016 8.016c-9.555 9.554-9.555 25.101 0 34.655 4.777 4.777 11.052 7.166 17.327 7.166s12.55-2.389 17.328-7.166l36.073-36.073c2.93-2.927 2.93-7.676.001-10.605zm-109.787 59.67-17.073 17.073c-.189-.271-.372-.545-.562-.815-2.385-3.387-7.063-4.2-10.45-1.814-3.387 2.385-4.199 7.063-1.814 10.45 20.078 28.516 30.69 62.09 30.69 97.095 0 93.107-75.748 168.855-168.854 168.855s-168.857-75.749-168.857-168.856 75.748-168.855 168.855-168.855c45.098 0 87.499 17.561 119.39 49.448 2.929 2.929 7.678 2.929 10.606-.001 2.929-2.929 2.928-7.678-.001-10.606-7.805-7.804-16.193-14.813-25.058-21l17.051-17.05c.201-.202.529-.201.73 0l45.346 45.346c.202.201.202.528.001.73z" />
  <path
    d="m456.403 79.129c4.142 0 7.5-3.358 7.5-7.5v-16.032c0-4.142-3.358-7.5-7.5-7.5s-7.5 3.358-7.5 7.5v16.032c0 4.142 3.358 7.5 7.5 7.5z" />
  <path
    d="m456.483 136.274h-.08c-4.142 0-7.46 3.358-7.46 7.5s3.398 7.5 7.54 7.5 7.5-3.358 7.5-7.5-3.358-7.5-7.5-7.5z" />
  <path
    d="m504.5 96.193h-16.032c-4.142 0-7.5 3.358-7.5 7.5s3.358 7.5 7.5 7.5h16.032c4.142 0 7.5-3.358 7.5-7.5s-3.358-7.5-7.5-7.5z" />
</svg>
