<svg enable-background="new 0 0 512 512" viewBox="0 0 512 512" xmlns="http://www.w3.org/2000/svg">
  <path d="m159.813 256h240.48v120.24h-240.48z" fill="#000000" />
  <path d="m178.809 256c18.056 37.849 56.588 64.129 101.243 64.129s83.187-26.28 101.243-64.129z"
    fill="#000000" />
  <path
    d="m183.858 280.048c0-14.695-13.181-26.312-28.365-23.672-9.717 1.689-17.66 9.684-19.357 19.4-1.539 8.808 1.793 16.811 7.642 22.08v206.644h32.065v-206.644c4.885-4.402 8.015-10.713 8.015-17.808z"
    fill="#000000" />
  <path
    d="m355.704 256h-27.555v70.129c0 26.336-20.294 49.301-46.618 50.091-27.238.817-49.576-21.02-49.576-48.074v-72.146h-27.555c0 49.421-16.96 75.038-24.74 84.189-2.474 2.91-3.817 6.547-3.817 10.367v153.944h208.419v-153.944c0-3.82-1.343-7.457-3.817-10.367-7.781-9.151-24.741-34.768-24.741-84.189z"
    fill="#000000" />
  <path
    d="m358.371 288.048c-1.644-9.34-2.667-19.973-2.667-32.048h-27.555v53.209c11.225-5.371 21.429-12.54 30.222-21.161z"
    fill="#000000" />
  <path
    d="m231.955 309.209v-53.209h-27.555c0 12.075-1.024 22.708-2.667 32.048 8.792 8.621 18.996 15.79 30.222 21.161z"
    fill="#000000" />
  <path
    d="m191.874 191.871v16.032c0 48.699 39.478 88.177 88.177 88.177s88.177-39.478 88.177-88.177v-16.032z"
    fill="#000000" />
  <path
    d="m191.874 191.871v16.032c0 48.699 39.478 88.177 88.177 88.177 1.803 0 3.565-.163 5.341-.27-16.435-1.38-29.389-15.002-29.389-31.794 0-8.855 7.178-16.032 16.032-16.032h48.097c13.282 0 24.048-10.767 24.048-24.048v-16.032-16.032z"
    fill="#000000" />
  <path
    d="m368.229 191.871h-176.355v16.032c0 6.996.9 13.767 2.44 20.293 4.587 1.652 9.418 2.842 14.513 3.383 3.437 14.003 16.096 24.421 31.144 24.421h80.161c15.054 0 27.718-10.427 31.149-24.439 5.049-.559 9.895-1.768 14.525-3.434 1.529-6.505 2.423-13.253 2.423-20.224z"
    fill="#000000" />
  <path
    d="m275.014 7.619c-56.05 2.639-99.172 50.897-99.172 107.01v46.185c0 29.186 17.945 47.089 40.081 47.089h16.032v16.032c0 4.427 3.589 8.016 8.016 8.016h80.161c4.427 0 8.016-3.589 8.016-8.016v-16.032h16.032c22.136 0 40.081-17.945 40.081-40.081v-56.112c0-59.224-49.404-106.909-109.247-104.091z"
    fill="#000000" />
  <path
    d="m231.955 183.855v-80.161h-55.541c-.364 3.606-.572 7.25-.572 10.935v46.185c0 29.186 17.945 47.089 40.081 47.089h16.032v16.032c0 4.427 3.589 8.016 8.016 8.016h16.032v-24.048c0-13.281-10.767-24.048-24.048-24.048z"
    fill="#000000" />
  <circle cx="324.143" cy="155.8" fill="#000000" r="28.06" />
  <path
    d="m127.745 103.694c-17.138 0-32.067 6.457-40.081 16.032 8.014 9.575 22.942 16.032 40.081 16.032s32.067-6.457 40.081-16.032c-8.014-9.575-22.943-16.032-40.081-16.032z"
    fill="#000000" />
  <path
    d="m158.565 72.588c-12.058-12.058-27.127-17.994-39.535-16.862-1.132 12.409 4.805 27.478 16.862 39.535 12.058 12.058 27.127 17.994 39.535 16.862 1.133-12.408-4.804-27.477-16.862-39.535z"
    fill="#000000" />
  <path
    d="m280.051 7.5c-57.553 0-104.21 46.656-104.21 104.21v16.032s98.26-.04 197.476-62.313c-17.056-34.301-52.358-57.929-93.266-57.929z"
    fill="#000000" />
  <path
    d="m361.378 47.125c-3.318-4.38-5.334-6.78-9.287-10.581-38.223 21.345-75.329 34.154-105.744 41.394-6.253 1.488-11.669-4.992-9.567-11.067 9.908-28.638 34.176-50.562 64.191-57.221-16.718-3.421-34.818-3.068-53.709 3.315-43.29 14.627-71.42 56.606-71.42 102.3v12.477s22.197-.023 56.113-6.708v-10.793c0-7.515 5.216-14.972 12.548-16.617 33.203-7.446 71.625-20.124 116.875-46.499z"
    fill="#000000" />
  <circle cx="235.963" cy="155.8" fill="#000000" r="28.06" />
  <path
    d="m424.342 280.048c0-14.695-13.181-26.312-28.365-23.672-9.717 1.689-17.66 9.684-19.357 19.4-1.539 8.808 1.793 16.811 7.642 22.08v206.644h32.065v-206.644c4.885-4.402 8.015-10.713 8.015-17.808z"
    fill="#000000" />
  <path d="m360.213 504.5h24.048v-144.29s-3.589 0-8.016 0c-8.854 0-16.032 7.178-16.032 16.032z"
    fill="#000000" />
  <path
    d="m175.842 504.5h24.048v-128.258c0-8.854-7.178-16.032-16.032-16.032-4.427 0-8.016 0-8.016 0z"
    fill="#000000" />
  <path
    d="m304.1 248.5h-48.097c-4.142 0-7.5 3.358-7.5 7.5s3.358 7.5 7.5 7.5h48.097c4.142 0 7.5-3.358 7.5-7.5s-3.358-7.5-7.5-7.5z" />
  <path
    d="m239.964 94.578c.535 0 1.079-.058 1.623-.178 5.44-1.199 10.931-2.525 16.32-3.939 4.007-1.051 6.402-5.151 5.351-9.158-1.051-4.006-5.153-6.403-9.158-5.351-5.199 1.364-10.496 2.643-15.744 3.8-4.045.892-6.601 4.894-5.709 8.939.773 3.502 3.874 5.887 7.317 5.887z" />
  <path
    d="m280.051 207.387c4.142 0 7.5-3.358 7.5-7.5v-8.016c0-4.143-3.358-7.5-7.5-7.5s-7.5 3.357-7.5 7.5v8.016c0 4.142 3.358 7.5 7.5 7.5z" />
  <path
    d="m400.294 248.5h-33.618c5.802-12.331 9.053-26.09 9.053-40.597v-4.505c9.825-8.723 16.033-21.435 16.033-35.576v-56.112c-.001-61.597-50.113-111.71-111.711-111.71-50.139 0-92.666 33.205-106.754 78.778-2.63-3.975-5.732-7.796-9.287-11.351-13.356-13.356-30.42-20.524-45.644-19.172-3.618.321-6.486 3.189-6.808 6.808-1.204 13.569 4.373 28.593 15.053 41.156-18.437.275-35.087 7.207-44.7 18.692-2.332 2.786-2.332 6.842 0 9.628 9.811 11.721 26.944 18.718 45.832 18.718 15.883 0 30.507-4.962 40.597-13.506v38.07c0 14.141 6.207 26.853 16.032 35.576v4.505c0 14.506 3.251 28.266 9.053 40.597h-33.618c-17.396 0-31.548 14.152-31.548 31.548 0 7.687 2.886 15.125 8.016 20.885v203.568c0 4.142 3.358 7.5 7.5 7.5s7.5-3.358 7.5-7.5v-206.645c0-2.125-.901-4.15-2.48-5.572-3.57-3.216-5.536-7.561-5.536-12.235 0-9.125 7.423-16.548 16.548-16.548h36.932c-1.013 26.643-7.289 45.248-13.4 57.25v-24.67c0-4.142-3.358-7.5-7.5-7.5s-7.5 3.358-7.5 7.5v208.42c0 4.142 3.358 7.5 7.5 7.5s7.5-3.358 7.5-7.5v-157.181c6.725-7.142 23.898-29.381 27.765-73.147 4.082 4.245 8.549 8.115 13.347 11.552v42.421c0 30.656 24.94 55.597 55.597 55.597s55.597-24.941 55.597-55.597v-42.421c4.798-3.438 9.266-7.308 13.347-11.552 3.867 43.766 21.041 66.005 27.766 73.147v157.181c0 4.142 3.358 7.5 7.5 7.5s7.5-3.358 7.5-7.5v-208.419c0-4.142-3.358-7.5-7.5-7.5s-7.5 3.358-7.5 7.5v24.664c-6.114-12.008-12.387-30.61-13.4-57.245h36.932c9.125 0 16.548 7.424 16.548 16.548 0 4.674-1.966 9.019-5.536 12.235-1.579 1.422-2.48 3.447-2.48 5.572v206.645c0 4.142 3.358 7.5 7.5 7.5s7.5-3.358 7.5-7.5v-203.566c5.13-5.76 8.016-13.199 8.016-20.885.004-17.397-14.148-31.549-31.544-31.549zm-23.533-80.678c0 8.325-3.142 15.927-8.298 21.693l-14.458-14.458c3.594-5.555 5.691-12.165 5.691-19.259 0-19.606-15.95-35.556-35.556-35.556-7.094 0-13.704 2.097-19.259 5.691l-12.29-12.29c24.344-8.042 51.328-19.274 78.369-34.935 3.752 10.303 5.801 21.417 5.801 33.001zm-52.621-32.58c11.334 0 20.556 9.222 20.556 20.556s-9.222 20.556-20.556 20.556c-11.335 0-20.557-9.222-20.557-20.556s9.222-20.556 20.557-20.556zm-44.089-120.242c24.714 0 47.288 9.323 64.402 24.63-18.344 10.384-38.117 19.362-58.879 26.677-3.907 1.376-5.958 5.659-4.582 9.566 1.086 3.083 3.981 5.01 7.074 5.01.827 0 1.668-.138 2.492-.428 22.83-8.043 44.544-18.016 64.568-29.634 3.593 4.421 6.803 9.165 9.582 14.18-78.025 45.505-157.142 53.533-181.367 54.942v-8.233c.001-53.326 43.385-96.71 96.71-96.71zm-44.088 120.242c11.335 0 20.557 9.222 20.557 20.556s-9.222 20.556-20.557 20.556c-11.334 0-20.556-9.222-20.556-20.556s9.221-20.556 20.556-20.556zm-82.559-57.208c7.95 7.95 13.166 17.647 14.563 26.629-8.982-1.397-18.679-6.613-26.629-14.563-7.95-7.951-13.166-17.647-14.563-26.629 8.982 1.397 18.679 6.612 26.629 14.563zm-25.659 50.224c-11.244 0-21.788-3.169-29.127-8.532 7.34-5.363 17.884-8.532 29.127-8.532s21.788 3.169 29.127 8.532c-7.339 5.363-17.884 8.532-29.127 8.532zm55.597 6.744c5.715-.29 14.496-.932 25.659-2.345-5.35 6.225-8.595 14.309-8.595 23.141 0 19.606 15.95 35.556 35.556 35.556s35.557-15.95 35.557-35.556c0-13.357-7.406-25.011-18.325-31.087 7.247-1.687 15.018-3.685 23.2-6.051l17.88 17.88c-3.594 5.555-5.691 12.165-5.691 19.259 0 19.606 15.951 35.556 35.557 35.556 7.094 0 13.704-2.097 19.259-5.691l12.536 12.537c-3.649 1.417-7.611 2.203-11.755 2.203h-16.032c-4.142 0-7.5 3.358-7.5 7.5v16.548h-17.064v-.516c0-4.142-3.358-7.5-7.5-7.5s-7.5 3.358-7.5 7.5v.516h-17.064v-.516c0-4.142-3.358-7.5-7.5-7.5s-7.5 3.358-7.5 7.5v.516h-17.064v-16.548c0-4.142-3.358-7.5-7.5-7.5h-16.032c-17.965 0-32.581-14.616-32.581-32.581zm137.306 177.627h-24.564c-4.142 0-7.5 3.358-7.5 7.5 0 4.143 3.358 7.5 7.5 7.5h24.564v.517c0 5.892-1.272 11.49-3.54 16.548h-21.024c-4.142 0-7.5 3.358-7.5 7.5 0 4.143 3.358 7.5 7.5 7.5h9.479c-6.977 5.653-15.853 9.049-25.511 9.049s-18.535-3.396-25.511-9.049h9.479c4.142 0 7.5-3.357 7.5-7.5 0-4.142-3.358-7.5-7.5-7.5h-21.024c-2.268-5.058-3.54-10.656-3.54-16.548v-.517h24.564c4.142 0 7.5-3.357 7.5-7.5 0-4.142-3.358-7.5-7.5-7.5h-24.564v-18.102c12.331 5.802 26.09 9.053 40.597 9.053s28.266-3.251 40.597-9.053v18.102zm-40.597-24.048c-42.947 0-78.154-33.734-80.539-76.096 5.118 1.886 10.645 2.918 16.41 2.918h8.532v16.548c0 4.142 3.358 7.5 7.5 7.5h96.193c4.142 0 7.5-3.358 7.5-7.5v-16.548h8.532c5.765 0 11.292-1.032 16.41-2.918-2.383 42.361-37.591 76.096-80.538 76.096z" />
</svg>
