<svg enable-background="new 0 0 512 512" viewBox="0 0 512 512" xmlns="http://www.w3.org/2000/svg">
  <path
    d="m457.24 260.611c-5.765-7.656-16.059-11.198-25.301-8.664-9.19 2.519-15.373 9.653-17.266 17.879-2.701 11.74-10.965 21.42-21.882 26.51l-287.132 133.893c-10.918 5.091-23.645 5.198-34.373-.278-7.519-3.838-16.958-3.687-24.794 1.734-7.882 5.452-11.786 15.615-9.627 24.951 1.891 8.177 7.4 13.937 14.109 16.783-2.132 6.969-1.261 14.892 3.788 21.596 5.765 7.656 16.059 11.198 25.301 8.664 9.19-2.519 15.373-9.653 17.266-17.879 2.701-11.74 10.965-21.42 21.882-26.51l287.133-133.893c10.918-5.091 23.644-5.198 34.373.278 7.519 3.838 16.958 3.687 24.794-1.734 7.882-5.452 11.786-15.615 9.627-24.951-1.891-8.177-7.4-13.937-14.109-16.783 2.131-6.969 1.259-14.891-3.789-21.596z"
    fill="#000000" />
  <path
    d="m253.398 7.523c-74.06 1.387-133.668 61.856-133.668 136.247v72.144c0 17.709 14.356 32.064 32.064 32.064h32.064v40.08c0 4.427 3.589 8.016 8.016 8.016h128.255c4.427 0 8.016-3.589 8.016-8.016v-40.08h32.064c17.709 0 32.064-14.356 32.064-32.064v-68.573c0-76.381-62.506-141.249-138.875-139.818z"
    fill="#000000" />
  <path
    d="m257.446 215.915h-2.889c-3.821 0-7.111 2.697-7.861 6.444l-4.809 24.048c-.992 4.96 2.802 9.588 7.861 9.588h12.508c5.059 0 8.853-4.628 7.86-9.588l-4.81-24.048c-.75-3.747-4.039-6.444-7.86-6.444z"
    fill="#000000" />
  <path
    d="m253.399 7.523c-74.061 1.387-133.669 61.856-133.669 136.247v72.144c0 17.709 14.355 32.064 32.064 32.064h32.064v-144.288c0-49.328 37.149-89.927 84.986-95.486-5.08-.504-10.222-.779-15.445-.681z"
    fill="#000000" />
  <circle cx="191.877" cy="175.837" fill="#000000" r="40.079" />
  <circle cx="320.124" cy="175.837" fill="#000000" r="40.079" />
  <g fill="#000000">
    <path d="m191.873 296.074h15.516v-48.096h-23.532v40.08c0 4.427 3.589 8.016 8.016 8.016z" />
    <path d="m320.129 296.074h-15.516v-48.096h23.532v40.08c0 4.427-3.589 8.016-8.016 8.016z" />
    <path d="m227.55 408.769 94.837-44.223-37.935-17.69-94.837 44.223z" />
  </g>
  <path
    d="m54.761 260.611c5.765-7.656 16.059-11.198 25.301-8.664 9.19 2.519 15.373 9.653 17.266 17.879 2.701 11.74 10.965 21.42 21.882 26.51l287.133 133.892c10.918 5.091 23.644 5.198 34.373-.278 7.519-3.838 16.958-3.687 24.794 1.734 7.882 5.452 11.786 15.615 9.627 24.951-1.891 8.177-7.4 13.937-14.109 16.783 2.132 6.969 1.261 14.892-3.788 21.596-5.765 7.656-16.059 11.198-25.301 8.664-9.19-2.519-15.373-9.653-17.266-17.879-2.701-11.74-10.965-21.42-21.882-26.51l-287.132-133.893c-10.918-5.091-23.645-5.198-34.373.278-7.519 3.838-16.958 3.687-24.794-1.734-7.882-5.452-11.786-15.615-9.627-24.951 1.891-8.177 7.4-13.937 14.109-16.783-2.132-6.968-1.261-14.89 3.787-21.595z"
    fill="#000000" />
  <path
    d="m191.873 223.415c26.235 0 47.58-21.345 47.58-47.58 0-6.608-1.331-13.008-3.957-19.021-1.657-3.796-6.078-5.53-9.875-3.873-3.796 1.657-5.53 6.078-3.873 9.875 1.794 4.109 2.704 8.489 2.704 13.019 0 17.965-14.616 32.58-32.58 32.58s-32.58-14.616-32.58-32.58 14.616-32.58 32.58-32.58c4.539 0 8.927.913 13.044 2.714 3.794 1.661 8.217-.07 9.877-3.865s-.071-8.217-3.866-9.877c-6.024-2.635-12.435-3.972-19.055-3.972-26.235 0-47.58 21.345-47.58 47.58s21.346 47.58 47.581 47.58z" />
  <path
    d="m350.006 162.815c1.793 4.109 2.703 8.49 2.703 13.02 0 17.965-14.616 32.58-32.58 32.58-17.965 0-32.58-14.616-32.58-32.58s14.616-32.58 32.58-32.58c4.539 0 8.927.913 13.043 2.714 3.795 1.66 8.217-.07 9.877-3.865s-.07-8.217-3.865-9.877c-6.024-2.635-12.435-3.972-19.055-3.972-26.235 0-47.58 21.345-47.58 47.58s21.345 47.58 47.58 47.58 47.58-21.345 47.58-47.58c0-6.607-1.331-13.007-3.956-19.021-1.657-3.796-6.077-5.53-9.874-3.873-3.796 1.657-5.53 6.078-3.873 9.874z" />
  <path
    d="m234.533 244.935c-.915 4.576.257 9.271 3.215 12.88 2.959 3.609 7.333 5.679 12 5.679h12.508c4.667 0 9.04-2.07 11.999-5.679s4.131-8.304 3.216-12.88l-4.81-24.048c-1.446-7.228-7.845-12.473-15.215-12.473h-2.889c-7.371 0-13.77 5.246-15.215 12.473zm14.709 2.942 4.81-24.048c.048-.24.261-.414.506-.414h2.889c.246 0 .458.174.506.415l4.81 24.047c.014.071.048.239-.107.429-.155.189-.326.189-.399.189h-12.508c-.073 0-.244 0-.399-.189-.156-.189-.123-.357-.108-.429z" />
  <path
    d="m151.793 255.478h24.563v32.58c0 8.556 6.96 15.516 15.516 15.516h128.256c8.556 0 15.516-6.96 15.516-15.516v-32.58h24.563c21.816 0 39.563-17.749 39.563-39.563v-68.573c0-39.545-16.33-78.251-44.8-106.195-27.74-27.227-63.854-41.827-101.712-41.123-37.825.709-73.274 15.977-99.816 42.989-26.576 27.049-41.212 62.832-41.212 100.756v72.144c0 21.816 17.747 39.565 39.563 39.565zm-24.564-111.709c0-33.967 13.109-66.017 36.912-90.243 23.772-24.195 55.521-37.87 89.397-38.504 33.81-.63 66.083 12.448 90.927 36.831 25.615 25.14 40.307 59.945 40.307 95.489v68.573c0 13.545-11.02 24.563-24.563 24.563h-48.096c-4.142 0-7.5 3.357-7.5 7.5 0 4.142 3.358 7.5 7.5 7.5h8.532v32.58c0 .285-.231.516-.516.516h-24.564v-.516c0-4.142-3.358-7.5-7.5-7.5s-7.5 3.358-7.5 7.5v.516h-17.064v-.516c0-4.142-3.358-7.5-7.5-7.5s-7.5 3.358-7.5 7.5v.516h-17.064v-.516c0-4.142-3.358-7.5-7.5-7.5s-7.5 3.358-7.5 7.5v.516h-24.564c-.285 0-.516-.231-.516-.516v-32.58h8.532c4.142 0 7.5-3.358 7.5-7.5 0-4.143-3.358-7.5-7.5-7.5h-48.096c-13.545 0-24.563-11.02-24.563-24.563v-72.145h-.001z" />
  <path
    d="m263.446 47.344c5.008.381 10.014 1.157 14.878 2.306.58.137 1.16.203 1.73.203 3.399 0 6.478-2.326 7.293-5.778.952-4.031-1.544-8.071-5.575-9.023-5.621-1.328-11.404-2.224-17.188-2.664-4.146-.319-7.733 2.779-8.048 6.909-.312 4.13 2.781 7.733 6.91 8.047z" />
  <path
    d="m303.615 59.575c16.016 9.078 29.064 22.455 37.738 38.682 1.351 2.528 3.942 3.967 6.621 3.967 1.193 0 2.403-.286 3.529-.887 3.653-1.953 5.032-6.497 3.08-10.15-10.015-18.738-25.081-34.181-43.571-44.661-3.602-2.042-8.181-.777-10.223 2.826s-.778 8.18 2.826 10.223z" />
  <path
    d="m469.777 425.516c-9.657-6.679-22.099-7.54-32.471-2.246-8.412 4.294-18.802 4.354-27.793.161l-97.83-45.619 97.831-45.619c8.991-4.193 19.381-4.133 27.793.161 10.373 5.294 22.815 4.434 32.47-2.245 10.444-7.225 15.535-20.41 12.667-32.81-1.83-7.913-6.45-14.595-12.997-19.019.819-7.858-1.33-15.692-6.216-22.182-7.656-10.167-21.028-14.743-33.275-11.386-11.324 3.104-19.98 12.082-22.592 23.43-2.118 9.205-8.75 17.203-17.743 21.396l-133.621 62.31-133.622-62.309c-8.992-4.193-15.625-12.191-17.743-21.396-2.612-11.349-11.269-20.327-22.592-23.43-12.249-3.357-25.619 1.219-33.275 11.386-4.885 6.489-7.035 14.323-6.215 22.181-6.546 4.424-11.167 11.106-12.997 19.019-2.868 12.4 2.222 25.585 12.667 32.81 9.656 6.679 22.099 7.54 32.47 2.245 8.412-4.293 18.802-4.354 27.794-.161l97.83 45.619-97.831 45.619c-8.992 4.193-19.382 4.133-27.793-.161-10.373-5.294-22.814-4.434-32.47 2.246-10.444 7.225-15.535 20.41-12.667 32.809 1.83 7.914 6.45 14.596 12.997 19.02-.819 7.858 1.33 15.692 6.216 22.182 5.982 7.942 15.454 12.473 25.153 12.473 2.713 0 5.446-.355 8.123-1.089 11.324-3.104 19.98-12.082 22.592-23.43 2.118-9.204 8.75-17.203 17.743-21.396l133.622-62.309 133.621 62.309c8.992 4.193 15.625 12.191 17.743 21.396 2.612 11.349 11.269 20.327 22.592 23.43 2.678.734 5.409 1.089 8.123 1.089 9.698 0 19.171-4.531 25.152-12.476 4.885-6.488 7.035-14.322 6.215-22.181 6.546-4.424 11.167-11.105 12.997-19.02 2.867-12.398-2.224-25.583-12.668-32.807zm-73.815-122.382c13.148-6.131 22.876-17.954 26.021-31.625 1.393-6.053 5.856-10.661 11.939-12.328 6.276-1.72 13.399.725 17.328 5.942 4.432 5.886 3.536 11.856 2.607 14.891-1.124 3.672.708 7.599 4.243 9.099 2.922 1.239 8.071 4.391 9.731 11.569 1.472 6.364-1.236 13.393-6.586 17.094-5.188 3.588-11.586 4.045-17.119 1.221-12.497-6.378-27.806-6.526-40.952-.396l-109.238 50.939-20.189-9.415zm-279.921 149.358c-13.148 6.131-22.876 17.954-26.021 31.626-1.393 6.052-5.856 10.66-11.939 12.328-6.275 1.72-13.398-.725-17.328-5.942-4.432-5.887-3.536-11.856-2.607-14.891 1.124-3.672-.708-7.599-4.243-9.099-2.921-1.239-8.071-4.39-9.731-11.568-1.472-6.364 1.236-13.394 6.586-17.094 5.188-3.589 11.588-4.045 17.118-1.222 12.496 6.379 27.806 6.526 40.953.396l109.238-50.938 20.189 9.415zm351.789 2.454c-1.66 7.178-6.81 10.329-9.731 11.568-3.535 1.5-5.367 5.427-4.243 9.1.929 3.034 1.825 9.004-2.606 14.89-3.93 5.219-11.054 7.663-17.329 5.943-6.083-1.668-10.546-6.276-11.939-12.328-3.146-13.673-12.874-25.495-26.021-31.626l-287.132-133.894c-6.432-2.999-13.379-4.495-20.263-4.495-7.188 0-14.308 1.633-20.691 4.891-5.531 2.824-11.931 2.367-17.119-1.221-5.35-3.701-8.058-10.73-6.586-17.095 1.66-7.178 6.81-10.329 9.731-11.568 3.535-1.5 5.366-5.427 4.243-9.099-.929-3.035-1.825-9.004 2.606-14.89 3.929-5.218 11.054-7.663 17.329-5.942 6.083 1.667 10.546 6.275 11.939 12.328 3.146 13.673 12.874 25.495 26.021 31.626l287.133 133.892c13.148 6.131 28.457 5.983 40.953-.396 5.531-2.823 11.932-2.366 17.119 1.222 5.35 3.7 8.058 10.73 6.586 17.094z" />
</svg>
