<svg width="80" height="80" viewBox="0 0 80 80" fill="none" xmlns="http://www.w3.org/2000/svg">
  <path d="M26.1436 16C34.718 11.0496 45.282 11.0496 53.8564 16C62.4308 20.9504 67.7128 30.0992 67.7128 40C67.7128 49.9008 62.4308 59.0496 53.8564 64C45.282 68.9504 34.718 68.9504 26.1436 64C17.5692 59.0496 12.2872 49.9008 12.2872 40C12.2872 30.0992 17.5692 20.9504 26.1436 16Z" fill="#F2C94C" />
  <path fill-rule="evenodd" clip-rule="evenodd" d="M42 12.3593L42 67.6406C40.6685 67.7369 39.3315 67.7369 38 67.6406L38 12.3593C39.3315 12.2631 40.6685 12.2631 42 12.3593Z" fill="#9B51E0" />
  <path fill-rule="evenodd" clip-rule="evenodd" d="M17.3555 24.024L37.4862 12.4015C38.3223 12.3254 39.1611 12.2874 39.9999 12.2874V15.569L13.9202 30.6261C14.7644 28.2782 15.9211 26.0574 17.3555 24.024ZM12.2903 39.575C12.3158 37.9078 12.4909 36.2634 12.8061 34.6584L39.9999 18.9581V23.5769L12.2903 39.575ZM13.1983 47.0508C12.8398 45.6883 12.5836 44.2918 12.4359 42.8722L39.9999 26.9581V31.5769L13.1983 47.0508ZM15.8187 53.5379C15.165 52.3704 14.5957 51.1553 14.1161 49.9021L39.9999 34.9581V39.5769L15.8187 53.5379ZM19.9626 59.1454C19.0249 58.1639 18.1633 57.1175 17.3833 56.0158L39.9999 42.9581L39.9999 47.5769L19.9626 59.1454ZM25.7762 63.7844C24.5046 63.024 23.3076 62.1703 22.192 61.2349L39.9999 50.9536V55.5724L25.7762 63.7844ZM33.9808 67.052C32.2412 66.6651 30.5304 66.1084 28.8736 65.3818L39.9999 58.9581V63.5769L33.9808 67.052ZM39.9999 66.9581L39.9999 67.713C39.5804 67.713 39.161 67.7035 38.7418 67.6844L39.9999 66.9581Z" fill="#9B51E0" />
</svg>