<svg width="80" height="80" viewBox="0 0 80 80" fill="none" xmlns="http://www.w3.org/2000/svg">
  <path fill-rule="evenodd" clip-rule="evenodd" d="M33 68C34.1046 68 35 67.1046 35 66V38C35 36.8954 34.1046 36 33 36L29 36C27.8954 36 27 36.8954 27 38L27 66C27 67.1046 27.8954 68 29 68H33ZM15 68C16.1046 68 17 67.1046 17 66L17 56C17 54.8954 16.1046 54 15 54H11C9.89543 54 9 54.8954 9 56L9 66C9 67.1046 9.89543 68 11 68H15ZM51 50C52.1046 50 53 50.8954 53 52L53 66C53 67.1046 52.1046 68 51 68H47C45.8954 68 45 67.1046 45 66L45 52C45 50.8954 45.8954 50 47 50H51ZM69 68C70.1046 68 71 67.1046 71 66V38C71 36.8954 70.1046 36 69 36H65C63.8954 36 63 36.8954 63 38L63 66C63 67.1046 63.8954 68 65 68H69Z" fill="#219653" />
  <path d="M17 66H15H17ZM33 38V66H37V38H33ZM29 38L33 38V34L29 34V38ZM29 66L29 38H25L25 66H29ZM33 66H29L29 70H33L33 66ZM15 56L15 66H19L19 56H15ZM11 56H15V52H11V56ZM11 66L11 56H7L7 66H11ZM15 66H11V70H15L15 66ZM55 66L55 52H51L51 66H55ZM47 70H51V66H47V70ZM43 52L43 66H47L47 52H43ZM51 48H47V52H51V48ZM69 38V66H73V38H69ZM65 38H69V34H65V38ZM65 66V38H61L61 66L65 66ZM69 66H65V70H69V66ZM61 66C61 68.2091 62.7909 70 65 70V66L61 66ZM65 34C62.7909 34 61 35.7909 61 38H65V34ZM69 66V70C71.2091 70 73 68.2091 73 66H69ZM73 38C73 35.7909 71.2091 34 69 34V38H73ZM47 52V48C44.7909 48 43 49.7909 43 52H47ZM47 66H43C43 68.2091 44.7909 70 47 70V66ZM55 52C55 49.7909 53.2091 48 51 48V52H55ZM51 66V70C53.2091 70 55 68.2091 55 66H51ZM7 66C7 68.2091 8.79086 70 11 70V66H11H7ZM11 52C8.79086 52 7 53.7909 7 56H11V52ZM15 66L15 70C17.2091 70 19 68.2091 19 66H15ZM19 56C19 53.7909 17.2091 52 15 52V56H19ZM25 66C25 68.2091 26.7909 70 29 70L29 66H25ZM29 34C26.7909 34 25 35.7909 25 38H29V34ZM33 66L33 70C35.2091 70 37 68.2091 37 66H33ZM37 38C37 35.7909 35.2091 34 33 34V38H37Z" fill="#219653" />
  <path d="M15.0003 29.1714C14.2193 29.9525 14.2193 31.2188 15.0003 31.9998C15.7814 32.7809 17.0477 32.7809 17.8288 31.9998L15.0003 29.1714ZM29.0003 20.8283C29.7814 20.0472 29.7814 18.7809 29.0003 17.9998C28.2193 17.2188 26.953 17.2188 26.1719 17.9998L29.0003 20.8283ZM35.9683 17.5366C35.1198 16.8294 33.8586 16.9441 33.1515 17.7926C32.4444 18.6412 32.559 19.9023 33.4076 20.6094L35.9683 17.5366ZM44.0317 29.4629C44.8803 30.17 46.1414 30.0554 46.8485 29.2068C47.5557 28.3583 47.441 27.0971 46.5925 26.39L44.0317 29.4629ZM51.4078 26.3902C50.5593 27.0973 50.4446 28.3584 51.1518 29.207C51.8589 30.0555 53.12 30.1702 53.9686 29.4631L51.4078 26.3902ZM64.5927 20.6096C65.4413 19.9025 65.5559 18.6413 64.8488 17.7928C64.1417 16.9442 62.8805 16.8296 62.032 17.5367L64.5927 20.6096ZM17.8288 31.9998L29.0003 20.8283L26.1719 17.9998L15.0003 29.1714L17.8288 31.9998ZM33.4076 20.6094L44.0317 29.4629L46.5925 26.39L35.9683 17.5366L33.4076 20.6094ZM53.9686 29.4631L64.5927 20.6096L62.032 17.5367L51.4078 26.3902L53.9686 29.4631Z" fill="#4F4F4F" />
  <path fill-rule="evenodd" clip-rule="evenodd" d="M35 14C35 12.8954 34.1046 12 33 12H29C27.8954 12 27 12.8954 27 14V18C27 19.1046 27.8954 20 29 20H33C34.1046 20 35 19.1046 35 18V14ZM17 32C17 30.8954 16.1046 30 15 30H11C9.89543 30 9 30.8954 9 32V36C9 37.1046 9.89543 38 11 38H15C16.1046 38 17 37.1046 17 36V32ZM45 29C45 27.8954 45.8954 27 47 27H51C52.1046 27 53 27.8954 53 29V33C53 34.1046 52.1046 35 51 35H47C45.8954 35 45 34.1046 45 33V29ZM71 14C71 12.8954 70.1046 12 69 12H65C63.8954 12 63 12.8954 63 14V18C63 19.1046 63.8954 20 65 20H69C70.1046 20 71 19.1046 71 18V14Z" fill="#219653" />
  <path d="M29 14H33V10H29V14ZM29 18V14H25V18H29ZM33 18H29V22H33V18ZM33 14V18H37V14H33ZM11 32H15V28H11V32ZM11 36V32H7V36H11ZM15 36H11V40H15V36ZM15 32V36H19V32H15ZM51 25H47V29H51V25ZM55 33V29H51V33H55ZM47 37H51L51 33H47L47 37ZM43 29V33H47V29H43ZM65 14L69 14V10H65V14ZM65 18V14H61V18H65ZM69 18L65 18V22H69V18ZM69 14V18H73V14H69ZM69 22C71.2091 22 73 20.2091 73 18H69V22ZM61 18C61 20.2091 62.7909 22 65 22V18H61ZM69 14H73C73 11.7909 71.2091 10 69 10V14ZM65 10C62.7909 10 61 11.7909 61 14H65V10ZM47 33H43C43 35.2091 44.7909 37 47 37L47 33ZM51 33L51 37C53.2091 37 55 35.2091 55 33H51ZM47 25C44.7909 25 43 26.7909 43 29H47V25ZM51 29H55C55 26.7909 53.2091 25 51 25V29ZM15 40C17.2091 40 19 38.2091 19 36H15V40ZM7 36C7 38.2091 8.79086 40 11 40V36H7ZM15 32H19C19 29.7909 17.2091 28 15 28V32ZM11 28C8.79086 28 7 29.7909 7 32H11V28ZM33 22C35.2091 22 37 20.2091 37 18H33V22ZM25 18C25 20.2091 26.7909 22 29 22V18H25ZM33 14H37C37 11.7909 35.2091 10 33 10V14ZM29 10C26.7909 10 25 11.7909 25 14H29V10Z" fill="#219653" />
</svg>