<svg width="80" height="80" viewBox="0 0 80 80" fill="none" xmlns="http://www.w3.org/2000/svg">
  <path d="M28 40.1836L38.409 29.7746C39.2877 28.8959 40.7123 28.8959 41.591 29.7746L52 40.1836" stroke="#EB5757" stroke-width="4" stroke-linecap="round" stroke-linejoin="round" />
  <path d="M28 52.1836L38.409 41.7746C39.2877 40.8959 40.7123 40.8959 41.591 41.7746L52 52.1836" stroke="#F2C94C" stroke-width="4" stroke-linecap="round" stroke-linejoin="round" />
</svg>