<svg width="80" height="80" viewBox="0 0 80 80" fill="none" xmlns="http://www.w3.org/2000/svg">
  <path d="M49.4835 63.8984L48.7181 62.0507V62.0507L49.4835 63.8984ZM42.298 63.7128C41.2006 63.8384 40.4128 64.8298 40.5384 65.9272C40.6639 67.0246 41.6553 67.8124 42.7527 67.6869L42.298 63.7128ZM42.7342 67.689C43.8317 67.5642 44.6202 66.5733 44.4953 65.4758C44.3705 64.3783 43.3796 63.5898 42.2821 63.7146L42.7342 67.689ZM42.1989 63.7239C41.101 63.8449 40.309 64.833 40.43 65.931C40.551 67.0289 41.5391 67.8209 42.637 67.6999L42.1989 63.7239ZM63.4835 49.8984L61.6357 49.1331L63.4835 49.8984ZM63.4835 30.0994L65.3313 29.3341L65.3313 29.3341L63.4835 30.0994ZM58.4837 19.5182C57.672 18.7691 56.4066 18.8198 55.6576 19.6316C54.9085 20.4433 54.9592 21.7086 55.771 22.4577L58.4837 19.5182ZM48.7181 62.0507C46.6472 62.9085 44.4859 63.4625 42.298 63.7128L42.7527 67.6869C45.3073 67.3946 47.8311 66.7477 50.2489 65.7462L48.7181 62.0507ZM42.2821 63.7146C42.2544 63.7178 42.2267 63.7209 42.1989 63.7239L42.637 67.6999C42.6694 67.6963 42.7018 67.6927 42.7342 67.689L42.2821 63.7146ZM61.6357 49.1331C59.2132 54.9816 54.5666 59.6282 48.7181 62.0507L50.2489 65.7462C57.0775 62.9177 62.5028 57.4924 65.3313 50.6638L61.6357 49.1331ZM61.6357 30.8648C64.0583 36.7133 64.0583 43.2846 61.6357 49.1331L65.3313 50.6638C68.1598 43.8352 68.1598 36.1627 65.3313 29.3341L61.6357 30.8648ZM55.771 22.4577C58.288 24.7805 60.2999 27.6399 61.6357 30.8648L65.3313 29.3341C63.7716 25.5687 61.4223 22.23 58.4837 19.5182L55.771 22.4577Z" fill="#56CCF2" />
  <path d="M42.418 56.5962L42.418 73.4038C42.418 75.0999 40.3673 75.9493 39.168 74.75L31.5393 67.1213C30.3677 65.9497 30.3677 64.0503 31.5393 62.8787L39.168 55.25C40.3673 54.0507 42.418 54.9001 42.418 56.5962Z" fill="#2F80ED" stroke="#2F80ED" stroke-width="3" stroke-linecap="round" stroke-linejoin="round" />
  <path d="M29.4931 16.1016L30.2584 17.9493L30.2584 17.9493L29.4931 16.1016ZM36.6785 16.2872C37.7759 16.1616 38.5638 15.1702 38.4382 14.0728C38.3126 12.9754 37.3212 12.1876 36.2238 12.3131L36.6785 16.2872ZM36.2424 12.311C35.1449 12.4358 34.3564 13.4267 34.4812 14.5242C34.606 15.6217 35.5969 16.4102 36.6944 16.2854L36.2424 12.311ZM36.7776 16.2761C37.8756 16.1551 38.6675 15.167 38.5466 14.069C38.4256 12.9711 37.4375 12.1791 36.3396 12.3001L36.7776 16.2761ZM15.4931 30.1016L17.3408 30.8669L15.4931 30.1016ZM15.4931 49.9006L13.6453 50.6659L13.6453 50.6659L15.4931 49.9006ZM20.4929 60.4818C21.3046 61.2309 22.5699 61.1802 23.319 60.3684C24.0681 59.5567 24.0173 58.2914 23.2056 57.5423L20.4929 60.4818ZM30.2584 17.9493C32.3293 17.0915 34.4907 16.5375 36.6785 16.2872L36.2238 12.3131C33.6692 12.6054 31.1455 13.2523 28.7277 14.2538L30.2584 17.9493ZM36.6944 16.2854C36.7222 16.2822 36.7499 16.2791 36.7776 16.2761L36.3396 12.3001C36.3072 12.3037 36.2748 12.3073 36.2424 12.311L36.6944 16.2854ZM17.3408 30.8669C19.7633 25.0184 24.4099 20.3718 30.2584 17.9493L28.7277 14.2538C21.8991 17.0823 16.4738 22.5076 13.6453 29.3362L17.3408 30.8669ZM17.3408 49.1352C14.9183 43.2867 14.9183 36.7154 17.3408 30.8669L13.6453 29.3362C10.8168 36.1648 10.8168 43.8373 13.6453 50.6659L17.3408 49.1352ZM23.2056 57.5423C20.6886 55.2195 18.6766 52.3601 17.3408 49.1352L13.6453 50.6659C15.205 54.4313 17.5543 57.77 20.4929 60.4818L23.2056 57.5423Z" fill="#56CCF2" />
  <path d="M36.5586 23.4038L36.5586 6.59619C36.5586 4.90008 38.6093 4.05067 39.8086 5.25L47.4373 12.8787C48.6088 14.0503 48.6088 15.9497 47.4373 17.1213L39.8086 24.75C38.6093 25.9493 36.5586 25.0999 36.5586 23.4038Z" fill="#2F80ED" stroke="#2F80ED" stroke-width="3" stroke-linecap="round" stroke-linejoin="round" />
</svg>