<svg width="80" height="80" viewBox="0 0 80 80" fill="none" xmlns="http://www.w3.org/2000/svg">
  <path fill-rule="evenodd" clip-rule="evenodd" d="M62.1546 23.2178C63.6915 25.512 63.0775 28.6177 60.7833 30.1546L51.2624 36.5325C51.1063 36.637 51.0126 36.8126 51.0126 37.0005V43L29.0403 43L29.0403 37.0005C29.0403 36.8167 28.9485 36.6449 28.7955 36.5429L19.2261 30.1601C16.9288 28.6279 16.3086 25.5234 17.8409 23.2261C19.3732 20.9288 22.4777 20.3086 24.775 21.8409L34.735 28.4842C35.2696 28.8408 35.8977 29.031 36.5403 29.031H43.5126C44.1515 29.031 44.776 28.8412 45.3069 28.4856L55.2178 21.8465C57.512 20.3096 60.6177 20.9236 62.1546 23.2178ZM28.4789 47.5214L25.5048 50.4955L25.0412 50.9591L21.5598 54.4405C19.8106 56.1897 19.6034 58.9549 21.0724 60.9452L27.0174 69.0002C28.6572 71.222 31.7877 71.6938 34.0095 70.054C36.2313 68.4142 36.7031 65.2837 35.0633 63.0619L32.0419 58.9682C31.8301 58.6812 31.86 58.2824 32.1122 58.0302L32.5759 57.5666L35.7199 54.4225C35.2055 54.1789 34.7243 53.8614 34.2929 53.4763L30.0046 49.6488C29.3383 49.054 28.821 48.3254 28.4789 47.5214ZM44.3159 54.4054L47.477 57.5666L47.9407 58.0302L47.9515 58.041L47.9624 58.0518C48.2109 58.2973 48.2408 58.6884 48.0324 58.9688L44.9999 63.048C43.3524 65.2642 43.8134 68.3963 46.0296 70.0437C48.2457 71.6912 51.3778 71.2302 53.0253 69.014L59.0132 60.959C60.4999 58.9592 60.2871 56.1701 58.5143 54.4189L55.0009 50.9483L54.5481 50.4955L51.5368 47.4842C51.1949 48.3029 50.672 49.0448 49.9954 49.6488L45.7071 53.4763C45.2857 53.8524 44.8169 54.1641 44.3159 54.4054Z" fill="#F2C94C" />
  <path d="M34.7692 12.8004C37.8882 10.5343 42.1118 10.5343 45.2308 12.8004C48.3499 15.0665 49.655 19.0833 48.4636 22.75C47.2723 26.4167 43.8554 28.8992 40 28.8992C36.1446 28.8992 32.7277 26.4167 31.5364 22.75C30.345 19.0833 31.6501 15.0665 34.7692 12.8004Z" fill="#F2994A" />
  <path d="M41.7118 55C43.1855 55 44.6077 54.4576 45.7071 53.4763L49.9954 49.6488C51.2708 48.5104 52 46.882 52 45.1725L52 43.6942C52 43.3108 51.6892 43 51.3058 43L28.6942 43C28.3108 43 28 43.3108 28 43.6942L28 45.1725C28 46.882 28.7292 48.5104 30.0046 49.6488L34.2929 53.4763C35.3923 54.4576 36.8145 55 38.2882 55L41.7118 55Z" fill="#F2F2F2" />
</svg>