<svg width="80" height="80" viewBox="0 0 80 80" fill="none" xmlns="http://www.w3.org/2000/svg">
  <path fill-rule="evenodd" clip-rule="evenodd" d="M22 11L63.0204 11C63.5614 11 64 11.4386 64 11.9796L64 56.75C64 56.8881 63.8881 57 63.75 57H58L27.75 57H22C18.7702 57 16.1364 59.552 16.0051 62.7496C16.0049 62.7548 16 62.7552 16 62.75L16 17C16 13.6863 18.6863 11 22 11Z" fill="#6FCF97" />
  <path fill-rule="evenodd" clip-rule="evenodd" d="M63.3755 66.755C63.7412 67.1942 64 67.7268 64 68.2983V68.75C64 68.8881 63.8881 69 63.75 69H63.5H22C18.6863 69 16 66.3137 16 63C16 59.6863 18.6863 57 22 57L63.9375 57C63.972 57 64 57.028 64 57.0625V57.6017C64 58.1732 63.7412 58.7058 63.3755 59.145C62.5166 60.1764 62 61.5029 62 62.95C62 64.3971 62.5166 65.7236 63.3755 66.755Z" fill="#219653" />
  <path d="M34.594 21.7202C37.7632 20.4074 41.3242 20.4074 44.4934 21.7202V21.7202C47.6627 23.0329 50.1807 25.5509 51.4934 28.7202V28.7202C52.8062 31.8894 52.8062 35.4504 51.4934 38.6197V38.6197C50.1807 41.7889 47.6627 44.3069 44.4934 45.6197V45.6197C41.3242 46.9324 37.7632 46.9324 34.594 45.6197V45.6197C31.4247 44.3069 28.9067 41.7889 27.594 38.6197V38.6197C26.2812 35.4504 26.2812 31.8894 27.594 28.7202V28.7202C28.9067 25.5509 31.4247 23.0329 34.594 21.7202V21.7202Z" stroke="#9B51E0" stroke-width="4" stroke-linecap="round" stroke-linejoin="round" />
  <path d="M44.0033 40.9307L42.1555 40.1653L44.0033 40.9307ZM44.0033 26.4114L42.1555 27.1768L44.0033 26.4114ZM40.3791 46.5787L40.5082 48.5745C41.0185 48.5415 41.4968 48.3143 41.8447 47.9395L40.3791 46.5787ZM38.7094 46.5788L37.2439 47.9397C37.5919 48.3144 38.0701 48.5416 38.5804 48.5746L38.7094 46.5788ZM35.084 40.9296L36.9318 40.1642L35.084 40.9296ZM35.084 26.4103L33.2363 25.6449H33.2363L35.084 26.4103ZM38.7066 20.7642L38.5772 18.7684C38.0669 18.8014 37.5887 19.0287 37.2408 19.4035L38.7066 20.7642ZM40.3796 20.7641L41.8454 19.4033C41.4974 19.0286 41.0192 18.8013 40.5089 18.7683L40.3796 20.7641ZM45.8511 41.6961C47.9794 36.5578 47.9794 30.7844 45.8511 25.6461L42.1555 27.1768C43.8779 31.335 43.8779 36.0071 42.1555 40.1653L45.8511 41.6961ZM41.8447 47.9395C43.5247 46.1301 44.888 44.0211 45.8511 41.6961L42.1555 40.1653C41.3761 42.047 40.273 43.7535 38.9134 45.2178L41.8447 47.9395ZM38.5804 48.5746C39.2223 48.6161 39.8663 48.616 40.5082 48.5745L40.2499 44.5829C39.7799 44.6133 39.3084 44.6133 38.8384 44.5829L38.5804 48.5746ZM33.2363 41.6949C34.1996 44.0206 35.5633 46.13 37.2439 47.9397L40.1749 45.2178C38.8148 43.7532 37.7114 42.0463 36.9318 40.1642L33.2363 41.6949ZM33.2363 25.6449C31.1079 30.7833 31.1079 36.5566 33.2363 41.6949L36.9318 40.1642C35.2094 36.006 35.2094 31.3339 36.9318 27.1757L33.2363 25.6449ZM37.2408 19.4035C35.5616 21.2125 34.199 23.3208 33.2363 25.6449L36.9318 27.1757C37.7109 25.2948 38.8135 23.5888 40.1724 22.1248L37.2408 19.4035ZM40.5089 18.7683C39.8657 18.7266 39.2204 18.7267 38.5772 18.7684L38.836 22.76C39.307 22.7294 39.7794 22.7294 40.2504 22.7599L40.5089 18.7683ZM45.8511 25.6461C44.8881 23.3213 43.5251 21.2126 41.8454 19.4033L38.9139 22.1249C40.2733 23.5891 41.3762 25.2954 42.1555 27.1768L45.8511 25.6461Z" fill="#9B51E0" />
  <path d="M27.3098 39.8698H51.7767V35.8698H27.3098V39.8698ZM27.4801 31.0032L51.6064 31.0032V27.0032L27.4801 27.0032V31.0032Z" fill="#9B51E0" />
</svg>