<svg width="80" height="80" viewBox="0 0 80 80" fill="none" xmlns="http://www.w3.org/2000/svg">
  <rect x="8" y="8" width="64" height="64" rx="4" fill="#56CCF2" />
  <rect x="17" y="18" width="18" height="44" rx="4" fill="#2F80ED" stroke="#2F80ED" stroke-width="4" stroke-linecap="round" />
  <rect x="45" y="18" width="18" height="44" rx="4" fill="#2F80ED" stroke="#2F80ED" stroke-width="4" stroke-linecap="round" />
</svg>