<svg width="80" height="80" viewBox="0 0 80 80" fill="none" xmlns="http://www.w3.org/2000/svg">
  <rect x="12" y="34" width="56" height="32" fill="#F2994A" />
  <path d="M12 34H68L60 14H20L12 34Z" fill="#F2C94C" />
</svg>