<svg width="80" height="80" viewBox="0 0 80 80" fill="none" xmlns="http://www.w3.org/2000/svg">
  <path fill-rule="evenodd" clip-rule="evenodd" d="M23 16L57 16L57 64H23L23 16Z" fill="#4F4F4F" />
  <path d="M57 16H59C59 14.8954 58.1046 14 57 14V16ZM23 16V14C21.8954 14 21 14.8954 21 16H23ZM57 64V66C58.1046 66 59 65.1046 59 64H57ZM23 64H21C21 65.1046 21.8954 66 23 66V64ZM20 62C18.8954 62 18 62.8954 18 64C18 65.1046 18.8954 66 20 66V62ZM23 66C24.1046 66 25 65.1046 25 64C25 62.8954 24.1046 62 23 62V66ZM57 62C55.8954 62 55 62.8954 55 64C55 65.1046 55.8954 66 57 66V62ZM60 66C61.1046 66 62 65.1046 62 64C62 62.8954 61.1046 62 60 62V66ZM20 14C18.8954 14 18 14.8954 18 16C18 17.1046 18.8954 18 20 18V14ZM60 18C61.1046 18 62 17.1046 62 16C62 14.8954 61.1046 14 60 14V18ZM57 14L23 14V18L57 18V14ZM59 64L59 16H55L55 64H59ZM23 66H57V62L23 62V66ZM21 16L21 64H25L25 16H21ZM20 66H23V62H20V66ZM57 66H60V62H57V66ZM20 18L60 18V14L20 14V18Z" fill="#4F4F4F" />
  <path d="M34 58C34 56.8954 34.8954 56 36 56H44C45.1046 56 46 56.8954 46 58V64H34V58Z" fill="#F2C94C" stroke="#F2C94C" stroke-width="4" stroke-linecap="round" />
  <path d="M31 23H33" stroke="#F2C94C" stroke-width="4" stroke-linecap="round" stroke-linejoin="round" />
  <path d="M39 23H41" stroke="#F2C94C" stroke-width="4" stroke-linecap="round" stroke-linejoin="round" />
  <path d="M47 23H49" stroke="#F2C94C" stroke-width="4" stroke-linecap="round" stroke-linejoin="round" />
  <path d="M31 31H33" stroke="#F2C94C" stroke-width="4" stroke-linecap="round" stroke-linejoin="round" />
  <path d="M39 31H41" stroke="#F2C94C" stroke-width="4" stroke-linecap="round" stroke-linejoin="round" />
  <path d="M47 31H49" stroke="#F2C94C" stroke-width="4" stroke-linecap="round" stroke-linejoin="round" />
  <path d="M31 39H33" stroke="#F2C94C" stroke-width="4" stroke-linecap="round" stroke-linejoin="round" />
  <path d="M39 39H41" stroke="#F2C94C" stroke-width="4" stroke-linecap="round" stroke-linejoin="round" />
  <path d="M47 39H49" stroke="#F2C94C" stroke-width="4" stroke-linecap="round" stroke-linejoin="round" />
  <path d="M31 47H33" stroke="#F2C94C" stroke-width="4" stroke-linecap="round" stroke-linejoin="round" />
  <path d="M39 47H41" stroke="#F2C94C" stroke-width="4" stroke-linecap="round" stroke-linejoin="round" />
  <path d="M47 47H49" stroke="#F2C94C" stroke-width="4" stroke-linecap="round" stroke-linejoin="round" />
</svg>