<svg width="80" height="80" viewBox="0 0 80 80" fill="none" xmlns="http://www.w3.org/2000/svg">
  <path fill-rule="evenodd" clip-rule="evenodd" d="M47.7338 22.916L13.2993 42.7968L11.7223 32.4897C11.2237 29.2309 12.7752 25.9999 15.6303 24.3515L30.5943 15.712C33.4493 14.0637 37.0232 14.3355 39.5961 16.3967L47.7338 22.916Z" fill="#56CCF2" />
  <path fill-rule="evenodd" clip-rule="evenodd" d="M19.5352 59.8359L22.2837 64.5966C22.836 65.5532 24.0592 65.8809 25.0158 65.3286L30.2119 62.3286C31.1685 61.7763 31.4962 60.5532 30.944 59.5966L28.2584 54.9451L20.4642 59.4451C20.1652 59.6177 19.8531 59.7474 19.5352 59.8359ZM50.7751 41.9451L53.4606 46.5966C54.0129 47.5532 55.2361 47.8809 56.1927 47.3286L61.3888 44.3286C62.3454 43.7763 62.6732 42.5532 62.1209 41.5966L59.3723 36.8359C59.1367 37.067 58.8683 37.2724 58.5693 37.4451L50.7751 41.9451Z" fill="#828282" />
  <path d="M12 52.7846C9.79086 48.9583 11.1019 44.0656 14.9282 41.8564L46.1051 23.8564C49.9315 21.6473 54.8242 22.9583 57.0333 26.7846L60.0333 31.9808C61.1379 33.894 60.4824 36.3403 58.5692 37.4449L20.4641 59.4449C18.5509 60.5495 16.1046 59.894 15 57.9808L12 52.7846Z" fill="#EB5757" />
  <rect x="17.2476" y="47.874" width="6" height="6" rx="3" transform="rotate(-30 17.2476 47.874)" fill="#F2C94C" />
  <rect width="6" height="6" rx="3" transform="matrix(-0.866025 0.5 0.5 0.866025 50.1567 28.874)" fill="#F2C94C" />
  <path fill-rule="evenodd" clip-rule="evenodd" d="M63.8969 57.2498C61.4854 55.8575 58.5142 55.8575 56.1027 57.2498C53.6911 58.6421 52.2056 61.2152 52.2056 63.9998C52.2056 64.684 52.2953 65.3555 52.4664 65.9998H67.5332C67.7043 65.3555 67.794 64.684 67.794 63.9998C67.794 61.2152 66.3085 58.6421 63.8969 57.2498Z" fill="#828282" />
</svg>