<svg width="88" height="88" viewBox="0 0 88 88" fill="none" xmlns="http://www.w3.org/2000/svg">
  <path fill-rule="evenodd" clip-rule="evenodd" d="M69.7719 29.1208C71.7074 32.4732 72.989 36.2032 73.5041 40.1156C74.5342 47.9405 72.4138 55.8541 67.6092 62.1156C62.8046 68.3771 55.7094 72.4735 47.8845 73.5036C40.0596 74.5338 32.146 72.4134 25.8845 67.6088C22.7538 65.2065 20.1644 62.2316 18.2288 58.8792L31.4476 51.2473C33.3697 54.5765 36.5356 57.0058 40.2488 58.0007C43.962 58.9957 47.9184 58.4748 51.2476 56.5527C54.5768 54.6306 57.0061 51.4647 58.001 47.7515C58.996 44.0383 58.4751 40.0819 56.553 36.7527L69.7719 29.1208Z" fill="#2F80ED" />
  <path fill-rule="evenodd" clip-rule="evenodd" d="M45.1695 14.2642L44.5697 29.5165C41.9791 29.4147 39.4085 30.0095 37.126 31.2391C34.8435 32.4687 32.9325 34.288 31.5923 36.5074C30.2522 38.7268 29.5318 41.265 29.5063 43.8575C29.4808 46.45 30.1512 49.0019 31.4475 51.2472L18.2288 58.8791C16.2932 55.5266 15.0115 51.7965 14.4964 47.884C13.4662 40.0591 15.5867 32.1455 20.3913 25.884C25.1959 19.6225 32.2911 15.5261 40.1159 14.496C41.8021 14.274 43.4925 14.1983 45.1695 14.2642Z" fill="#219653" />
  <path fill-rule="evenodd" clip-rule="evenodd" d="M45.1565 14.2638C51.2663 14.5014 57.2003 16.619 62.1159 20.3909C65.2378 22.7865 67.8215 25.7514 69.7553 29.0923L56.5448 36.7388C55.3194 34.6218 53.5781 32.8492 51.4832 31.5864C49.3882 30.3235 47.0077 29.6114 44.5634 29.5164L45.1565 14.2638Z" fill="#F2C94C" />
</svg>