<svg width="80" height="80" viewBox="0 0 80 80" fill="none" xmlns="http://www.w3.org/2000/svg">
  <path d="M40 12L43.135 12.1761L46.2306 12.702L49.2478 13.5713L52.1487 14.7729L54.8969 16.2917L57.4577 18.1087L59.799 20.201L61.8913 22.5423L63.7083 25.1031L65.2271 27.8513L66.4287 30.7522L67.298 33.7694L67.8239 36.865L68 40L67.8239 43.135L67.298 46.2306L66.4287 49.2478L65.2271 52.1487L63.7083 54.8969L61.8913 57.4577L59.799 59.799L57.4577 61.8913L54.8969 63.7083L52.1487 65.2271L49.2478 66.4287L46.2306 67.298L43.135 67.8239L40 68L36.865 67.8239L33.7694 67.298L30.7522 66.4287L27.8513 65.2271L25.1031 63.7083L22.5423 61.8913L20.201 59.799L18.1087 57.4577L16.2917 54.8969L14.7729 52.1487L13.5713 49.2478L12.702 46.2306L12.1761 43.135L12 40L12.1761 36.865L12.702 33.7694L13.5713 30.7522L14.7729 27.8513L16.2917 25.1031L18.1087 22.5423L20.201 20.201L22.5423 18.1087L25.1031 16.2917L27.8513 14.7729L30.7522 13.5713L33.7694 12.702L36.865 12.1761L40 12Z" fill="#F2F2F2" />
  <path fill-rule="evenodd" clip-rule="evenodd" d="M37.1953 12.1575L36.8648 12.176L33.7692 12.702L30.752 13.5712L27.8511 14.7728L25.1029 16.2917L22.5421 18.1087L20.2008 20.201L18.1085 22.5423L16.2915 25.1031L14.7727 27.8512L14.7687 27.8607L37.1953 12.1575ZM12.1284 37.7095L12.1759 36.865L12.7018 33.7694L13.187 32.0851L39.9998 13.3106V18.1937L12.1284 37.7095ZM12.5617 45.4061L12.1759 43.135L12.0493 40.8818L39.9998 21.3106L39.9998 26.1937L12.5617 45.4061ZM14.6793 51.9233L13.5711 49.2478L13.2279 48.0565L39.9998 29.3106V34.1937L14.6793 51.9233ZM18.1407 57.4937L18.1085 57.4577L16.2915 54.8969L15.8965 54.1821L39.9998 37.3047V42.1878L18.1407 57.4937ZM22.9156 62.1562L22.5421 61.8913L20.2008 59.799L19.8573 59.4146L39.9998 45.3106V50.1937L22.9156 62.1562ZM29.1726 65.7745L27.8511 65.2271L25.1291 63.7227L39.9998 53.3102L39.9998 58.1933L29.1726 65.7745ZM37.6111 67.8658L36.8648 67.8239L33.7692 67.298L32.1249 66.8242L39.9998 61.3102V66.1933L37.6111 67.8658Z" fill="#2F80ED" />
</svg>