<svg width="80" height="80" viewBox="0 0 80 80" fill="none" xmlns="http://www.w3.org/2000/svg">
  <path fill-rule="evenodd" clip-rule="evenodd" d="M30 13L23 13C20.2386 13 18 15.2386 18 18L18 64C18 66.7614 20.2386 69 23 69H57C59.7614 69 62 66.7614 62 64L62 18C62 15.2386 59.7614 13 57 13L50 13C50 15.2091 48.2091 17 46 17H34C31.7909 17 30 15.2091 30 13Z" fill="#F2C94C" />
  <rect x="30" y="9" width="20" height="8" rx="4" fill="#F2994A" />
  <rect x="37" y="7" width="6" height="2" rx="1" stroke="#F2994A" stroke-width="4" />
</svg>