<svg width="80" height="80" viewBox="0 0 80 80" fill="none" xmlns="http://www.w3.org/2000/svg">
  <path fill-rule="evenodd" clip-rule="evenodd" d="M40 66C54.3594 66 66 54.3594 66 40C66 25.6406 54.3594 14 40 14C25.6406 14 14 25.6406 14 40C14 46.5596 16.4291 52.5518 20.4369 57.1261L16 66L40 66Z" fill="#9B51E0" />
  <path d="M40 66V68V66ZM20.4369 57.1261L22.2258 58.0206C22.5892 57.2938 22.4767 56.4193 21.9412 55.8082L20.4369 57.1261ZM16 66L14.2111 65.1056C13.9012 65.7255 13.9343 66.4618 14.2987 67.0515C14.6631 67.6411 15.3068 68 16 68L16 66ZM64 40C64 53.2548 53.2548 64 40 64V68C55.464 68 68 55.464 68 40H64ZM40 16C53.2548 16 64 26.7452 64 40H68C68 24.536 55.464 12 40 12V16ZM16 40C16 26.7452 26.7452 16 40 16V12C24.536 12 12 24.536 12 40H16ZM21.9412 55.8082C18.2407 51.5845 16 46.0564 16 40H12C12 47.0627 14.6176 53.519 18.9326 58.4441L21.9412 55.8082ZM17.7889 66.8944L22.2258 58.0206L18.6481 56.2317L14.2111 65.1056L17.7889 66.8944ZM40 64L16 64L16 68L40 68V64Z" fill="#2D9CDB" />
  <path d="M27.8711 40L38.7802 40L40.962 40L51.8711 40" stroke="#56CCF2" stroke-width="4" stroke-linecap="round" stroke-linejoin="round" />
  <path d="M39.8711 28L39.8711 38.9091L39.8711 41.0909L39.8711 52" stroke="#56CCF2" stroke-width="4" stroke-linecap="round" stroke-linejoin="round" />
</svg>