<svg width="80" height="80" viewBox="0 0 80 80" fill="none" xmlns="http://www.w3.org/2000/svg">
  <path d="M40 12L43.135 12.1761L46.2306 12.702L49.2478 13.5713L52.1487 14.7729L54.8969 16.2917L57.4577 18.1087L59.799 20.201L61.8913 22.5423L63.7083 25.1031L65.2271 27.8513L66.4287 30.7522L67.298 33.7694L67.8239 36.865L68 40L67.8239 43.135L67.298 46.2306L66.4287 49.2478L65.2271 52.1487L63.7083 54.8969L61.8913 57.4577L59.799 59.799L57.4577 61.8913L54.8969 63.7083L52.1487 65.2271L49.2478 66.4287L46.2306 67.298L43.135 67.8239L40 68L36.865 67.8239L33.7694 67.298L30.7522 66.4287L27.8513 65.2271L25.1031 63.7083L22.5423 61.8913L20.201 59.799L18.1087 57.4577L16.2917 54.8969L14.7729 52.1487L13.5713 49.2478L12.702 46.2306L12.1761 43.135L12 40L12.1761 36.865L12.702 33.7694L13.5713 30.7522L14.7729 27.8513L16.2917 25.1031L18.1087 22.5423L20.201 20.201L22.5423 18.1087L25.1031 16.2917L27.8513 14.7729L30.7522 13.5713L33.7694 12.702L36.865 12.1761L40 12Z" fill="#828282" />
  <path d="M40 12L40.1121 10.0031C40.0374 9.99895 39.9626 9.99895 39.8879 10.0031L40 12ZM43.135 12.1761L43.47 10.2043C43.3963 10.1918 43.3218 10.1834 43.2471 10.1792L43.135 12.1761ZM46.2306 12.702L46.7843 10.7802C46.7124 10.7595 46.6394 10.7428 46.5656 10.7303L46.2306 12.702ZM49.2478 13.5713L50.0132 11.7235C49.9441 11.6949 49.8734 11.6701 49.8015 11.6494L49.2478 13.5713ZM52.1487 14.7729L53.1162 13.0224C53.0507 12.9862 52.9832 12.9537 52.9141 12.9251L52.1487 14.7729ZM54.8969 16.2917L56.0542 14.6606C55.9932 14.6173 55.9298 14.5775 55.8643 14.5413L54.8969 16.2917ZM57.4577 18.1087L58.7904 16.6174C58.7346 16.5676 58.6761 16.5209 58.6151 16.4776L57.4577 18.1087ZM59.799 20.201L61.2903 18.8683C61.2404 18.8125 61.1875 18.7596 61.1317 18.7097L59.799 20.201ZM61.8913 22.5423L63.5224 21.3849C63.4791 21.3239 63.4324 21.2654 63.3826 21.2096L61.8913 22.5423ZM63.7083 25.1031L65.4587 24.1357C65.4225 24.0702 65.3827 24.0068 65.3394 23.9458L63.7083 25.1031ZM65.2271 27.8513L67.0749 27.0859C67.0463 27.0168 67.0138 26.9493 66.9776 26.8838L65.2271 27.8513ZM66.4287 30.7522L68.3506 30.1985C68.3299 30.1266 68.3051 30.0559 68.2765 29.9868L66.4287 30.7522ZM67.298 33.7694L69.2697 33.4344C69.2572 33.3606 69.2405 33.2876 69.2198 33.2157L67.298 33.7694ZM67.8239 36.865L69.8208 36.7529C69.8166 36.6782 69.8082 36.6037 69.7957 36.53L67.8239 36.865ZM68 40L69.9969 40.1121C70.001 40.0374 70.001 39.9626 69.9969 39.8879L68 40ZM67.8239 43.135L69.7957 43.47C69.8082 43.3963 69.8166 43.3218 69.8208 43.2471L67.8239 43.135ZM67.298 46.2306L69.2198 46.7843C69.2405 46.7124 69.2572 46.6394 69.2697 46.5656L67.298 46.2306ZM66.4287 49.2478L68.2765 50.0132C68.3051 49.9441 68.3299 49.8734 68.3506 49.8015L66.4287 49.2478ZM65.2271 52.1487L66.9776 53.1162C67.0138 53.0507 67.0463 52.9832 67.0749 52.9141L65.2271 52.1487ZM63.7083 54.8969L65.3394 56.0542C65.3827 55.9932 65.4225 55.9298 65.4587 55.8643L63.7083 54.8969ZM61.8913 57.4577L63.3826 58.7904C63.4324 58.7346 63.4791 58.6761 63.5224 58.6151L61.8913 57.4577ZM59.799 59.799L61.1317 61.2903C61.1875 61.2404 61.2404 61.1875 61.2903 61.1317L59.799 59.799ZM57.4577 61.8913L58.6151 63.5224C58.6761 63.4791 58.7346 63.4324 58.7904 63.3826L57.4577 61.8913ZM54.8969 63.7083L55.8643 65.4587C55.9298 65.4225 55.9932 65.3827 56.0542 65.3394L54.8969 63.7083ZM52.1487 65.2271L52.9141 67.0749C52.9832 67.0463 53.0507 67.0138 53.1162 66.9776L52.1487 65.2271ZM49.2478 66.4287L49.8015 68.3506C49.8734 68.3299 49.9441 68.3051 50.0132 68.2765L49.2478 66.4287ZM46.2306 67.298L46.5656 69.2697C46.6394 69.2572 46.7124 69.2405 46.7843 69.2198L46.2306 67.298ZM43.135 67.8239L43.2471 69.8208C43.3218 69.8166 43.3963 69.8082 43.47 69.7957L43.135 67.8239ZM40 68L39.8879 69.9969C39.9626 70.001 40.0374 70.001 40.1121 69.9969L40 68ZM36.865 67.8239L36.53 69.7957C36.6037 69.8082 36.6782 69.8166 36.7529 69.8208L36.865 67.8239ZM33.7694 67.298L33.2157 69.2198C33.2876 69.2405 33.3606 69.2572 33.4344 69.2697L33.7694 67.298ZM30.7522 66.4287L29.9868 68.2765C30.0559 68.3051 30.1266 68.3299 30.1985 68.3506L30.7522 66.4287ZM27.8513 65.2271L26.8838 66.9776C26.9493 67.0138 27.0168 67.0463 27.0859 67.0749L27.8513 65.2271ZM25.1031 63.7083L23.9458 65.3394C24.0068 65.3827 24.0702 65.4225 24.1357 65.4587L25.1031 63.7083ZM22.5423 61.8913L21.2096 63.3826C21.2654 63.4324 21.3239 63.4791 21.3849 63.5224L22.5423 61.8913ZM20.201 59.799L18.7097 61.1317C18.7596 61.1875 18.8125 61.2404 18.8683 61.2903L20.201 59.799ZM18.1087 57.4577L16.4776 58.6151C16.5209 58.6761 16.5676 58.7346 16.6174 58.7904L18.1087 57.4577ZM16.2917 54.8969L14.5413 55.8643C14.5775 55.9298 14.6173 55.9932 14.6606 56.0542L16.2917 54.8969ZM14.7729 52.1487L12.9251 52.9141C12.9537 52.9832 12.9862 53.0507 13.0224 53.1162L14.7729 52.1487ZM13.5713 49.2478L11.6494 49.8015C11.6701 49.8734 11.6949 49.9441 11.7235 50.0132L13.5713 49.2478ZM12.702 46.2306L10.7303 46.5656C10.7428 46.6394 10.7595 46.7124 10.7802 46.7843L12.702 46.2306ZM12.1761 43.135L10.1792 43.2471C10.1834 43.3218 10.1918 43.3963 10.2043 43.47L12.1761 43.135ZM12 40L10.0031 39.8879C9.99895 39.9626 9.99895 40.0374 10.0031 40.1121L12 40ZM12.1761 36.865L10.2043 36.53C10.1918 36.6037 10.1834 36.6782 10.1792 36.7529L12.1761 36.865ZM12.702 33.7694L10.7802 33.2157C10.7595 33.2876 10.7428 33.3606 10.7303 33.4344L12.702 33.7694ZM13.5713 30.7522L11.7235 29.9868C11.6949 30.0559 11.6701 30.1266 11.6494 30.1985L13.5713 30.7522ZM14.7729 27.8513L13.0224 26.8838C12.9862 26.9493 12.9537 27.0168 12.9251 27.0859L14.7729 27.8513ZM16.2917 25.1031L14.6606 23.9458C14.6173 24.0068 14.5775 24.0702 14.5413 24.1357L16.2917 25.1031ZM18.1087 22.5423L16.6174 21.2096C16.5676 21.2654 16.5209 21.3239 16.4776 21.3849L18.1087 22.5423ZM20.201 20.201L18.8683 18.7097C18.8125 18.7596 18.7596 18.8125 18.7097 18.8683L20.201 20.201ZM22.5423 18.1087L21.3849 16.4776C21.3239 16.5209 21.2654 16.5676 21.2096 16.6174L22.5423 18.1087ZM25.1031 16.2917L24.1357 14.5413C24.0702 14.5775 24.0068 14.6173 23.9458 14.6606L25.1031 16.2917ZM27.8513 14.7729L27.0859 12.9251C27.0168 12.9537 26.9493 12.9862 26.8838 13.0224L27.8513 14.7729ZM30.7522 13.5713L30.1985 11.6494C30.1266 11.6701 30.0559 11.6949 29.9868 11.7235L30.7522 13.5713ZM33.7694 12.702L33.4344 10.7303C33.3606 10.7428 33.2876 10.7595 33.2157 10.7802L33.7694 12.702ZM36.865 12.1761L36.7529 10.1792C36.6782 10.1834 36.6037 10.1918 36.53 10.2043L36.865 12.1761ZM39.8879 13.9969L43.0229 14.1729L43.2471 10.1792L40.1121 10.0031L39.8879 13.9969ZM42.8 14.1478L45.8956 14.6738L46.5656 10.7303L43.47 10.2043L42.8 14.1478ZM45.6769 14.6239L48.6941 15.4931L49.8015 11.6494L46.7843 10.7802L45.6769 14.6239ZM48.4824 15.419L51.3834 16.6206L52.9141 12.9251L50.0132 11.7235L48.4824 15.419ZM51.1813 16.5233L53.9295 18.0422L55.8643 14.5413L53.1162 13.0224L51.1813 16.5233ZM53.7396 17.9228L56.3004 19.7398L58.6151 16.4776L56.0542 14.6606L53.7396 17.9228ZM56.125 19.6L58.4663 21.6923L61.1317 18.7097L58.7904 16.6174L56.125 19.6ZM58.3077 21.5337L60.4 23.875L63.3826 21.2096L61.2903 18.8683L58.3077 21.5337ZM60.2602 23.6996L62.0772 26.2604L65.3394 23.9458L63.5224 21.3849L60.2602 23.6996ZM61.9578 26.0705L63.4767 28.8187L66.9776 26.8838L65.4587 24.1357L61.9578 26.0705ZM63.3794 28.6166L64.581 31.5176L68.2765 29.9868L67.0749 27.0859L63.3794 28.6166ZM64.5069 31.3059L65.3761 34.3231L69.2198 33.2157L68.3506 30.1985L64.5069 31.3059ZM65.3262 34.1044L65.8522 37.2L69.7957 36.53L69.2697 33.4344L65.3262 34.1044ZM65.8271 36.9771L66.0031 40.1121L69.9969 39.8879L69.8208 36.7529L65.8271 36.9771ZM66.0031 39.8879L65.8271 43.0229L69.8208 43.2471L69.9969 40.1121L66.0031 39.8879ZM65.8522 42.8L65.3262 45.8956L69.2697 46.5656L69.7957 43.47L65.8522 42.8ZM65.3761 45.6769L64.5069 48.6941L68.3506 49.8015L69.2198 46.7843L65.3761 45.6769ZM64.581 48.4824L63.3794 51.3834L67.0749 52.9141L68.2765 50.0132L64.581 48.4824ZM63.4767 51.1813L61.9578 53.9295L65.4587 55.8643L66.9776 53.1162L63.4767 51.1813ZM62.0772 53.7396L60.2602 56.3004L63.5224 58.6151L65.3394 56.0542L62.0772 53.7396ZM60.4 56.125L58.3077 58.4663L61.2903 61.1317L63.3826 58.7904L60.4 56.125ZM58.4663 58.3077L56.125 60.4L58.7904 63.3826L61.1317 61.2903L58.4663 58.3077ZM56.3004 60.2602L53.7396 62.0772L56.0542 65.3394L58.6151 63.5224L56.3004 60.2602ZM53.9295 61.9578L51.1813 63.4767L53.1162 66.9776L55.8643 65.4587L53.9295 61.9578ZM51.3834 63.3794L48.4824 64.581L50.0132 68.2765L52.9141 67.0749L51.3834 63.3794ZM48.6941 64.5069L45.6769 65.3761L46.7843 69.2198L49.8015 68.3506L48.6941 64.5069ZM45.8956 65.3262L42.8 65.8522L43.47 69.7957L46.5656 69.2697L45.8956 65.3262ZM43.0229 65.8271L39.8879 66.0031L40.1121 69.9969L43.2471 69.8208L43.0229 65.8271ZM40.1121 66.0031L36.9771 65.8271L36.7529 69.8208L39.8879 69.9969L40.1121 66.0031ZM37.2 65.8522L34.1044 65.3262L33.4344 69.2697L36.53 69.7957L37.2 65.8522ZM34.3231 65.3761L31.3059 64.5069L30.1985 68.3506L33.2157 69.2198L34.3231 65.3761ZM31.5176 64.581L28.6166 63.3794L27.0859 67.0749L29.9868 68.2765L31.5176 64.581ZM28.8187 63.4767L26.0705 61.9578L24.1357 65.4587L26.8838 66.9776L28.8187 63.4767ZM26.2604 62.0772L23.6996 60.2602L21.3849 63.5224L23.9458 65.3394L26.2604 62.0772ZM23.875 60.4L21.5337 58.3077L18.8683 61.2903L21.2096 63.3826L23.875 60.4ZM21.6923 58.4663L19.6 56.125L16.6174 58.7904L18.7097 61.1317L21.6923 58.4663ZM19.7398 56.3004L17.9228 53.7396L14.6606 56.0542L16.4776 58.6151L19.7398 56.3004ZM18.0422 53.9295L16.5233 51.1813L13.0224 53.1162L14.5413 55.8643L18.0422 53.9295ZM16.6206 51.3834L15.419 48.4824L11.7235 50.0132L12.9251 52.9141L16.6206 51.3834ZM15.4931 48.6941L14.6239 45.6769L10.7802 46.7843L11.6494 49.8015L15.4931 48.6941ZM14.6738 45.8956L14.1478 42.8L10.2043 43.47L10.7303 46.5656L14.6738 45.8956ZM14.1729 43.0229L13.9969 39.8879L10.0031 40.1121L10.1792 43.2471L14.1729 43.0229ZM13.9969 40.1121L14.1729 36.9771L10.1792 36.7529L10.0031 39.8879L13.9969 40.1121ZM14.1478 37.2L14.6738 34.1044L10.7303 33.4344L10.2043 36.53L14.1478 37.2ZM14.6239 34.3231L15.4931 31.3059L11.6494 30.1985L10.7802 33.2157L14.6239 34.3231ZM15.419 31.5176L16.6206 28.6166L12.9251 27.0859L11.7235 29.9868L15.419 31.5176ZM16.5233 28.8187L18.0422 26.0705L14.5413 24.1357L13.0224 26.8838L16.5233 28.8187ZM17.9228 26.2604L19.7398 23.6996L16.4776 21.3849L14.6606 23.9458L17.9228 26.2604ZM19.6 23.875L21.6923 21.5337L18.7097 18.8683L16.6174 21.2096L19.6 23.875ZM21.5337 21.6923L23.875 19.6L21.2096 16.6174L18.8683 18.7097L21.5337 21.6923ZM23.6996 19.7398L26.2604 17.9228L23.9458 14.6606L21.3849 16.4776L23.6996 19.7398ZM26.0705 18.0422L28.8187 16.5233L26.8838 13.0224L24.1357 14.5413L26.0705 18.0422ZM28.6166 16.6206L31.5176 15.419L29.9868 11.7235L27.0859 12.9251L28.6166 16.6206ZM31.3059 15.4931L34.3231 14.6239L33.2157 10.7802L30.1985 11.6494L31.3059 15.4931ZM34.1044 14.6738L37.2 14.1478L36.53 10.2043L33.4344 10.7303L34.1044 14.6738ZM36.9771 14.1729L40.1121 13.9969L39.8879 10.0031L36.7529 10.1792L36.9771 14.1729Z" fill="#4F4F4F" />
  <path d="M40 35L40.5598 35.0314L41.1126 35.1254L41.6514 35.2806L42.1694 35.4952L42.6602 35.7664L43.1174 36.0908L43.5355 36.4645L43.9092 36.8826L44.2336 37.3398L44.5048 37.8306L44.7194 38.3486L44.8746 38.8874L44.9686 39.4402L45 40L44.9686 40.5598L44.8746 41.1126L44.7194 41.6514L44.5048 42.1694L44.2336 42.6602L43.9092 43.1174L43.5355 43.5355L43.1174 43.9092L42.6602 44.2336L42.1694 44.5048L41.6514 44.7194L41.1126 44.8746L40.5598 44.9686L40 45L39.4402 44.9686L38.8874 44.8746L38.3486 44.7194L37.8306 44.5048L37.3398 44.2336L36.8826 43.9092L36.4645 43.5355L36.0908 43.1174L35.7664 42.6602L35.4952 42.1694L35.2806 41.6514L35.1254 41.1126L35.0314 40.5598L35 40L35.0314 39.4402L35.1254 38.8874L35.2806 38.3486L35.4952 37.8306L35.7664 37.3398L36.0908 36.8826L36.4645 36.4645L36.8826 36.0908L37.3398 35.7664L37.8306 35.4952L38.3486 35.2806L38.8874 35.1254L39.4402 35.0314L40 35Z" fill="#4F4F4F" />
  <path d="M40 35L40.1121 33.0031C40.0374 32.999 39.9626 32.999 39.8879 33.0031L40 35ZM40.5598 35.0314L40.8948 33.0597C40.8211 33.0472 40.7467 33.0388 40.672 33.0346L40.5598 35.0314ZM41.1126 35.1254L41.6663 33.2035C41.5944 33.1828 41.5214 33.1662 41.4476 33.1536L41.1126 35.1254ZM41.6514 35.2806L42.4168 33.4328C42.3476 33.4042 42.277 33.3795 42.2051 33.3587L41.6514 35.2806ZM42.1694 35.4952L43.1369 33.7447C43.0714 33.7085 43.0039 33.676 42.9348 33.6474L42.1694 35.4952ZM42.6602 35.7664L43.8175 34.1353C43.7565 34.092 43.6931 34.0521 43.6276 34.0159L42.6602 35.7664ZM43.1174 36.0908L44.4501 34.5996C44.3944 34.5497 44.3358 34.503 44.2748 34.4597L43.1174 36.0908ZM43.5355 36.4645L45.0268 35.1318C44.977 35.076 44.924 35.023 44.8682 34.9732L43.5355 36.4645ZM43.9092 36.8826L45.5403 35.7252C45.497 35.6642 45.4503 35.6056 45.4004 35.5499L43.9092 36.8826ZM44.2336 37.3398L45.9841 36.3724C45.9479 36.3069 45.908 36.2435 45.8647 36.1825L44.2336 37.3398ZM44.5048 37.8306L46.3526 37.0652C46.324 36.9961 46.2915 36.9286 46.2553 36.8631L44.5048 37.8306ZM44.7194 38.3486L46.6413 37.7949C46.6205 37.723 46.5958 37.6524 46.5672 37.5832L44.7194 38.3486ZM44.8746 38.8874L46.8464 38.5524C46.8338 38.4786 46.8172 38.4056 46.7965 38.3337L44.8746 38.8874ZM44.9686 39.4402L46.9654 39.328C46.9612 39.2533 46.9528 39.1789 46.9403 39.1052L44.9686 39.4402ZM45 40L46.9969 40.1121C47.001 40.0374 47.001 39.9626 46.9969 39.8879L45 40ZM44.9686 40.5598L46.9403 40.8948C46.9528 40.8211 46.9612 40.7467 46.9654 40.672L44.9686 40.5598ZM44.8746 41.1126L46.7965 41.6663C46.8172 41.5944 46.8338 41.5214 46.8464 41.4476L44.8746 41.1126ZM44.7194 41.6514L46.5672 42.4168C46.5958 42.3476 46.6205 42.277 46.6413 42.2051L44.7194 41.6514ZM44.5048 42.1694L46.2553 43.1369C46.2915 43.0714 46.324 43.0039 46.3526 42.9348L44.5048 42.1694ZM44.2336 42.6602L45.8647 43.8175C45.908 43.7565 45.9479 43.6931 45.9841 43.6276L44.2336 42.6602ZM43.9092 43.1174L45.4004 44.4501C45.4503 44.3944 45.497 44.3358 45.5403 44.2748L43.9092 43.1174ZM43.5355 43.5355L44.8682 45.0268C44.924 44.977 44.977 44.924 45.0268 44.8682L43.5355 43.5355ZM43.1174 43.9092L44.2748 45.5403C44.3358 45.497 44.3944 45.4503 44.4501 45.4004L43.1174 43.9092ZM42.6602 44.2336L43.6276 45.9841C43.6931 45.9479 43.7565 45.908 43.8175 45.8647L42.6602 44.2336ZM42.1694 44.5048L42.9348 46.3526C43.0039 46.324 43.0714 46.2915 43.1369 46.2553L42.1694 44.5048ZM41.6514 44.7194L42.2051 46.6413C42.277 46.6205 42.3476 46.5958 42.4168 46.5672L41.6514 44.7194ZM41.1126 44.8746L41.4476 46.8464C41.5214 46.8338 41.5944 46.8172 41.6663 46.7965L41.1126 44.8746ZM40.5598 44.9686L40.672 46.9654C40.7467 46.9612 40.8211 46.9528 40.8948 46.9403L40.5598 44.9686ZM40 45L39.8879 46.9969C39.9626 47.001 40.0374 47.001 40.1121 46.9969L40 45ZM39.4402 44.9686L39.1052 46.9403C39.1789 46.9528 39.2533 46.9612 39.328 46.9654L39.4402 44.9686ZM38.8874 44.8746L38.3337 46.7965C38.4056 46.8172 38.4786 46.8338 38.5524 46.8464L38.8874 44.8746ZM38.3486 44.7194L37.5832 46.5672C37.6524 46.5958 37.723 46.6205 37.7949 46.6413L38.3486 44.7194ZM37.8306 44.5048L36.8631 46.2553C36.9286 46.2915 36.9961 46.324 37.0652 46.3526L37.8306 44.5048ZM37.3398 44.2336L36.1825 45.8647C36.2435 45.908 36.3069 45.9479 36.3724 45.9841L37.3398 44.2336ZM36.8826 43.9092L35.5499 45.4004C35.6056 45.4503 35.6642 45.497 35.7252 45.5403L36.8826 43.9092ZM36.4645 43.5355L34.9732 44.8682C35.023 44.924 35.076 44.977 35.1318 45.0268L36.4645 43.5355ZM36.0908 43.1174L34.4597 44.2748C34.503 44.3358 34.5497 44.3944 34.5996 44.4501L36.0908 43.1174ZM35.7664 42.6602L34.0159 43.6276C34.0521 43.6931 34.092 43.7565 34.1353 43.8175L35.7664 42.6602ZM35.4952 42.1694L33.6474 42.9348C33.676 43.0039 33.7085 43.0714 33.7447 43.1369L35.4952 42.1694ZM35.2806 41.6514L33.3587 42.2051C33.3795 42.277 33.4042 42.3476 33.4328 42.4168L35.2806 41.6514ZM35.1254 41.1126L33.1536 41.4476C33.1662 41.5214 33.1828 41.5944 33.2035 41.6663L35.1254 41.1126ZM35.0314 40.5598L33.0346 40.672C33.0388 40.7467 33.0472 40.8211 33.0597 40.8948L35.0314 40.5598ZM35 40L33.0031 39.8879C32.999 39.9626 32.999 40.0374 33.0031 40.1121L35 40ZM35.0314 39.4402L33.0597 39.1052C33.0472 39.1789 33.0388 39.2533 33.0346 39.328L35.0314 39.4402ZM35.1254 38.8874L33.2035 38.3337C33.1828 38.4056 33.1662 38.4786 33.1536 38.5524L35.1254 38.8874ZM35.2806 38.3486L33.4328 37.5832C33.4042 37.6524 33.3795 37.723 33.3587 37.7949L35.2806 38.3486ZM35.4952 37.8306L33.7447 36.8631C33.7085 36.9286 33.676 36.9961 33.6474 37.0652L35.4952 37.8306ZM35.7664 37.3398L34.1353 36.1825C34.092 36.2435 34.0521 36.3069 34.0159 36.3724L35.7664 37.3398ZM36.0908 36.8826L34.5996 35.5499C34.5497 35.6056 34.503 35.6642 34.4597 35.7252L36.0908 36.8826ZM36.4645 36.4645L35.1318 34.9732C35.076 35.023 35.023 35.076 34.9732 35.1318L36.4645 36.4645ZM36.8826 36.0908L35.7252 34.4597C35.6642 34.503 35.6056 34.5497 35.5499 34.5996L36.8826 36.0908ZM37.3398 35.7664L36.3724 34.0159C36.3069 34.0521 36.2435 34.092 36.1825 34.1353L37.3398 35.7664ZM37.8306 35.4952L37.0652 33.6474C36.9961 33.676 36.9286 33.7085 36.8631 33.7447L37.8306 35.4952ZM38.3486 35.2806L37.7949 33.3587C37.723 33.3795 37.6524 33.4042 37.5832 33.4328L38.3486 35.2806ZM38.8874 35.1254L38.5524 33.1536C38.4786 33.1662 38.4056 33.1828 38.3337 33.2035L38.8874 35.1254ZM39.4402 35.0314L39.328 33.0346C39.2533 33.0388 39.1789 33.0472 39.1052 33.0597L39.4402 35.0314ZM39.8879 36.9969L40.4477 37.0283L40.672 33.0346L40.1121 33.0031L39.8879 36.9969ZM40.2248 37.0032L40.7776 37.0971L41.4476 33.1536L40.8948 33.0597L40.2248 37.0032ZM40.5589 37.0472L41.0977 37.2024L42.2051 33.3587L41.6663 33.2035L40.5589 37.0472ZM40.886 37.1283L41.4041 37.3429L42.9348 33.6474L42.4168 33.4328L40.886 37.1283ZM41.202 37.2456L41.6927 37.5168L43.6276 34.0159L43.1369 33.7447L41.202 37.2456ZM41.5028 37.3975L41.9601 37.722L44.2748 34.4597L43.8175 34.1353L41.5028 37.3975ZM41.7848 37.5821L42.2028 37.9558L44.8682 34.9732L44.4501 34.5996L41.7848 37.5821ZM42.0443 37.7972L42.4179 38.2152L45.4004 35.5499L45.0268 35.1318L42.0443 37.7972ZM42.278 38.0399L42.6025 38.4972L45.8647 36.1825L45.5403 35.7252L42.278 38.0399ZM42.4832 38.3073L42.7544 38.798L46.2553 36.8631L45.9841 36.3724L42.4832 38.3073ZM42.6571 38.5959L42.8717 39.114L46.5672 37.5832L46.3526 37.0652L42.6571 38.5959ZM42.7976 38.9023L42.9528 39.4411L46.7965 38.3337L46.6413 37.7949L42.7976 38.9023ZM42.9029 39.2224L42.9968 39.7752L46.9403 39.1052L46.8464 38.5524L42.9029 39.2224ZM42.9717 39.5523L43.0031 40.1121L46.9969 39.8879L46.9654 39.328L42.9717 39.5523ZM43.0031 39.8879L42.9717 40.4477L46.9654 40.672L46.9969 40.1121L43.0031 39.8879ZM42.9968 40.2248L42.9029 40.7776L46.8464 41.4476L46.9403 40.8948L42.9968 40.2248ZM42.9528 40.5589L42.7976 41.0977L46.6413 42.2051L46.7965 41.6663L42.9528 40.5589ZM42.8717 40.886L42.6571 41.4041L46.3526 42.9348L46.5672 42.4168L42.8717 40.886ZM42.7544 41.202L42.4832 41.6927L45.9841 43.6276L46.2553 43.1369L42.7544 41.202ZM42.6025 41.5028L42.278 41.9601L45.5403 44.2748L45.8647 43.8175L42.6025 41.5028ZM42.4179 41.7848L42.0443 42.2028L45.0268 44.8682L45.4004 44.4501L42.4179 41.7848ZM42.2028 42.0443L41.7848 42.4179L44.4501 45.4004L44.8682 45.0268L42.2028 42.0443ZM41.9601 42.278L41.5028 42.6025L43.8175 45.8647L44.2748 45.5403L41.9601 42.278ZM41.6927 42.4832L41.202 42.7544L43.1369 46.2553L43.6276 45.9841L41.6927 42.4832ZM41.4041 42.6571L40.886 42.8717L42.4168 46.5672L42.9348 46.3526L41.4041 42.6571ZM41.0977 42.7976L40.5589 42.9528L41.6663 46.7965L42.2051 46.6413L41.0977 42.7976ZM40.7776 42.9029L40.2248 42.9968L40.8948 46.9403L41.4476 46.8464L40.7776 42.9029ZM40.4477 42.9717L39.8879 43.0031L40.1121 46.9969L40.672 46.9654L40.4477 42.9717ZM40.1121 43.0031L39.5523 42.9717L39.328 46.9654L39.8879 46.9969L40.1121 43.0031ZM39.7752 42.9968L39.2224 42.9029L38.5524 46.8464L39.1052 46.9403L39.7752 42.9968ZM39.4411 42.9528L38.9023 42.7976L37.7949 46.6413L38.3337 46.7965L39.4411 42.9528ZM39.114 42.8717L38.5959 42.6571L37.0652 46.3526L37.5832 46.5672L39.114 42.8717ZM38.798 42.7544L38.3073 42.4832L36.3724 45.9841L36.8631 46.2553L38.798 42.7544ZM38.4972 42.6025L38.0399 42.278L35.7252 45.5403L36.1825 45.8647L38.4972 42.6025ZM38.2152 42.4179L37.7972 42.0443L35.1318 45.0268L35.5499 45.4004L38.2152 42.4179ZM37.9558 42.2028L37.5821 41.7848L34.5996 44.4501L34.9732 44.8682L37.9558 42.2028ZM37.722 41.9601L37.3975 41.5028L34.1353 43.8175L34.4597 44.2748L37.722 41.9601ZM37.5168 41.6927L37.2456 41.202L33.7447 43.1369L34.0159 43.6276L37.5168 41.6927ZM37.3429 41.4041L37.1283 40.886L33.4328 42.4168L33.6474 42.9348L37.3429 41.4041ZM37.2024 41.0977L37.0472 40.5589L33.2035 41.6663L33.3587 42.2051L37.2024 41.0977ZM37.0971 40.7776L37.0032 40.2248L33.0597 40.8948L33.1536 41.4476L37.0971 40.7776ZM37.0283 40.4477L36.9969 39.8879L33.0031 40.1121L33.0346 40.672L37.0283 40.4477ZM36.9969 40.1121L37.0283 39.5523L33.0346 39.328L33.0031 39.8879L36.9969 40.1121ZM37.0032 39.7752L37.0971 39.2224L33.1536 38.5524L33.0597 39.1052L37.0032 39.7752ZM37.0472 39.4411L37.2024 38.9023L33.3587 37.7949L33.2035 38.3337L37.0472 39.4411ZM37.1283 39.114L37.3429 38.5959L33.6474 37.0652L33.4328 37.5832L37.1283 39.114ZM37.2456 38.798L37.5168 38.3073L34.0159 36.3724L33.7447 36.8631L37.2456 38.798ZM37.3975 38.4972L37.722 38.0399L34.4597 35.7252L34.1353 36.1825L37.3975 38.4972ZM37.5821 38.2152L37.9558 37.7972L34.9732 35.1318L34.5996 35.5499L37.5821 38.2152ZM37.7972 37.9558L38.2152 37.5821L35.5499 34.5996L35.1318 34.9732L37.7972 37.9558ZM38.0399 37.722L38.4972 37.3975L36.1825 34.1353L35.7252 34.4597L38.0399 37.722ZM38.3073 37.5168L38.798 37.2456L36.8631 33.7447L36.3724 34.0159L38.3073 37.5168ZM38.5959 37.3429L39.114 37.1283L37.5832 33.4328L37.0652 33.6474L38.5959 37.3429ZM38.9023 37.2024L39.4411 37.0472L38.3337 33.2035L37.7949 33.3587L38.9023 37.2024ZM39.2224 37.0971L39.7752 37.0032L39.1052 33.0597L38.5524 33.1536L39.2224 37.0971ZM39.5523 37.0283L40.1121 36.9969L39.8879 33.0031L39.328 33.0346L39.5523 37.0283Z" fill="#4F4F4F" />
  <path d="M24 40C24 35.7565 25.6857 31.6869 28.6863 28.6863C31.6869 25.6857 35.7565 24 40 24" stroke="#4F4F4F" stroke-width="4" stroke-linecap="round" stroke-linejoin="round" />
</svg>