<svg width="80" height="80" viewBox="0 0 80 80" fill="none" xmlns="http://www.w3.org/2000/svg">
  <path fill-rule="evenodd" clip-rule="evenodd" d="M71.03 39.7359C69.8996 42.1541 68.4795 44.4545 66.782 46.5831C60.2858 54.7291 50.4337 59.4736 40.0146 59.4736C29.5955 59.4736 19.7434 54.7291 13.2472 46.5831C11.5501 44.455 10.1302 42.1553 9 39.7377C10.1304 37.3195 11.5505 35.0191 13.248 32.8905C19.7442 24.7445 29.5963 20 40.0154 20C50.4345 20 60.2866 24.7445 66.7828 32.8905C68.4799 35.0186 69.8997 37.3183 71.03 39.7359Z" fill="#F2F2F2" />
  <path d="M71.03 39.7359L72.8418 40.5828L73.2377 39.7358L72.8418 38.8889L71.03 39.7359ZM66.782 46.5831L65.2183 45.3361L66.782 46.5831ZM13.2472 46.5831L14.8108 45.3361L14.8108 45.3361L13.2472 46.5831ZM9 39.7377L7.18817 38.8908L6.79226 39.7378L7.18822 40.5847L9 39.7377ZM13.248 32.8905L14.8117 34.1375L13.248 32.8905ZM66.7828 32.8905L65.2192 34.1375V34.1375L66.7828 32.8905ZM69.2182 38.889C68.1539 41.1658 66.8168 43.3317 65.2183 45.3361L68.3457 47.8301C70.1422 45.5773 71.6453 43.1425 72.8418 40.5828L69.2182 38.889ZM65.2183 45.3361C59.1016 53.0063 49.825 57.4736 40.0146 57.4736V61.4736C51.0423 61.4736 61.47 56.4519 68.3457 47.8301L65.2183 45.3361ZM40.0146 57.4736C30.2041 57.4736 20.9275 53.0063 14.8108 45.3361L11.6835 47.8301C18.5592 56.452 28.9868 61.4736 40.0146 61.4736V57.4736ZM14.8108 45.3361C13.2127 43.3322 11.8759 41.1669 10.8118 38.8907L7.18822 40.5847C8.38456 43.1437 9.88739 45.5779 11.6835 47.8301L14.8108 45.3361ZM11.6843 31.6435C9.88778 33.8963 8.38466 36.3311 7.18817 38.8908L10.8118 40.5846C11.8761 38.3078 13.2132 36.1419 14.8117 34.1375L11.6843 31.6435ZM40.0154 18C28.9877 18 18.56 23.0217 11.6843 31.6435L14.8117 34.1375C20.9284 26.4674 30.205 22 40.0154 22V18ZM68.3465 31.6435C61.4708 23.0217 51.0432 18 40.0154 18V22C49.8259 22 59.1025 26.4674 65.2192 34.1375L68.3465 31.6435ZM72.8418 38.8889C71.6454 36.3299 70.1426 33.8958 68.3465 31.6435L65.2192 34.1375C66.8173 36.1415 68.1541 38.3068 69.2182 40.5829L72.8418 38.8889Z" fill="#E0E0E0" />
  <path d="M35.3237 49.4778C38.2881 50.9053 41.7412 50.9053 44.7056 49.4778C47.67 48.0502 49.8231 45.3504 50.5552 42.1426C51.2874 38.9349 50.519 35.5683 48.4675 32.9959C46.4161 30.4235 43.3049 28.9252 40.0146 28.9252C36.7244 28.9252 33.6132 30.4235 31.5618 32.9959C29.5103 35.5683 28.7419 38.9349 29.4741 42.1426C30.2062 45.3504 32.3593 48.0502 35.3237 49.4778Z" fill="#F2994A" stroke="#F2994A" stroke-width="4" />
  <path d="M16.0146 64L64.0146 16" stroke="#4F4F4F" stroke-width="4" stroke-linecap="round" stroke-linejoin="round" />
</svg>