<svg width="80" height="80" viewBox="0 0 80 80" fill="none" xmlns="http://www.w3.org/2000/svg">
  <path d="M39 65C39 63.8954 38.1046 63 37 63C35.8954 63 35 63.8954 35 65H39ZM53 73.4373C54.1046 73.4373 55 72.5419 55 71.4373C55 70.3328 54.1046 69.4373 53 69.4373V73.4373ZM21 69.4373C19.8954 69.4373 19 70.3328 19 71.4373C19 72.5419 19.8954 73.4373 21 73.4373L21 69.4373ZM39 71.4373V65H35V71.4373H39ZM37 73.4373L53 73.4373V69.4373L37 69.4373V73.4373ZM37 69.4373L21 69.4373L21 73.4373L37 73.4373V69.4373Z" fill="#828282" />
  <path d="M20.261 58.1217L18.6371 56.9543H18.6371L20.261 58.1217ZM20.4991 59.5035L21.6108 57.841L21.6108 57.841L20.4991 59.5035ZM23.9904 52.9336L25.1578 51.3097L23.5339 50.1423L22.3665 51.7662L23.9904 52.9336ZM34.0389 56.9132L34.2999 54.9303L34.2999 54.9303L34.0389 56.9132ZM50.4312 52.5209L49.2136 50.9342V50.9342L50.4312 52.5209ZM58.9164 37.824L56.9335 37.5629L58.9164 37.824ZM54.5241 21.4317L52.9374 22.6492L54.5241 21.4317ZM46.0535 14.7193L44.2306 13.8966L43.4079 15.7195L45.2308 16.5422L46.0535 14.7193ZM48.6832 8.8924L50.5062 9.71509L48.6832 8.8924ZM49.9989 8.40762L50.8829 6.61356L49.9989 8.40762ZM60.3879 16.9304L61.9746 15.7128L61.9746 15.7128L60.3879 16.9304ZM66.2443 38.7868L64.2615 38.5257L66.2443 38.7868ZM54.9306 58.3827L53.7131 56.796L54.9306 58.3827ZM33.0742 64.2391L33.3353 62.2562L33.0742 64.2391ZM18.6371 56.9543C17.6807 58.2846 17.951 60.2056 19.3874 61.1661L21.6108 57.841C22.1289 58.1874 22.1965 58.8556 21.885 59.289L18.6371 56.9543ZM22.3665 51.7662L18.6371 56.9543L21.885 59.289L25.6144 54.101L22.3665 51.7662ZM34.2999 54.9303C30.9705 54.492 27.836 53.2348 25.1578 51.3097L22.8231 54.5576C26.032 56.8643 29.7881 58.3709 33.7778 58.8961L34.2999 54.9303ZM49.2136 50.9342C44.969 54.1912 39.6044 55.6287 34.2999 54.9303L33.7778 58.8961C40.1341 59.7329 46.5624 58.0104 51.6487 54.1076L49.2136 50.9342ZM56.9335 37.5629C56.2352 42.8674 53.4583 47.6772 49.2136 50.9342L51.6487 54.1076C56.735 50.2048 60.0625 44.4413 60.8993 38.085L56.9335 37.5629ZM52.9374 22.6492C56.1945 26.8938 57.6319 32.2584 56.9335 37.5629L60.8993 38.085C61.7361 31.7288 60.0137 25.3004 56.1108 20.2141L52.9374 22.6492ZM45.2308 16.5422C48.2372 17.899 50.8931 19.985 52.9374 22.6492L56.1108 20.2141C53.6611 17.0216 50.4783 14.522 46.8763 12.8964L45.2308 16.5422ZM46.8602 8.0697L44.2306 13.8966L47.8765 15.542L50.5062 9.71509L46.8602 8.0697ZM50.8829 6.61356C49.3329 5.84988 47.5342 6.57632 46.8602 8.0697L50.5062 9.71509C50.2866 10.2016 49.6741 10.4772 49.115 10.2017L50.8829 6.61356ZM61.9746 15.7128C58.9968 11.8321 55.1894 8.73536 50.8829 6.61356L49.115 10.2017C52.876 12.0547 56.2008 14.7589 58.8012 18.1479L61.9746 15.7128ZM68.2272 39.0478C69.3199 30.7481 67.0708 22.3543 61.9746 15.7128L58.8012 18.1479C63.2516 23.9477 65.2157 31.2778 64.2615 38.5257L68.2272 39.0478ZM56.1482 59.9694C62.7896 54.8733 67.1346 47.3475 68.2272 39.0478L64.2615 38.5257C63.3072 45.7737 59.5129 52.3457 53.7131 56.796L56.1482 59.9694ZM32.8132 66.222C41.1129 67.3147 49.5067 65.0655 56.1482 59.9694L53.7131 56.796C47.9133 61.2463 40.5832 63.2104 33.3353 62.2562L32.8132 66.222ZM19.3873 61.1661C23.378 63.8346 27.9635 65.5835 32.8132 66.222L33.3353 62.2562C29.1002 61.6987 25.096 60.1715 21.6108 57.841L19.3873 61.1661Z" fill="#828282" />
  <path d="M39.8941 13.0165C45.7245 13.7841 51.0111 16.8364 54.5911 21.5018C58.171 26.1673 59.7509 32.0637 58.9834 37.8941C58.2158 43.7245 55.1635 49.0111 50.4981 52.591C45.8326 56.171 39.9361 57.7509 34.1058 56.9834C28.2754 56.2158 22.9888 53.1635 19.4088 48.4981C15.8289 43.8326 14.2489 37.9361 15.0165 32.1058C15.7841 26.2754 18.8364 20.9888 23.5018 17.4088C28.1673 13.8289 34.0637 12.2489 39.8941 13.0165Z" fill="#2F80ED" stroke="#2F80ED" stroke-width="4" stroke-linecap="round" stroke-linejoin="round" />
  <path fill-rule="evenodd" clip-rule="evenodd" d="M22.1736 41.6941C23.3686 32.617 28.1206 24.3864 35.384 18.813C38.0414 16.7739 40.9554 15.1515 44.0269 13.9725C46.8541 14.9174 49.4629 16.4234 51.695 18.3991C52.2102 21.6497 52.2624 24.9856 51.825 28.3077C50.63 37.3848 45.8781 45.6154 38.6146 51.1889C35.9559 53.229 33.0404 54.8519 29.9671 56.0311C27.142 55.0864 24.5352 53.5815 22.3044 51.6074C21.7885 48.3553 21.736 45.0178 22.1736 41.6941ZM37.8191 21.9864C40.7113 19.7671 43.9471 18.1062 47.3636 17.0474C48.1554 20.5365 48.3352 24.1703 47.8593 27.7856C46.8027 35.8109 42.6014 43.0878 36.1795 48.0154C33.2874 50.2347 30.0515 51.8956 26.635 52.9544C25.8432 49.4653 25.6634 45.8315 26.1394 42.2162C27.1959 34.1909 31.3973 26.914 37.8191 21.9864Z" fill="#F2F2F2" />
  <path fill-rule="evenodd" clip-rule="evenodd" d="M21.5132 19.1303C22.138 18.5205 22.8015 17.9452 23.5012 17.4083C23.9436 17.0688 24.3971 16.7473 24.8606 16.4441L59.1381 36.2342C59.1072 36.7872 59.0555 37.3407 58.9827 37.8936C58.8676 38.768 58.7011 39.6302 58.4855 40.4763L21.5132 19.1303ZM14.9277 32.8797C14.9525 32.6215 14.9819 32.3633 15.0159 32.1053C15.1674 30.9545 15.4079 29.8248 15.7323 28.7254L53.0663 50.2802C52.2763 51.1108 51.4183 51.8839 50.4974 52.5905C50.291 52.749 50.0821 52.9035 49.8709 53.0541L14.9277 32.8797Z" fill="#F2F2F2" />
</svg>