<svg width="80" height="80" viewBox="0 0 80 80" fill="none" xmlns="http://www.w3.org/2000/svg">
  <path d="M28 64L35.6364 16" stroke="#2F80ED" stroke-width="4" stroke-linecap="round" stroke-linejoin="round" />
  <path d="M44.3635 64L51.9999 16" stroke="#56CCF2" stroke-width="4" stroke-linecap="round" stroke-linejoin="round" />
  <path d="M19.6923 31.4287L64 31.4287" stroke="#2F80ED" stroke-width="4" stroke-linecap="round" stroke-linejoin="round" />
  <path d="M15.9999 48.5713L60.3076 48.5713" stroke="#56CCF2" stroke-width="4" stroke-linecap="round" stroke-linejoin="round" />
</svg>