<svg width="80" height="80" viewBox="0 0 80 80" fill="none" xmlns="http://www.w3.org/2000/svg">
  <path d="M34.1588 63.9049H67.6191C67.8295 63.9049 68.0001 63.7343 68.0001 63.5239V61.6191C68.0001 52.7826 60.8366 45.6191 52.0001 45.6191H35.3016C34.4601 45.6191 33.7778 46.3014 33.7778 47.143V63.5239C33.7778 63.7343 33.9484 63.9049 34.1588 63.9049Z" fill="#2F80ED" stroke="#2F80ED" stroke-width="4" stroke-linecap="round" stroke-linejoin="round" />
  <path d="M12 38V64.0465V70" stroke="#4F4F4F" stroke-width="4" stroke-linecap="round" stroke-linejoin="round" />
  <path d="M68 63.9048H12" stroke="#4F4F4F" stroke-width="4" stroke-linecap="round" stroke-linejoin="round" />
  <path d="M68 63.9048V70" stroke="#4F4F4F" stroke-width="4" stroke-linecap="round" stroke-linejoin="round" />
  <path d="M20.4306 50.1668C22.0766 49.2359 24.0901 49.2359 25.7361 50.1668L25.8192 50.2138C27.4584 51.1409 28.4719 52.8785 28.4719 54.7617C28.4719 56.645 27.4584 58.3826 25.8192 59.3097L25.7361 59.3567C24.0901 60.2876 22.0766 60.2876 20.4306 59.3567L20.3475 59.3097C18.7082 58.3826 17.6947 56.645 17.6947 54.7617C17.6947 52.8785 18.7082 51.1409 20.3475 50.2138L20.4306 50.1668Z" fill="#F2C94C" stroke="#F2C94C" stroke-width="4" stroke-linecap="round" stroke-linejoin="round" />
  <path d="M19.1156 11.6763C19.4908 10.9652 20.5092 10.9652 20.8844 11.6763L22.5214 14.7789C22.6661 15.0532 22.9298 15.2448 23.2353 15.2976L26.6919 15.8957C27.4842 16.0328 27.7989 17.0014 27.2385 17.578L24.7936 20.0936C24.5775 20.316 24.4768 20.626 24.5209 20.9329L25.0203 24.4051C25.1347 25.201 24.3108 25.7996 23.5892 25.4448L20.4412 23.897C20.163 23.7601 19.837 23.7601 19.5588 23.897L16.4108 25.4448C15.6892 25.7996 14.8653 25.201 14.9797 24.4051L15.4791 20.9329C15.5232 20.626 15.4225 20.316 15.2064 20.0936L12.7615 17.578C12.2011 17.0014 12.5158 16.0328 13.3081 15.8957L16.7647 15.2976C17.0702 15.2448 17.3339 15.0532 17.4786 14.7789L19.1156 11.6763Z" fill="#F2C94C" />
  <path d="M39.1156 11.6763C39.4908 10.9652 40.5092 10.9652 40.8844 11.6763L42.5214 14.7789C42.6661 15.0532 42.9298 15.2448 43.2353 15.2976L46.6919 15.8957C47.4842 16.0328 47.7989 17.0014 47.2385 17.578L44.7936 20.0936C44.5775 20.316 44.4768 20.626 44.5209 20.9329L45.0203 24.4051C45.1347 25.201 44.3108 25.7996 43.5892 25.4448L40.4412 23.897C40.163 23.7601 39.837 23.7601 39.5588 23.897L36.4108 25.4448C35.6892 25.7996 34.8653 25.201 34.9797 24.4051L35.4791 20.9329C35.5232 20.626 35.4225 20.316 35.2064 20.0936L32.7615 17.578C32.2011 17.0014 32.5158 16.0328 33.3081 15.8957L36.7647 15.2976C37.0702 15.2448 37.3339 15.0532 37.4786 14.7789L39.1156 11.6763Z" fill="#F2C94C" />
  <path d="M59.1156 11.6763C59.4908 10.9652 60.5092 10.9652 60.8844 11.6763L62.5214 14.7789C62.6661 15.0532 62.9298 15.2448 63.2353 15.2976L66.6919 15.8957C67.4842 16.0328 67.7989 17.0014 67.2385 17.578L64.7936 20.0936C64.5775 20.316 64.4768 20.626 64.5209 20.9329L65.0203 24.4051C65.1347 25.201 64.3108 25.7996 63.5892 25.4448L60.4412 23.897C60.163 23.7601 59.837 23.7601 59.5588 23.897L56.4108 25.4448C55.6892 25.7996 54.8653 25.201 54.9797 24.4051L55.4791 20.9329C55.5232 20.626 55.4225 20.316 55.2064 20.0936L52.7615 17.578C52.2011 17.0014 52.5158 16.0328 53.3081 15.8957L56.7647 15.2976C57.0702 15.2448 57.3339 15.0532 57.4786 14.7789L59.1156 11.6763Z" fill="#F2C94C" />
</svg>