<svg width="80" height="80" viewBox="0 0 80 80" fill="none" xmlns="http://www.w3.org/2000/svg">
  <path fill-rule="evenodd" clip-rule="evenodd" d="M59.0524 24.543V12H20.9473V24.543C20.9473 29.2702 23.0377 33.7555 26.6578 36.7956L29.7103 39.3591C29.9767 39.5828 30.2486 39.7965 30.5255 40.0002C30.2486 40.2039 29.9767 40.4176 29.7103 40.6414L26.6578 43.2049C23.0377 46.2449 20.9473 50.7302 20.9473 55.4575V68.0004H59.0524V55.4575C59.0524 50.7302 56.962 46.2449 53.3419 43.2049L50.2893 40.6414C50.0229 40.4176 49.751 40.2039 49.4741 40.0002C49.751 39.7965 50.0229 39.5828 50.2893 39.359L53.3419 36.7956C56.962 33.7555 59.0524 29.2702 59.0524 24.543Z" fill="#F2F2F2" />
  <path d="M14 12H66" stroke="#2F80ED" stroke-width="4" stroke-linecap="round" stroke-linejoin="round" />
  <path d="M14 68H66" stroke="#2F80ED" stroke-width="4" stroke-linecap="round" stroke-linejoin="round" />
  <path fill-rule="evenodd" clip-rule="evenodd" d="M49.3367 63.1998C51.5458 63.1998 53.3367 61.409 53.3367 59.1998V56.3007C53.3367 52.7749 51.6764 49.455 48.8556 47.3399L46.7188 45.7377C42.737 42.7521 37.2628 42.7521 33.281 45.7377L31.1442 47.3399C28.3233 49.455 26.6631 52.7749 26.6631 56.3007V59.1998C26.6631 61.409 28.4539 63.1998 30.6631 63.1998H49.3367Z" fill="#F2C94C" />
</svg>