<svg width="80" height="80" viewBox="0 0 80 80" fill="none" xmlns="http://www.w3.org/2000/svg">
  <path fill-rule="evenodd" clip-rule="evenodd" d="M60 33.625L40 17.625L20 33.625L20 61.625L60 61.625L60 33.625Z" fill="#F2C94C" />
  <path d="M60 33.625H62C62 33.0174 61.7238 32.4428 61.2494 32.0633L60 33.625ZM40 17.625L41.2494 16.0633C40.519 15.4789 39.481 15.4789 38.7506 16.0633L40 17.625ZM20 33.625L18.7506 32.0633C18.2762 32.4428 18 33.0174 18 33.625H20ZM20 61.625H18C18 62.7296 18.8954 63.625 20 63.625V61.625ZM60 61.625V63.625C60.5304 63.625 61.0391 63.4143 61.4142 63.0392C61.7893 62.6641 62 62.1554 62 61.625H60ZM61.2494 32.0633L41.2494 16.0633L38.7506 19.1867L58.7506 35.1867L61.2494 32.0633ZM38.7506 16.0633L18.7506 32.0633L21.2494 35.1867L41.2494 19.1867L38.7506 16.0633ZM18 33.625L18 61.625H22L22 33.625H18ZM20 63.625L60 63.625V59.625L20 59.625V63.625ZM62 61.625L62 33.625H58L58 61.625H62Z" fill="#F2C94C" />
  <path d="M67.5 39.625L64.5 37.225L40 17.625L15.5 37.225L12.5 39.625" stroke="#EB5757" stroke-width="4" stroke-linecap="round" stroke-linejoin="round" />
  <path fill-rule="evenodd" clip-rule="evenodd" d="M55 29.625V18.625H49V24.825L55 29.625Z" fill="#EB5757" />
  <path d="M55 18.625H57C57 17.5204 56.1046 16.625 55 16.625V18.625ZM55 29.625L53.7506 31.1867C54.3509 31.667 55.1734 31.7606 55.8664 31.4276C56.5593 31.0946 57 30.3938 57 29.625H55ZM49 18.625V16.625C47.8954 16.625 47 17.5204 47 18.625H49ZM49 24.825H47C47 25.4326 47.2762 26.0072 47.7506 26.3867L49 24.825ZM53 18.625V29.625H57V18.625H53ZM49 20.625H55V16.625H49V20.625ZM51 24.825V18.625H47V24.825H51ZM47.7506 26.3867L53.7506 31.1867L56.2494 28.0633L50.2494 23.2633L47.7506 26.3867Z" fill="#EB5757" />
  <path fill-rule="evenodd" clip-rule="evenodd" d="M34.076 61.625H43.0343L40.6201 52.3379H40.9542H42.1425H43.6003H48.3264L37.7419 31.6998L38.2308 33.9929L40.9323 46.6624L39.1447 46.6624L37.7788 46.6624L31.9206 46.6624L34.076 61.625Z" fill="#F2F2F2" />
  <path d="M43.0343 61.625L44.97 61.1218C45.1258 61.7211 44.9952 62.3586 44.6165 62.8484C44.2377 63.3382 43.6535 63.625 43.0343 63.625V61.625ZM34.076 61.625V63.625C33.0816 63.625 32.2382 62.8944 32.0964 61.9102L34.076 61.625ZM40.6201 52.3379L38.6844 52.841C38.5286 52.2418 38.6592 51.6042 39.0379 51.1144C39.4167 50.6246 40.0009 50.3379 40.6201 50.3379V52.3379ZM48.3264 52.3379L50.106 51.4252C50.424 52.0452 50.3964 52.786 50.0331 53.3806C49.6698 53.9752 49.0232 54.3379 48.3264 54.3379V52.3379ZM37.7419 31.6998L35.7859 32.1168C35.5767 31.136 36.1264 30.1519 37.0712 29.8156C38.016 29.4792 39.0638 29.8947 39.5215 30.7871L37.7419 31.6998ZM38.2308 33.9929L40.1869 33.5758L38.2308 33.9929ZM40.9323 46.6624L42.8883 46.2453C43.0142 46.8357 42.8667 47.4513 42.487 47.9205C42.1073 48.3898 41.5359 48.6624 40.9323 48.6624L40.9323 46.6624ZM39.1447 46.6624L39.1447 44.6624H39.1447L39.1447 46.6624ZM37.7788 46.6624L37.7788 48.6624H37.7788L37.7788 46.6624ZM31.9206 46.6624L29.941 46.9475C29.8583 46.3733 30.029 45.7914 30.4089 45.3529C30.7888 44.9143 31.3404 44.6624 31.9206 44.6624L31.9206 46.6624ZM43.0343 63.625H34.076V59.625H43.0343V63.625ZM42.5557 51.8347L44.97 61.1218L41.0987 62.1282L38.6844 52.841L42.5557 51.8347ZM40.6201 50.3379H40.9542V54.3379H40.6201V50.3379ZM40.9542 50.3379H42.1425V54.3379H40.9542V50.3379ZM42.1425 50.3379H43.6003V54.3379H42.1425V50.3379ZM48.3264 54.3379H43.6003V50.3379H48.3264V54.3379ZM39.5215 30.7871L50.106 51.4252L46.5468 53.2505L35.9623 32.6124L39.5215 30.7871ZM36.2748 34.41L35.7859 32.1168L39.6979 31.2827L40.1869 33.5758L36.2748 34.41ZM38.9763 47.0795L36.2748 34.41L40.1869 33.5758L42.8883 46.2453L38.9763 47.0795ZM40.9323 48.6624L39.1447 48.6624L39.1447 44.6624L40.9323 44.6624L40.9323 48.6624ZM39.1447 48.6624L37.7788 48.6624L37.7788 44.6624L39.1447 44.6624L39.1447 48.6624ZM31.9206 44.6624L37.7788 44.6624L37.7788 48.6624L31.9206 48.6624L31.9206 44.6624ZM32.0964 61.9102L29.941 46.9475L33.9002 46.3772L36.0556 61.3398L32.0964 61.9102Z" fill="#F2F2F2" />
</svg>