<svg width="80" height="80" viewBox="0 0 80 80" fill="none" xmlns="http://www.w3.org/2000/svg">
  <path d="M29.0544 17.2712C35.9714 13.9402 44.0288 13.9402 50.9457 17.2712C57.8627 20.6022 62.8863 26.9018 64.5947 34.3865C66.303 41.8713 64.5101 49.7266 59.7234 55.7289C54.9367 61.7312 47.6773 65.2272 40.0001 65.2272C32.3228 65.2272 25.0634 61.7312 20.2767 55.7289C15.49 49.7266 13.6971 41.8713 15.4054 34.3865C17.1138 26.9018 22.1375 20.6022 29.0544 17.2712Z" fill="#F2C94C" />
  <path d="M40 42L42.6334 43.3167C44.8446 44.4223 44.8446 47.5777 42.6334 48.6833L40 50" stroke="#333333" stroke-width="4" stroke-linecap="round" stroke-linejoin="round" />
  <path d="M40 50L42.6334 51.3167C44.8446 52.4223 44.8446 55.5777 42.6334 56.6833L40 58" stroke="#333333" stroke-width="4" stroke-linecap="round" stroke-linejoin="round" />
  <path d="M34.9497 35.3431C34.2997 34.6003 33.5281 34.011 32.6788 33.609C31.8295 33.2069 30.9193 33 30 33C29.0807 33 28.1705 33.2069 27.3212 33.609C26.4719 34.011 25.7003 34.6003 25.0503 35.3431" stroke="#4F4F4F" stroke-width="4" stroke-linecap="round" stroke-linejoin="round" />
  <path d="M54.9497 35.3431C54.2997 34.6003 53.5281 34.011 52.6788 33.609C51.8295 33.2069 50.9193 33 50 33C49.0807 33 48.1705 33.2069 47.3212 33.609C46.4719 34.011 45.7003 34.6003 45.0503 35.3431" stroke="#4F4F4F" stroke-width="4" stroke-linecap="round" stroke-linejoin="round" />
</svg>