<svg width="80" height="80" viewBox="0 0 80 80" fill="none" xmlns="http://www.w3.org/2000/svg">
  <path d="M12 66C12 62.6863 14.6863 60 18 60H62C65.3137 60 68 62.6863 68 66C68 67.1046 67.1046 68 66 68H14C12.8954 68 12 67.1046 12 66Z" fill="#828282" />
  <path fill-rule="evenodd" clip-rule="evenodd" d="M45.6785 16.0573C47.5645 16.3796 49 18.0221 49 20V43C49 43.5523 48.5523 44 48 44H32C31.4477 44 31 43.5523 31 43V20C31 18.0221 32.4355 16.3796 34.3215 16.0573C35.1288 13.697 37.3662 12 40 12C42.6338 12 44.8712 13.697 45.6785 16.0573Z" fill="#F2F2F2" />
  <path d="M45.6785 16.0573L43.7861 16.7046C44.0231 17.3974 44.6198 17.9054 45.3417 18.0287L45.6785 16.0573ZM34.3215 16.0573L34.6583 18.0287C35.3802 17.9054 35.9769 17.3974 36.2139 16.7046L34.3215 16.0573ZM45.3417 18.0287C46.2832 18.1896 47 19.0131 47 20H51C51 17.0312 48.8458 14.5695 46.0154 14.0859L45.3417 18.0287ZM47 20V43H51V20H47ZM47 43C47 42.4477 47.4477 42 48 42V46C49.6569 46 51 44.6569 51 43H47ZM48 42H32V46H48V42ZM32 42C32.5523 42 33 42.4477 33 43H29C29 44.6569 30.3431 46 32 46V42ZM33 43V20H29V43H33ZM33 20C33 19.0131 33.7168 18.1896 34.6583 18.0287L33.9846 14.0859C31.1542 14.5695 29 17.0312 29 20H33ZM36.2139 16.7046C36.7529 15.1286 38.2472 14 40 14V10C36.4852 10 33.5046 12.2655 32.4291 15.4101L36.2139 16.7046ZM40 14C41.7528 14 43.2471 15.1286 43.7861 16.7046L47.5709 15.4101C46.4954 12.2655 43.5148 10 40 10V14Z" fill="#BDBDBD" />
  <path d="M34 44H46V51C46 51.5523 45.5523 52 45 52H35C34.4477 52 34 51.5523 34 51V44Z" fill="#BDBDBD" />
  <path d="M36 52H44V53C44 53.5523 43.5523 54 43 54H37C36.4477 54 36 53.5523 36 53V52Z" fill="#828282" />
  <path fill-rule="evenodd" clip-rule="evenodd" d="M49 30.0352C56.2653 30.5479 62 36.6043 62 44C62 51.732 55.732 58 48 58H40C38.8954 58 38 58.8955 38 60C38 61.1046 38.8954 62 40 62H48C57.9411 62 66 53.9412 66 44C66 34.3945 58.476 26.5462 49 26.0273V30.0352Z" fill="#828282" />
</svg>