<svg width="80" height="80" viewBox="0 0 80 80" fill="none" xmlns="http://www.w3.org/2000/svg">
  <rect x="24" y="12" width="32" height="56" rx="2" fill="#9B51E0" stroke="#9B51E0" stroke-width="4" stroke-linecap="round" stroke-linejoin="round" />
  <path d="M44 62H36" stroke="#56CCF2" stroke-width="4" stroke-linecap="round" stroke-linejoin="round" />
</svg>