<svg width="80" height="80" viewBox="0 0 80 80" fill="none" xmlns="http://www.w3.org/2000/svg">
  <path fill-rule="evenodd" clip-rule="evenodd" d="M10.9333 58.9459C10.3862 58.6039 10.0065 58.0615 9.68396 57.5028C9.36138 56.9441 9.08154 56.3441 9.05886 55.6993C9.00936 54.2916 9.70671 52.902 10.9967 52.1268L11.3324 51.9251C13.1666 50.8229 15.5422 51.6496 16.6122 53.5028C17.6821 55.356 17.2103 57.8267 15.3387 58.8641L14.9961 59.054C13.6798 59.7835 12.1276 59.6927 10.9333 58.9459ZM70.9412 55.6984C70.9187 56.3435 70.6387 56.9438 70.316 57.5028C69.9933 58.0617 69.6134 58.6043 69.066 58.9464C67.8717 59.6927 66.32 59.7834 65.0039 59.054L64.6613 58.864C62.8 57.8324 62.3231 55.3833 63.3702 53.5336L53.2646 47.8158C53.3109 47.7373 53.3565 47.6583 53.4014 47.5789L63.4059 53.4717C64.4844 51.6404 66.8436 50.829 68.6675 51.925L69.0033 52.1268C70.293 52.9018 70.9904 54.291 70.9412 55.6984ZM55.2404 42.1853L61.5683 43.0133L55.2558 42.0753C55.2508 42.112 55.2457 42.1487 55.2404 42.1853ZM54.9276 36.2296L64.1544 33.671C64.5839 35.22 66.1564 36.2459 67.7037 35.8021L67.9637 35.7276C69.006 35.4286 69.7622 34.6128 70.0305 33.6364C70.1695 33.131 70.0785 32.5983 69.9429 32.0919C69.8072 31.5855 69.6196 31.0787 69.2465 30.7104C68.526 29.9991 67.4632 29.6706 66.4111 29.9329L66.1486 29.9983C64.5865 30.3877 63.7377 32.0625 64.1405 33.6189L54.872 36.0161C54.891 36.0871 54.9095 36.1583 54.9276 36.2296ZM52.3939 30.866L54.3857 29.3668L52.3681 30.8311C52.3768 30.8427 52.3854 30.8543 52.3939 30.866ZM47.7696 26.7083L50.4334 22.0003C52.2577 23.0329 54.7065 22.6157 55.7236 20.7805L55.9431 20.3845C56.7033 19.013 56.5727 17.3854 55.7376 16.1733C55.4044 15.6897 54.9111 15.348 54.4024 15.0543C53.8938 14.7607 53.3512 14.5043 52.7658 14.4575C51.2985 14.3403 49.8237 15.041 49.016 16.3852L48.7828 16.7732C47.702 18.5718 48.5652 20.9013 50.3718 21.9647L47.6265 26.6256C47.6504 26.6392 47.6742 26.6529 47.698 26.6667C47.7219 26.6805 47.7458 26.6943 47.7696 26.7083ZM40.137 24.6046L40.0359 12.994C42.1612 12.9757 44.0435 11.3382 44.0063 9.21064L43.9994 8.81876C43.9731 7.31483 43.1192 6.0167 41.8765 5.35538C41.3063 5.05195 40.6459 4.99414 40 4.99414C39.3541 4.99414 38.6938 5.05194 38.1235 5.35537C36.8808 6.01669 36.0269 7.31482 36.0006 8.81876L35.9938 9.21064C35.9565 11.3383 37.8391 12.9759 39.9644 12.994L39.8634 24.6046C39.9546 24.6038 40.0458 24.6038 40.137 24.6046ZM34.2724 25.7087L31.8255 19.8146L34.1694 25.7505C34.2037 25.7364 34.238 25.7225 34.2724 25.7087ZM29.1903 29.0365L22.4992 22.4609L22.4802 22.48L22.4611 22.499L29.0367 29.1901C29.0875 29.1386 29.1387 29.0874 29.1903 29.0365ZM25.8927 33.8335L23.5986 32.8582L25.8754 33.8733C25.8812 33.86 25.887 33.8468 25.8927 33.8335ZM24.6042 39.9171L19.1954 39.9642L19.1955 39.9998L19.1954 40.0353L24.6042 40.0824C24.6041 40.0549 24.604 40.0275 24.604 40C24.604 39.9724 24.6041 39.9448 24.6042 39.9171ZM26.5987 47.5791L16.5943 53.4718L16.6123 53.5027L16.63 53.5337L26.7355 47.816C26.6892 47.7374 26.6436 47.6584 26.5987 47.5791ZM30.4872 52.1059L26.6062 57.172L30.5748 52.1742C30.5455 52.1515 30.5163 52.1288 30.4872 52.1059ZM36.0163 54.872L33.619 64.1406C32.0626 63.7378 30.3877 64.5866 29.9983 66.1487L29.9329 66.411C29.6706 67.4635 29.9993 68.5266 30.7112 69.2472C31.0794 69.6199 31.5859 69.8073 32.0919 69.9429C32.598 70.0785 33.1303 70.1695 33.6355 70.0308C34.6123 69.7626 35.4286 69.0063 35.7276 67.9637L35.8021 67.7038C36.2459 66.1565 35.2201 64.5841 33.6711 64.1545L36.2297 54.9276C36.1584 54.9096 36.0873 54.8911 36.0163 54.872ZM41.7133 55.3005L42.0158 57.7749L41.7564 55.2956C41.7421 55.2972 41.7277 55.2989 41.7133 55.3005ZM47.6267 53.3743L50.372 58.035C48.5653 59.0985 47.702 61.4279 48.7828 63.2265L49.016 63.6146C49.8238 64.9589 51.2989 65.6596 52.7664 65.5422C53.3517 65.4953 53.894 65.239 54.4025 64.9454C54.9109 64.6519 55.404 64.3104 55.7372 63.827C56.5727 62.6148 56.7034 60.9869 55.9431 59.6152L55.7237 59.2192C54.7065 57.3841 52.2578 56.9669 50.4335 57.9995L47.7698 53.2916C47.7459 53.3056 47.722 53.3195 47.698 53.3333C47.6743 53.347 47.6505 53.3607 47.6267 53.3743ZM18.2374 18.2373C17.8671 18.6076 17.5223 19.023 17.3898 19.5296C17.1333 20.5097 17.3801 21.5952 18.1337 22.3756L18.3214 22.57C19.4459 23.7346 21.3354 23.6247 22.48 22.48C23.6247 21.3353 23.7346 19.4458 22.5701 18.3214L22.3757 18.1336C21.5952 17.38 20.5098 17.1332 19.5296 17.3897C19.023 17.5223 18.6077 17.867 18.2374 18.2373ZM11.4962 41.7142C11.2445 41.1841 11.1953 40.5866 11.1953 39.9999C11.1953 39.4131 11.2445 38.8156 11.4962 38.2856C12.1281 36.9555 13.4727 36.0279 15.0412 36.0005L15.4938 35.9926C17.6036 35.9556 19.1953 37.8897 19.1953 39.9999C19.1953 42.11 17.6036 44.0441 15.4938 44.0072L15.0412 43.9992C13.4727 43.9718 12.1281 43.0443 11.4962 41.7142Z" fill="#6FCF97" />
  <path d="M9.68396 57.5028L11.416 56.5028L11.416 56.5028L9.68396 57.5028ZM10.9333 58.9459L9.87301 60.6417H9.87301L10.9333 58.9459ZM9.05886 55.6993L11.0576 55.629L9.05886 55.6993ZM10.9967 52.1268L9.96657 50.4125L9.96656 50.4125L10.9967 52.1268ZM11.3324 51.9251L12.3626 53.6394L12.3626 53.6394L11.3324 51.9251ZM16.6122 53.5028L14.8801 54.5028H14.8801L16.6122 53.5028ZM15.3387 58.8641L16.3082 60.6134L16.3082 60.6134L15.3387 58.8641ZM14.9961 59.054L14.0266 57.3047L14.0265 57.3047L14.9961 59.054ZM70.316 57.5028L72.048 58.5028L72.048 58.5027L70.316 57.5028ZM70.9412 55.6984L68.9424 55.6286V55.6286L70.9412 55.6984ZM69.066 58.9464L68.0061 57.2503L69.066 58.9464ZM65.0039 59.054L65.9735 57.3047L65.9735 57.3047L65.0039 59.054ZM64.6613 58.864L63.6917 60.6133L63.6917 60.6133L64.6613 58.864ZM63.3702 53.5336L65.1107 54.5188C65.372 54.0572 65.4392 53.5106 65.2975 52.9994C65.1558 52.4881 64.8168 52.0541 64.3551 51.7929L63.3702 53.5336ZM53.2646 47.8158L51.5415 46.8006C51.2691 47.2628 51.1939 47.8151 51.3327 48.3333C51.4716 48.8516 51.8128 49.2923 52.2797 49.5565L53.2646 47.8158ZM53.4014 47.5789L54.4164 45.8556C53.9541 45.5833 53.4018 45.5082 52.8836 45.6471C52.3653 45.786 51.9246 46.1273 51.6605 46.5943L53.4014 47.5789ZM63.4059 53.4717L62.3909 55.195C62.8479 55.4642 63.3932 55.5408 63.9068 55.408C64.4204 55.2751 64.8601 54.9437 65.1293 54.4866L63.4059 53.4717ZM68.6675 51.925L67.6374 53.6393L67.6374 53.6393L68.6675 51.925ZM69.0033 52.1268L70.0335 50.4125L70.0335 50.4125L69.0033 52.1268ZM55.2404 42.1853L53.2606 41.9017C53.1848 42.431 53.3241 42.9685 53.6473 43.3944C53.9705 43.8203 54.4508 44.099 54.9809 44.1684L55.2404 42.1853ZM61.5683 43.0133L61.3088 44.9964C62.3973 45.1388 63.3972 44.3773 63.5491 43.29C63.701 42.2028 62.9481 41.1964 61.8623 41.035L61.5683 43.0133ZM55.2558 42.0753L55.5497 40.097C55.0208 40.0184 54.4824 40.1549 54.0548 40.476C53.6272 40.7971 53.346 41.276 53.274 41.8059L55.2558 42.0753ZM54.9276 36.2296L52.9885 36.7194C53.1203 37.2414 53.4571 37.6882 53.9227 37.9588C54.3882 38.2293 54.9431 38.3007 55.462 38.1568L54.9276 36.2296ZM64.1544 33.671L66.0817 33.1366C65.94 32.6254 65.601 32.1915 65.1394 31.9303C64.6777 31.6691 64.1312 31.6019 63.62 31.7437L64.1544 33.671ZM67.7037 35.8021L67.1524 33.8796H67.1524L67.7037 35.8021ZM67.9637 35.7276L67.4124 33.8051L67.9637 35.7276ZM70.0305 33.6364L71.959 34.1665L71.959 34.1665L70.0305 33.6364ZM69.9429 32.0919L68.011 32.6095L68.011 32.6095L69.9429 32.0919ZM69.2465 30.7104L67.8414 32.1337L69.2465 30.7104ZM66.4111 29.9329L66.8948 31.8735L66.4111 29.9329ZM66.1486 29.9983L65.6649 28.0577L66.1486 29.9983ZM64.1405 33.6189L64.6413 35.5552C65.1549 35.4224 65.5946 35.0909 65.8638 34.6338C66.133 34.1767 66.2096 33.6314 66.0767 33.1179L64.1405 33.6189ZM54.872 36.0161L54.3712 34.0799C53.8548 34.2134 53.4131 34.5478 53.1443 35.0086C52.8756 35.4694 52.8021 36.0185 52.9401 36.5337L54.872 36.0161ZM52.3939 30.866L50.7838 32.0523C51.1005 32.4822 51.576 32.7676 52.1044 32.8449C52.6327 32.9222 53.1701 32.785 53.5967 32.4639L52.3939 30.866ZM54.3857 29.3668L55.5884 30.9647C56.4655 30.3045 56.6465 29.0608 55.994 28.178C55.3415 27.2952 54.0994 27.1033 53.2109 27.7482L54.3857 29.3668ZM52.3681 30.8311L51.1934 29.2124C50.7613 29.526 50.4725 29.9994 50.3914 30.5271C50.3102 31.0548 50.4435 31.593 50.7614 32.022L52.3681 30.8311ZM47.7696 26.7083L46.7603 28.4349C47.2225 28.7051 47.7736 28.7787 48.2905 28.6393C48.8073 28.4998 49.2467 28.1591 49.5103 27.6932L47.7696 26.7083ZM50.4334 22.0003L51.4186 20.2598C50.957 19.9984 50.4104 19.9312 49.8992 20.0729C49.3879 20.2147 48.954 20.5537 48.6927 21.0154L50.4334 22.0003ZM55.7236 20.7805L53.9743 19.811L53.9743 19.811L55.7236 20.7805ZM55.9431 20.3845L57.6924 21.3541L57.6924 21.3541L55.9431 20.3845ZM55.7376 16.1733L57.3846 15.0386L57.3846 15.0386L55.7376 16.1733ZM52.7658 14.4575L52.925 12.4638V12.4638L52.7658 14.4575ZM49.016 16.3852L47.3017 15.355L47.3017 15.355L49.016 16.3852ZM48.7828 16.7732L50.4971 17.8034L50.4971 17.8034L48.7828 16.7732ZM50.3718 21.9647L52.0951 22.9798C52.3644 22.5226 52.441 21.9773 52.3081 21.4637C52.1751 20.95 51.8436 20.5103 51.3864 20.2412L50.3718 21.9647ZM47.6265 26.6256L45.9032 25.6106C45.6315 26.0718 45.5561 26.6227 45.6938 27.14C45.8315 27.6573 46.1707 28.0978 46.6358 28.363L47.6265 26.6256ZM47.698 26.6667L46.698 28.3987L46.698 28.3987L47.698 26.6667ZM40.137 24.6046L40.1192 26.6045C40.6557 26.6093 41.1716 26.3983 41.5511 26.0189C41.9305 25.6396 42.1416 25.1237 42.1369 24.5872L40.137 24.6046ZM40.0359 12.994L40.0187 10.9941C39.4883 10.9986 38.9814 11.2137 38.6095 11.5921C38.2377 11.9704 38.0314 12.4809 38.036 13.0114L40.0359 12.994ZM44.0063 9.21064L42.0066 9.24562V9.24563L44.0063 9.21064ZM43.9994 8.81876L45.9991 8.78378V8.78378L43.9994 8.81876ZM41.8765 5.35538L42.816 3.5898V3.5898L41.8765 5.35538ZM38.1235 5.35537L37.184 3.58979L37.184 3.58979L38.1235 5.35537ZM36.0006 8.81876L38.0003 8.85375V8.85375L36.0006 8.81876ZM35.9938 9.21064L33.9941 9.17565V9.17566L35.9938 9.21064ZM39.9644 12.994L41.9644 13.0114C41.969 12.4809 41.7627 11.9703 41.3908 11.592C41.0189 11.2137 40.5119 10.9986 39.9815 10.9941L39.9644 12.994ZM39.8634 24.6046L37.8635 24.5872C37.8588 25.1237 38.0699 25.6396 38.4493 26.0189C38.8287 26.3983 39.3446 26.6093 39.8811 26.6045L39.8634 24.6046ZM34.2724 25.7087L35.0166 27.5651C35.5129 27.3662 35.9088 26.9768 36.116 26.4839C36.3233 25.991 36.3245 25.4357 36.1195 24.9419L34.2724 25.7087ZM31.8255 19.8146L33.6726 19.0478C33.2517 18.0339 32.0923 17.5488 31.0748 17.9609C30.0573 18.3729 29.5621 19.5281 29.9653 20.5492L31.8255 19.8146ZM34.1694 25.7505L32.3092 26.485C32.5056 26.9824 32.893 27.3804 33.3849 27.5902C33.8768 27.7999 34.4322 27.804 34.9271 27.6014L34.1694 25.7505ZM29.1903 29.0365L30.5945 30.4606C30.9761 30.0844 31.1907 29.5707 31.1903 29.0348C31.1898 28.499 30.9743 27.9857 30.5921 27.6101L29.1903 29.0365ZM22.4992 22.4609L23.901 21.0345C23.1157 20.2627 21.8542 20.2708 21.0789 21.0528L22.4992 22.4609ZM22.4802 22.48L23.8884 23.9003C23.8924 23.8963 23.8965 23.8922 23.9005 23.8882L22.4802 22.48ZM22.4611 22.499L21.053 21.0788C20.271 21.854 20.2628 23.1155 21.0346 23.9009L22.4611 22.499ZM29.0367 29.1901L27.6102 30.592C27.9859 30.9742 28.4992 31.1897 29.0351 31.1901C29.571 31.1905 30.0847 30.9759 30.4609 30.5942L29.0367 29.1901ZM25.8927 33.8335L27.7252 34.6348C27.9392 34.1455 27.9486 33.591 27.7513 33.0948C27.5541 32.5986 27.1666 32.2018 26.6752 31.9929L25.8927 33.8335ZM23.5986 32.8582L24.381 31.0176C23.3707 30.5881 22.2031 31.0532 21.7648 32.0597C21.3266 33.0662 21.7815 34.2379 22.7842 34.6849L23.5986 32.8582ZM25.8754 33.8733L25.061 35.7C25.5486 35.9174 26.1029 35.9308 26.6005 35.7372C27.0981 35.5437 27.4976 35.1592 27.7101 34.6695L25.8754 33.8733ZM24.6042 39.9171L26.6042 39.9279C26.6071 39.3926 26.3952 38.8785 26.0161 38.5006C25.6369 38.1227 25.1221 37.9126 24.5868 37.9172L24.6042 39.9171ZM19.1954 39.9642L19.178 37.9643C18.0769 37.9739 17.1908 38.8716 17.1954 39.9726L19.1954 39.9642ZM19.1955 39.9998L21.1955 40.0081C21.1955 40.0025 21.1955 39.9969 21.1955 39.9913L19.1955 39.9998ZM19.1954 40.0353L17.1954 40.0269C17.1908 41.128 18.077 42.0257 19.178 42.0352L19.1954 40.0353ZM24.6042 40.0824L24.5868 42.0823C25.1221 42.087 25.6369 41.8769 26.016 41.499C26.3952 41.1211 26.607 40.607 26.6042 40.0718L24.6042 40.0824ZM26.5987 47.5791L28.3396 46.5945C28.0754 46.1275 27.6348 45.7862 27.1165 45.6473C26.5983 45.5083 26.046 45.5835 25.5837 45.8558L26.5987 47.5791ZM16.5943 53.4718L15.5792 51.7485C14.6305 52.3073 14.3119 53.528 14.8665 54.4792L16.5943 53.4718ZM16.6123 53.5027L18.3486 52.51C18.3457 52.5051 18.3429 52.5002 18.34 52.4953L16.6123 53.5027ZM16.63 53.5337L14.8937 54.5263C15.4402 55.4822 16.6566 55.8166 17.6149 55.2744L16.63 53.5337ZM26.7355 47.816L27.7204 49.5567C28.1873 49.2925 28.5285 48.8517 28.6674 48.3335C28.8062 47.8152 28.731 47.2629 28.4586 46.8007L26.7355 47.816ZM30.4872 52.1059L31.7228 50.5332C31.3024 50.2029 30.7672 50.0547 30.2367 50.1217C29.7063 50.1886 29.2247 50.4652 28.8995 50.8896L30.4872 52.1059ZM26.6062 57.172L25.0186 55.9557C24.351 56.8272 24.5106 58.0739 25.3762 58.749C26.2418 59.4242 27.4898 59.2754 28.1725 58.4157L26.6062 57.172ZM30.5748 52.1742L32.1411 53.4179C32.4736 52.9991 32.6246 52.4646 32.5603 51.9338C32.496 51.4029 32.2218 50.9199 31.7989 50.5926L30.5748 52.1742ZM36.0163 54.872L36.5336 52.9401C36.0184 52.8021 35.4693 52.8757 35.0086 53.1444C34.5478 53.4132 34.2135 53.8548 34.08 54.3712L36.0163 54.872ZM33.619 64.1406L33.1179 66.0768C33.6315 66.2097 34.1768 66.1332 34.6339 65.864C35.091 65.5948 35.4225 65.155 35.5553 64.6414L33.619 64.1406ZM29.9983 66.1487L28.0577 65.6649L28.0577 65.6649L29.9983 66.1487ZM29.9329 66.411L31.8735 66.8948L31.8735 66.8948L29.9329 66.411ZM30.7112 69.2472L29.2884 70.6528L29.2884 70.6528L30.7112 69.2472ZM32.0919 69.9429L32.6095 68.0111L32.6095 68.0111L32.0919 69.9429ZM33.6355 70.0308L33.1061 68.1021L33.1061 68.1021L33.6355 70.0308ZM35.7276 67.9637L33.8051 67.4123L35.7276 67.9637ZM35.8021 67.7038L37.7246 68.2552L37.7246 68.2552L35.8021 67.7038ZM33.6711 64.1545L31.7438 63.6201C31.4486 64.6845 32.0722 65.7866 33.1366 66.0818L33.6711 64.1545ZM36.2297 54.9276L38.157 55.462C38.3009 54.9431 38.2294 54.3881 37.9589 53.9226C37.6883 53.457 37.2414 53.1203 36.7193 52.9884L36.2297 54.9276ZM41.7133 55.3005L41.4907 53.3129C40.9601 53.3723 40.4753 53.6415 40.1442 54.0604C39.8131 54.4793 39.6633 55.0131 39.7281 55.5431L41.7133 55.3005ZM42.0158 57.7749L40.0305 58.0176C40.1637 59.1073 41.1504 59.8859 42.2411 59.7622C43.3319 59.6385 44.1191 58.6587 44.0049 57.5669L42.0158 57.7749ZM41.7564 55.2956L43.7456 55.0875C43.69 54.5565 43.4245 54.0698 43.0081 53.7357C42.5917 53.4016 42.059 53.2478 41.5286 53.3086L41.7564 55.2956ZM47.6267 53.3743L46.636 51.6369C46.171 51.902 45.8317 52.3425 45.694 52.8598C45.5563 53.3771 45.6317 53.928 45.9034 54.3893L47.6267 53.3743ZM50.372 58.035L51.3865 59.7586C51.8437 59.4895 52.1752 59.0497 52.3082 58.5361C52.4411 58.0225 52.3645 57.4771 52.0952 57.02L50.372 58.035ZM48.7828 63.2265L47.0685 64.2567L47.0685 64.2567L48.7828 63.2265ZM49.016 63.6146L47.3017 64.6447L49.016 63.6146ZM52.7664 65.5422L52.6069 63.5485H52.6069L52.7664 65.5422ZM54.4025 64.9454L55.4024 66.6775L55.4025 66.6775L54.4025 64.9454ZM55.7372 63.827L57.384 64.962L57.384 64.962L55.7372 63.827ZM55.9431 59.6152L57.6924 58.6456L57.6924 58.6456L55.9431 59.6152ZM55.7237 59.2192L53.9744 60.1888L53.9744 60.1888L55.7237 59.2192ZM50.4335 57.9995L48.6928 58.9844C48.9541 59.4461 49.388 59.7851 49.8993 59.9268C50.4105 60.0685 50.957 60.0013 51.4187 59.74L50.4335 57.9995ZM47.7698 53.2916L49.5105 52.3067C49.2469 51.8408 48.8075 51.5 48.2906 51.3606C47.7737 51.2212 47.2225 51.2949 46.7604 51.565L47.7698 53.2916ZM47.698 53.3333L48.6979 55.0654L48.698 55.0654L47.698 53.3333ZM17.3898 19.5296L15.4549 19.0233L15.4549 19.0233L17.3898 19.5296ZM18.2374 18.2373L19.6516 19.6516L18.2374 18.2373ZM18.1337 22.3756L16.695 23.7649L16.695 23.7649L18.1337 22.3756ZM18.3214 22.57L19.7602 21.1808L19.7601 21.1808L18.3214 22.57ZM22.48 22.48L21.0658 21.0658L21.0658 21.0658L22.48 22.48ZM22.5701 18.3214L23.9593 16.8826L23.9593 16.8826L22.5701 18.3214ZM22.3757 18.1336L20.9864 19.5724L20.9864 19.5724L22.3757 18.1336ZM19.5296 17.3897L19.0233 15.4549H19.0233L19.5296 17.3897ZM11.1953 39.9999L9.19534 39.9998V39.9999L11.1953 39.9999ZM11.4962 41.7142L9.68971 42.5723H9.68971L11.4962 41.7142ZM11.4962 38.2856L9.68971 37.4274L9.68971 37.4274L11.4962 38.2856ZM15.0412 36.0005L15.0762 38.0002H15.0762L15.0412 36.0005ZM15.4938 35.9926L15.4588 33.9929L15.4588 33.9929L15.4938 35.9926ZM19.1953 39.9999L21.1953 39.9999L19.1953 39.9999ZM15.4938 44.0072L15.5288 42.0075H15.5287L15.4938 44.0072ZM15.0412 43.9992L15.0063 45.9989H15.0063L15.0412 43.9992ZM7.95191 58.5028C8.30937 59.122 8.89105 60.0278 9.87301 60.6417L11.9935 57.2501C11.8814 57.18 11.7037 57.0011 11.416 56.5028L7.95191 58.5028ZM7.0601 55.7696C7.1008 56.927 7.59445 57.8837 7.95191 58.5028L11.416 56.5028C11.1283 56.0045 11.0623 55.7612 11.0576 55.629L7.0601 55.7696ZM9.96656 50.4125C8.02936 51.5766 6.98604 53.6635 7.0601 55.7696L11.0576 55.629C11.0327 54.9197 11.3841 54.2274 12.0269 53.8411L9.96656 50.4125ZM10.3023 50.2108L9.96657 50.4125L12.0268 53.8411L12.3626 53.6394L10.3023 50.2108ZM18.3442 52.5028C16.8151 49.8544 13.258 48.4347 10.3023 50.2108L12.3626 53.6394C13.0753 53.2111 14.2693 53.4449 14.8801 54.5028L18.3442 52.5028ZM16.3082 60.6134C19.3242 58.9417 19.8733 55.1513 18.3442 52.5028L14.8801 54.5028C15.4909 55.5608 15.0964 56.7117 14.3691 57.1148L16.3082 60.6134ZM15.9656 60.8032L16.3082 60.6134L14.3691 57.1148L14.0266 57.3047L15.9656 60.8032ZM9.87301 60.6417C11.6599 61.759 13.9889 61.8989 15.9656 60.8032L14.0265 57.3047C13.3706 57.6682 12.5954 57.6264 11.9935 57.2501L9.87301 60.6417ZM72.048 58.5027C72.4057 57.8833 72.8995 56.9262 72.94 55.7683L68.9424 55.6286C68.9378 55.7608 68.8718 56.0042 68.5839 56.5028L72.048 58.5027ZM70.1259 60.6424C71.1084 60.0284 71.6904 59.1222 72.048 58.5028L68.5839 56.5028C68.2961 57.0013 68.1183 57.1802 68.0061 57.2503L70.1259 60.6424ZM64.0344 60.8032C66.0107 61.8986 68.3391 61.759 70.1259 60.6424L68.0061 57.2503C67.4043 57.6264 66.6292 57.6681 65.9735 57.3047L64.0344 60.8032ZM63.6917 60.6133L64.0344 60.8032L65.9735 57.3047L65.6308 57.1148L63.6917 60.6133ZM61.6297 52.5483C60.1332 55.1919 60.6925 58.951 63.6917 60.6133L65.6308 57.1148C64.9075 56.7138 64.513 55.5746 65.1107 54.5188L61.6297 52.5483ZM52.2797 49.5565L62.3853 55.2743L64.3551 51.7929L54.2495 46.0751L52.2797 49.5565ZM51.6605 46.5943C51.6215 46.6634 51.5818 46.7322 51.5415 46.8006L54.9878 48.8311C55.04 48.7423 55.0916 48.6531 55.1423 48.5634L51.6605 46.5943ZM64.4209 51.7484L54.4164 45.8556L52.3864 49.3022L62.3909 55.195L64.4209 51.7484ZM69.6977 50.2107C66.7587 48.4446 63.2239 49.8394 61.6825 52.4568L65.1293 54.4866C65.7448 53.4413 66.9285 53.2134 67.6374 53.6393L69.6977 50.2107ZM70.0335 50.4125L69.6976 50.2107L67.6374 53.6393L67.9732 53.8411L70.0335 50.4125ZM72.94 55.7683C73.0136 53.6626 71.9703 51.5764 70.0335 50.4125L67.9732 53.8411C68.6158 54.2273 68.9672 54.9194 68.9424 55.6286L72.94 55.7683ZM54.9809 44.1684L61.3088 44.9964L61.8278 41.0302L55.4999 40.2022L54.9809 44.1684ZM61.8623 41.035L55.5497 40.097L54.9618 44.0536L61.2743 44.9916L61.8623 41.035ZM53.274 41.8059C53.2697 41.8379 53.2652 41.8698 53.2606 41.9017L57.2202 42.4689C57.2261 42.4275 57.2319 42.3861 57.2375 42.3447L53.274 41.8059ZM55.462 38.1568L64.6889 35.5982L63.62 31.7437L54.3931 34.3023L55.462 38.1568ZM62.2271 34.2053C62.9104 36.6695 65.49 38.5176 68.2551 37.7246L67.1524 33.8796C66.9693 33.9321 66.7666 33.9091 66.5593 33.7813C66.3423 33.6476 66.1597 33.4179 66.0817 33.1366L62.2271 34.2053ZM68.2551 37.7246L68.5151 37.6501L67.4124 33.8051L67.1524 33.8796L68.2551 37.7246ZM68.5151 37.6501C70.2544 37.1512 71.5133 35.7882 71.959 34.1665L68.1021 33.1064C68.0111 33.4373 67.7576 33.706 67.4124 33.8051L68.5151 37.6501ZM71.959 34.1665C72.2466 33.1203 72.0284 32.1478 71.8747 31.5743L68.011 32.6095C68.0646 32.8095 68.089 32.9422 68.097 33.0359C68.1046 33.1239 68.0938 33.1366 68.1021 33.1064L71.959 34.1665ZM71.8747 31.5743C71.721 31.0007 71.4237 30.0494 70.6516 29.2871L67.8414 32.1337C67.8192 32.1117 67.8349 32.1173 67.8724 32.1973C67.9122 32.2825 67.9574 32.4096 68.011 32.6095L71.8747 31.5743ZM70.6516 29.2871C69.4547 28.1056 67.683 27.5546 65.9273 27.9923L66.8948 31.8735C67.2433 31.7866 67.5972 31.8926 67.8414 32.1337L70.6516 29.2871ZM65.9273 27.9923L65.6649 28.0577L66.6324 31.9389L66.8948 31.8735L65.9273 27.9923ZM65.6649 28.0577C62.8736 28.7535 61.5636 31.6442 62.2043 34.12L66.0767 33.1179C66.0036 32.8352 66.0469 32.545 66.1679 32.3206C66.2835 32.1063 66.4476 31.985 66.6324 31.9389L65.6649 28.0577ZM63.6397 31.6826L54.3712 34.0799L55.3728 37.9524L64.6413 35.5552L63.6397 31.6826ZM52.9401 36.5337C52.9567 36.5956 52.9728 36.6574 52.9885 36.7194L56.8666 35.7397C56.8463 35.6591 56.8253 35.5787 56.8039 35.4986L52.9401 36.5337ZM53.5967 32.4639L55.5884 30.9647L53.1829 27.7689L51.1912 29.268L53.5967 32.4639ZM53.2109 27.7482L51.1934 29.2124L53.5429 32.4497L55.5604 30.9854L53.2109 27.7482ZM50.7614 32.022C50.7688 32.032 50.7762 32.0421 50.7838 32.0523L54.0041 29.6796C53.9945 29.6666 53.9847 29.6534 53.9749 29.6402L50.7614 32.022ZM49.5103 27.6932L52.1741 22.9852L48.6927 21.0154L46.0289 25.7234L49.5103 27.6932ZM49.4482 23.7408C52.014 25.1932 55.7991 24.77 57.4729 21.7501L53.9743 19.811C53.6138 20.4615 52.5014 20.8727 51.4186 20.2598L49.4482 23.7408ZM57.4729 21.7501L57.6924 21.3541L54.1938 19.415L53.9743 19.811L57.4729 21.7501ZM57.6924 21.3541C58.834 19.2943 58.6344 16.8527 57.3846 15.0386L54.0907 17.308C54.511 17.9181 54.5726 18.7317 54.1938 19.415L57.6924 21.3541ZM57.3846 15.0386C56.7895 14.1749 55.9723 13.6513 55.4024 13.3223L53.4024 16.7864C53.8498 17.0447 54.0193 17.2045 54.0907 17.308L57.3846 15.0386ZM55.4024 13.3223C54.8325 12.9933 53.9706 12.5474 52.925 12.4638L52.6065 16.4512C52.7319 16.4612 52.955 16.5281 53.4024 16.7864L55.4024 13.3223ZM52.925 12.4638C50.729 12.2885 48.5147 13.3364 47.3017 15.355L50.7303 17.4153C51.1327 16.7456 51.868 16.3922 52.6065 16.4512L52.925 12.4638ZM47.3017 15.355L47.0685 15.7431L50.4971 17.8034L50.7303 17.4153L47.3017 15.355ZM47.0685 15.7431C45.2899 18.7028 46.8162 22.1925 49.3573 23.6883L51.3864 20.2412C50.3142 19.61 50.114 18.4409 50.4971 17.8034L47.0685 15.7431ZM48.6486 20.9497L45.9032 25.6106L49.3498 27.6407L52.0951 22.9798L48.6486 20.9497ZM46.6358 28.363C46.6566 28.3749 46.6773 28.3868 46.698 28.3987L48.6981 24.9346C48.6711 24.9191 48.6442 24.9036 48.6172 24.8883L46.6358 28.363ZM46.698 28.3987C46.7189 28.4108 46.7397 28.4228 46.7603 28.4349L48.7789 24.9816C48.7519 24.9658 48.725 24.9502 48.698 24.9346L46.698 28.3987ZM42.1369 24.5872L42.0358 12.9766L38.036 13.0114L38.137 24.622L42.1369 24.5872ZM40.0531 14.9939C43.0905 14.9678 46.0659 12.604 46.006 9.17566L42.0066 9.24563C42.021 10.0725 41.2318 10.9836 40.0187 10.9941L40.0531 14.9939ZM46.006 9.17566L45.9991 8.78378L41.9997 8.85374L42.0066 9.24562L46.006 9.17566ZM45.9991 8.78378C45.9596 6.5253 44.6753 4.57921 42.816 3.5898L40.937 7.12096C41.5632 7.45419 41.9866 8.10436 41.9997 8.85375L45.9991 8.78378ZM42.816 3.5898C41.7925 3.04511 40.7158 2.99414 40 2.99414V6.99414C40.5761 6.99414 40.8201 7.05878 40.937 7.12096L42.816 3.5898ZM40 2.99414C39.2843 2.99414 38.2076 3.04511 37.184 3.58979L39.0631 7.12095C39.1799 7.05878 39.424 6.99414 40 6.99414V2.99414ZM37.184 3.58979C35.3247 4.57919 34.0404 6.5253 34.0009 8.78378L38.0003 8.85375C38.0134 8.10435 38.4369 7.45418 39.0631 7.12095L37.184 3.58979ZM34.0009 8.78377L33.9941 9.17565L37.9935 9.24563L38.0003 8.85375L34.0009 8.78377ZM33.9941 9.17566C33.9341 12.6042 36.9098 14.9681 39.9474 14.9939L39.9815 10.9941C38.7683 10.9837 37.979 10.0725 37.9935 9.24562L33.9941 9.17566ZM37.9645 12.9766L37.8635 24.5872L41.8633 24.622L41.9644 13.0114L37.9645 12.9766ZM39.8811 26.6045C39.9605 26.6038 40.0398 26.6038 40.1192 26.6045L40.1547 22.6047C40.0517 22.6038 39.9487 22.6038 39.8457 22.6047L39.8811 26.6045ZM36.1195 24.9419L33.6726 19.0478L29.9783 20.5814L32.4252 26.4756L36.1195 24.9419ZM29.9653 20.5492L32.3092 26.485L36.0296 25.0159L33.6857 19.0801L29.9653 20.5492ZM34.9271 27.6014C34.9569 27.5892 34.9868 27.5771 35.0166 27.5651L33.5281 23.8524C33.4892 23.868 33.4505 23.8837 33.4118 23.8995L34.9271 27.6014ZM30.5921 27.6101L23.901 21.0345L21.0973 23.8874L27.7884 30.463L30.5921 27.6101ZM21.0789 21.0528L21.06 21.0719L23.9005 23.8882L23.9194 23.8691L21.0789 21.0528ZM21.0721 21.0598L21.053 21.0788L23.8692 23.9193L23.8884 23.9003L21.0721 21.0598ZM21.0346 23.9009L27.6102 30.592L30.4632 27.7882L23.8876 21.0972L21.0346 23.9009ZM30.4609 30.5942C30.5051 30.5494 30.5497 30.5049 30.5945 30.4606L27.786 27.6125C27.7277 27.6699 27.6699 27.7277 27.6125 27.786L30.4609 30.5942ZM26.6752 31.9929L24.381 31.0176L22.8161 34.6988L25.1103 35.6741L26.6752 31.9929ZM22.7842 34.6849L25.061 35.7L26.6898 32.0466L24.4129 31.0315L22.7842 34.6849ZM27.7101 34.6695C27.7152 34.6578 27.7202 34.6462 27.7252 34.6348L24.0603 33.0323C24.0537 33.0473 24.0472 33.0623 24.0407 33.0771L27.7101 34.6695ZM24.5868 37.9172L19.178 37.9643L19.2128 41.9641L24.6216 41.9171L24.5868 37.9172ZM17.1954 39.9726L17.1955 40.0082L21.1955 39.9913L21.1954 39.9558L17.1954 39.9726ZM17.1955 39.9914L17.1954 40.0269L21.1954 40.0437L21.1955 40.0081L17.1955 39.9914ZM19.178 42.0352L24.5868 42.0823L24.6216 38.0825L19.2128 38.0354L19.178 42.0352ZM26.6042 40.0718C26.6041 40.0478 26.604 40.0239 26.604 40H22.604C22.604 40.031 22.6041 40.062 22.6042 40.093L26.6042 40.0718ZM26.604 40C26.604 39.976 26.6041 39.9519 26.6042 39.9279L22.6042 39.9064C22.6041 39.9376 22.604 39.9688 22.604 40H26.604ZM25.5837 45.8558L15.5792 51.7485L17.6093 55.1951L27.6137 49.3023L25.5837 45.8558ZM14.8665 54.4792L14.8845 54.51L18.34 52.4953L18.322 52.4644L14.8665 54.4792ZM14.876 54.4953L14.8937 54.5263L18.3663 52.541L18.3486 52.51L14.876 54.4953ZM17.6149 55.2744L27.7204 49.5567L25.7506 46.0753L15.6451 51.793L17.6149 55.2744ZM28.4586 46.8007C28.4183 46.7323 28.3786 46.6636 28.3396 46.5945L24.8578 48.5636C24.9085 48.6533 24.9601 48.7425 25.0123 48.8313L28.4586 46.8007ZM28.8995 50.8896L25.0186 55.9557L28.1939 58.3883L32.0749 53.3222L28.8995 50.8896ZM28.1725 58.4157L32.1411 53.4179L29.0086 50.9305L25.04 55.9283L28.1725 58.4157ZM31.7989 50.5926C31.7734 50.5729 31.7481 50.5531 31.7228 50.5332L29.2516 53.6786C29.2846 53.7045 29.3176 53.7302 29.3507 53.7559L31.7989 50.5926ZM34.08 54.3712L31.6827 63.6398L35.5553 64.6414L37.9525 55.3728L34.08 54.3712ZM34.1201 62.2044C31.6443 61.5636 28.7536 62.8736 28.0577 65.6649L31.9389 66.6325C31.985 66.4477 32.1063 66.2836 32.3207 66.168C32.545 66.0469 32.8352 66.0036 33.1179 66.0768L34.1201 62.2044ZM28.0577 65.6649L27.9923 65.9273L31.8735 66.8948L31.9389 66.6324L28.0577 65.6649ZM27.9923 65.9272C27.5545 67.6836 28.106 69.4559 29.2884 70.6528L32.134 67.8416C31.8927 67.5974 31.7866 67.2434 31.8735 66.8948L27.9923 65.9272ZM29.2884 70.6528C30.0504 71.4241 31.0011 71.7212 31.5743 71.8748L32.6095 68.0111C32.4097 67.9575 32.2827 67.9124 32.1976 67.8725C32.1176 67.8351 32.112 67.8194 32.134 67.8416L29.2884 70.6528ZM31.5743 71.8748C32.1474 72.0284 33.1193 72.2465 34.165 71.9594L33.1061 68.1021C33.1363 68.0938 33.1236 68.1047 33.0356 68.0971C32.942 68.089 32.8094 68.0646 32.6095 68.0111L31.5743 71.8748ZM34.1649 71.9594C35.7874 71.5141 37.1511 70.255 37.6501 68.515L33.8051 67.4123C33.7061 67.7577 33.4372 68.0112 33.1061 68.1021L34.1649 71.9594ZM37.6501 68.515L37.7246 68.2552L33.8796 67.1525L33.8051 67.4123L37.6501 68.515ZM37.7246 68.2552C38.5176 65.4902 36.6696 62.9106 34.2055 62.2273L33.1366 66.0818C33.4179 66.1598 33.6476 66.3424 33.7813 66.5594C33.9091 66.7667 33.9321 66.9694 33.8796 67.1525L37.7246 68.2552ZM35.5983 64.689L38.157 55.462L34.3024 54.3931L31.7438 63.6201L35.5983 64.689ZM36.7193 52.9884C36.6574 52.9728 36.5954 52.9567 36.5336 52.9401L35.4989 56.804C35.5791 56.8255 35.6595 56.8464 35.74 56.8667L36.7193 52.9884ZM39.7281 55.5431L40.0305 58.0176L44.001 57.5323L43.6985 55.0578L39.7281 55.5431ZM44.0049 57.5669L43.7456 55.0875L39.7673 55.5037L40.0266 57.983L44.0049 57.5669ZM41.5286 53.3086C41.516 53.3101 41.5034 53.3115 41.4907 53.3129L41.9359 57.2881C41.952 57.2863 41.9682 57.2844 41.9843 57.2826L41.5286 53.3086ZM45.9034 54.3893L48.6487 59.05L52.0952 57.02L49.35 52.3592L45.9034 54.3893ZM49.3574 56.3114C46.8163 57.8072 45.29 61.297 47.0685 64.2567L50.4971 62.1964C50.114 61.5589 50.3142 60.3898 51.3865 59.7586L49.3574 56.3114ZM47.0685 64.2567L47.3017 64.6447L50.7303 62.5844L50.4971 62.1964L47.0685 64.2567ZM47.3017 64.6447C48.5149 66.6636 50.7297 67.7116 52.926 67.5358L52.6069 63.5485C51.8682 63.6077 51.1327 63.2542 50.7303 62.5844L47.3017 64.6447ZM52.926 67.5358C53.9712 67.4521 54.8328 67.0064 55.4024 66.6775L53.4025 63.2134C52.9552 63.4716 52.7322 63.5385 52.6069 63.5485L52.926 67.5358ZM55.4025 66.6775C55.9721 66.3486 56.7889 65.8253 57.384 64.962L54.0905 62.692C54.0191 62.7955 53.8497 62.9552 53.4024 63.2134L55.4025 66.6775ZM57.384 64.962C58.6344 63.1478 58.8342 60.7057 57.6924 58.6456L54.1938 60.5847C54.5726 61.2682 54.511 62.0818 54.0905 62.692L57.384 64.962ZM57.6924 58.6456L57.4729 58.2497L53.9744 60.1888L54.1938 60.5847L57.6924 58.6456ZM57.4729 58.2497C55.7991 55.2298 52.0142 54.8066 49.4483 56.2589L51.4187 59.74C52.5014 59.1271 53.6139 59.5383 53.9744 60.1888L57.4729 58.2497ZM52.1742 57.0146L49.5105 52.3067L46.0291 54.2765L48.6928 58.9844L52.1742 57.0146ZM46.7604 51.565C46.7398 51.5771 46.719 51.5892 46.698 51.6013L48.698 55.0654C48.725 55.0498 48.7521 55.0341 48.7792 55.0182L46.7604 51.565ZM46.6981 51.6012C46.6772 51.6133 46.6565 51.6252 46.636 51.6369L48.6174 55.1116C48.6445 55.0962 48.6713 55.0808 48.6979 55.0654L46.6981 51.6012ZM19.3246 20.0359C19.3167 20.0662 19.3137 20.0498 19.3642 19.9774C19.418 19.9004 19.5054 19.7978 19.6516 19.6516L16.8232 16.8231C16.4038 17.2425 15.7293 17.9748 15.4549 19.0233L19.3246 20.0359ZM19.5724 20.9864C19.3228 20.7279 19.2377 20.3682 19.3246 20.0359L15.4549 19.0233C15.0289 20.6513 15.4373 22.4625 16.695 23.7649L19.5724 20.9864ZM19.7601 21.1808L19.5724 20.9864L16.695 23.7649L16.8827 23.9593L19.7601 21.1808ZM21.0658 21.0658C20.858 21.2735 20.5838 21.3836 20.3271 21.3921C20.0816 21.4002 19.8931 21.3184 19.7602 21.1808L16.8827 23.9593C18.8921 26.0403 22.0736 25.7149 23.8942 23.8942L21.0658 21.0658ZM21.1808 19.7601C21.3185 19.893 21.4002 20.0815 21.3921 20.327C21.3836 20.5838 21.2736 20.858 21.0658 21.0658L23.8942 23.8942C25.7149 22.0735 26.0403 18.8921 23.9593 16.8826L21.1808 19.7601ZM20.9864 19.5724L21.1808 19.7601L23.9593 16.8826L23.7649 16.6949L20.9864 19.5724ZM20.0359 19.3246C20.3682 19.2376 20.7279 19.3228 20.9864 19.5724L23.7649 16.6949C22.4625 15.4373 20.6514 15.0289 19.0233 15.4549L20.0359 19.3246ZM19.6516 19.6516C19.7978 19.5053 19.9004 19.418 19.9774 19.3642C20.0498 19.3136 20.0662 19.3167 20.0359 19.3246L19.0233 15.4549C17.9748 15.7292 17.2426 16.4037 16.8232 16.8231L19.6516 19.6516ZM9.19534 39.9999C9.19534 40.6573 9.24005 41.6258 9.68971 42.5723L13.3028 40.856C13.2489 40.7425 13.1953 40.516 13.1953 39.9998L9.19534 39.9999ZM9.68971 37.4274C9.24006 38.3739 9.19534 39.3424 9.19534 39.9998L13.1953 39.9999C13.1953 39.4837 13.2489 39.2572 13.3028 39.1437L9.68971 37.4274ZM15.0063 34.0008C12.6507 34.042 10.6354 35.4367 9.68971 37.4274L13.3028 39.1437C13.6208 38.4742 14.2948 38.0138 15.0762 38.0002L15.0063 34.0008ZM15.4588 33.9929L15.0062 34.0008L15.0762 38.0002L15.5288 37.9922L15.4588 33.9929ZM21.1953 39.9999C21.1953 37.032 18.9308 33.9321 15.4588 33.9929L15.5288 37.9922C16.2764 37.9792 17.1953 38.7474 17.1953 39.9999L21.1953 39.9999ZM15.4588 46.0069C18.9307 46.0676 21.1953 42.9677 21.1953 39.9999L17.1953 39.9999C17.1953 41.2523 16.2764 42.0206 15.5288 42.0075L15.4588 46.0069ZM15.0063 45.9989L15.4588 46.0069L15.5287 42.0075L15.0762 41.9996L15.0063 45.9989ZM9.68971 42.5723C10.6354 44.563 12.6507 45.9577 15.0063 45.9989L15.0762 41.9996C14.2948 41.9859 13.6208 41.5255 13.3028 40.856L9.68971 42.5723Z" fill="#6FCF97" />
  <path d="M32.3019 26.6666C37.0655 23.9164 42.9344 23.9164 47.698 26.6666C52.4615 29.4168 55.396 34.4995 55.396 39.9999C55.396 45.5004 52.4615 50.583 47.698 53.3333C42.9344 56.0835 37.0655 56.0835 32.3019 53.3333C27.5384 50.583 24.6039 45.5004 24.6039 39.9999C24.6039 34.4995 27.5384 29.4168 32.3019 26.6666Z" fill="#219653" stroke="#219653" stroke-width="4" stroke-linecap="round" stroke-linejoin="round" />
  <rect x="31" y="31" width="10" height="10" rx="5" fill="#F2994A" />
  <rect x="45" y="41" width="4" height="4" rx="2" fill="#F2994A" />
</svg>