<svg width="80" height="80" viewBox="0 0 80 80" fill="none" xmlns="http://www.w3.org/2000/svg">
  <path fill-rule="evenodd" clip-rule="evenodd" d="M45.1699 15.1763C44.4199 14.4264 43.4027 14.0051 42.3422 14.0049L24.0004 14.0029C21.7911 14.0027 20 15.7936 20 18.0029L20 62.0025C20 64.2116 21.7909 66.0025 24 66.0025H56C58.2091 66.0025 60 64.2116 60 62.0025L60 31.6607C60 30.5997 59.5785 29.5822 58.8282 28.832L58.6276 28.6315C59.0867 29.1579 58.7174 30.001 58 30.001H48C45.7909 30.001 44 28.2101 44 26.001V16.001C44 15.2909 44.8261 14.9218 45.3534 15.3598L45.1699 15.1763Z" fill="#F2C94C" />
  <path d="M58.5858 28.586L45.4142 15.4145C44.8923 14.8926 44 15.2622 44 16.0002V26.0002C44 28.2094 45.7909 30.0002 48 30.0002L58 30.0002C58.738 30.0002 59.1077 29.1079 58.5858 28.586Z" fill="#F2F2F2" />
  <path d="M12 44.0002H24" stroke="#EB5757" stroke-width="4" stroke-linecap="round" stroke-linejoin="round" />
  <path d="M34 44.0002H46" stroke="#EB5757" stroke-width="4" stroke-linecap="round" stroke-linejoin="round" />
  <path d="M56 44.0002H68" stroke="#EB5757" stroke-width="4" stroke-linecap="round" stroke-linejoin="round" />
</svg>