<svg width="80" height="80" viewBox="0 0 80 80" fill="none" xmlns="http://www.w3.org/2000/svg">
  <path d="M24 72L50.6917 60.059C55.4242 57.9418 55.7829 51.3607 51.3087 48.7417V48.7417C47.0132 46.2272 47.1291 39.9795 51.5149 37.6261L62 32" stroke="#2F80ED" stroke-width="4" stroke-linecap="round" stroke-linejoin="round" />
  <path fill-rule="evenodd" clip-rule="evenodd" d="M30.4496 35.3357C26.3774 33.3575 21.6226 33.3575 17.5504 35.3357C13.517 37.295 10.5929 40.9816 9.60331 45.3551L9.55201 45.5819C8.56722 49.9341 9.53879 54.4993 12.2105 58.0734L13.5674 59.8886C14.1895 60.7208 14.8799 61.4995 15.6315 62.2168L23.6667 69.8846C23.8533 70.0626 24.1468 70.0626 24.3334 69.8846L32.3685 62.2168C33.1201 61.4996 33.8106 60.7208 34.4326 59.8886L35.7896 58.0734C38.4612 54.4993 39.4328 49.9341 38.448 45.5819L38.3967 45.3551C37.4071 40.9816 34.483 37.295 30.4496 35.3357ZM26.8513 41.5401C25.0503 40.6686 22.9496 40.6686 21.1486 41.5401C19.3571 42.407 18.0531 44.0601 17.6122 46.0009C17.1706 47.9449 17.637 50.0107 18.8763 51.5722C20.1156 53.1337 22.0065 54.052 24 54.052C25.9935 54.052 27.8843 53.1337 29.1236 51.5722C30.3629 50.0107 30.8293 47.9449 30.3877 46.0009C29.9469 44.0601 28.6429 42.407 26.8513 41.5401Z" fill="#EB5757" />
  <path d="M17.5504 35.3357L16.6765 33.5367L17.5504 35.3357ZM30.4496 35.3357L31.3235 33.5367V33.5367L30.4496 35.3357ZM9.60331 45.3551L11.554 45.7965L9.60331 45.3551ZM9.55201 45.5819L7.60132 45.1405H7.60132L9.55201 45.5819ZM12.2105 58.0734L13.8124 56.8759L12.2105 58.0734ZM13.5674 59.8886L11.9655 61.0861H11.9655L13.5674 59.8886ZM15.6315 62.2168L14.2508 63.6637H14.2508L15.6315 62.2168ZM23.6667 69.8846L22.2859 71.3315L22.2859 71.3315L23.6667 69.8846ZM24.3334 69.8846L25.7141 71.3315L25.7141 71.3315L24.3334 69.8846ZM32.3685 62.2168L33.7492 63.6637L32.3685 62.2168ZM34.4326 59.8886L32.8307 58.6912L32.8307 58.6912L34.4326 59.8886ZM35.7896 58.0734L34.1877 56.8759L35.7896 58.0734ZM38.448 45.5819L36.4973 46.0232L36.4973 46.0233L38.448 45.5819ZM38.3967 45.3551L40.3474 44.9138L40.3474 44.9137L38.3967 45.3551ZM21.1486 41.5401L20.2774 39.7398L20.2774 39.7398L21.1486 41.5401ZM26.8513 41.5401L27.7225 39.7398V39.7398L26.8513 41.5401ZM17.6122 46.0009L15.6619 45.5579V45.5579L17.6122 46.0009ZM18.8763 51.5722L20.4429 50.3289H20.4429L18.8763 51.5722ZM29.1236 51.5722L30.6902 52.8155L29.1236 51.5722ZM30.3877 46.0009L28.4374 46.4439V46.4439L30.3877 46.0009ZM18.4243 37.1346C21.9448 35.4245 26.0553 35.4245 29.5757 37.1346L31.3235 33.5367C26.6995 31.2905 21.3005 31.2905 16.6765 33.5367L18.4243 37.1346ZM11.554 45.7965C12.4095 42.0156 14.9374 38.8285 18.4243 37.1346L16.6765 33.5367C12.0966 35.7615 8.77633 39.9476 7.65262 44.9138L11.554 45.7965ZM11.5027 46.0233L11.554 45.7965L7.65262 44.9138L7.60132 45.1405L11.5027 46.0233ZM13.8124 56.8759C11.4912 53.7708 10.6471 49.8045 11.5027 46.0233L7.60132 45.1405C6.48733 50.0637 7.58637 55.2279 10.6086 59.2708L13.8124 56.8759ZM15.1693 58.6912L13.8124 56.8759L10.6086 59.2708L11.9655 61.0861L15.1693 58.6912ZM17.0123 60.7699C16.3412 60.1295 15.7247 59.4342 15.1693 58.6912L11.9655 61.0861C12.6542 62.0074 13.4186 62.8696 14.2508 63.6637L17.0123 60.7699ZM25.0474 68.4376L17.0123 60.7699L14.2508 63.6637L22.2859 71.3315L25.0474 68.4376ZM22.9526 68.4376C23.5388 67.8782 24.4612 67.8782 25.0474 68.4376L22.2859 71.3315C23.2453 72.2469 24.7547 72.247 25.7141 71.3315L22.9526 68.4376ZM30.9877 60.7699L22.9526 68.4376L25.7141 71.3315L33.7492 63.6637L30.9877 60.7699ZM32.8307 58.6912C32.2753 59.4342 31.6589 60.1295 30.9877 60.7699L33.7492 63.6637C34.5814 62.8696 35.3458 62.0074 36.0345 61.0861L32.8307 58.6912ZM34.1877 56.8759L32.8307 58.6912L36.0345 61.0861L37.3915 59.2708L34.1877 56.8759ZM36.4973 46.0233C37.3529 49.8045 36.5088 53.7708 34.1877 56.8759L37.3915 59.2708C40.4137 55.2279 41.5127 50.0637 40.3987 45.1405L36.4973 46.0233ZM36.446 45.7965L36.4973 46.0232L40.3987 45.1405L40.3474 44.9138L36.446 45.7965ZM29.5757 37.1346C33.0626 38.8285 35.5905 42.0155 36.446 45.7965L40.3474 44.9137C39.2237 39.9476 35.9034 35.7615 31.3235 33.5367L29.5757 37.1346ZM22.0197 43.3404C23.2705 42.7351 24.7294 42.7351 25.9802 43.3404L27.7225 39.7398C25.3712 38.602 22.6287 38.602 20.2774 39.7398L22.0197 43.3404ZM19.5625 46.4439C19.8701 45.0901 20.7811 43.9397 22.0197 43.3404L20.2774 39.7398C17.933 40.8742 16.2361 43.0302 15.6619 45.5579L19.5625 46.4439ZM20.4429 50.3289C19.5822 49.2444 19.2546 47.7994 19.5625 46.4439L15.6619 45.5579C15.0866 48.0904 15.6918 50.777 17.3097 52.8155L20.4429 50.3289ZM24 52.052C22.6202 52.052 21.3049 51.415 20.4429 50.3289L17.3097 52.8155C18.9263 54.8523 21.3927 56.052 24 56.052V52.052ZM27.5571 50.3289C26.695 51.415 25.3797 52.052 24 52.052V56.052C26.6072 56.052 29.0737 54.8523 30.6902 52.8155L27.5571 50.3289ZM28.4374 46.4439C28.7453 47.7994 28.4177 49.2444 27.5571 50.3289L30.6902 52.8155C32.3081 50.777 32.9133 48.0904 32.338 45.5579L28.4374 46.4439ZM25.9802 43.3404C27.2188 43.9397 28.1299 45.0901 28.4374 46.4439L32.338 45.5579C31.7639 43.0302 30.0669 40.8742 27.7225 39.7398L25.9802 43.3404Z" fill="#EB5757" />
  <path fill-rule="evenodd" clip-rule="evenodd" d="M63.0149 9.99134C60.4562 8.73531 57.46 8.73531 54.9012 9.99134C52.3961 11.2211 50.584 13.5208 49.9742 16.2441L49.9245 16.4658C49.3107 19.2069 49.9179 22.0795 51.5885 24.3378L52.3938 25.4265C52.8118 25.9915 53.2762 26.5207 53.7821 27.0086L58.7497 31.799C58.866 31.9111 59.0501 31.9111 59.1664 31.799L64.1341 27.0086C64.64 26.5207 65.1043 25.9915 65.5223 25.4265L66.3277 24.3378C67.9982 22.0795 68.6054 19.2069 67.9916 16.4658L67.942 16.2441C67.3322 13.5208 65.5201 11.2211 63.0149 9.99134ZM60.7517 13.903C59.62 13.3496 58.2963 13.3496 57.1646 13.903C56.0518 14.4471 55.2463 15.4669 54.9746 16.6754L54.9582 16.7486C54.6851 17.9634 54.9729 19.2366 55.742 20.2158L55.7678 20.2486C56.5368 21.2279 57.713 21.7997 58.9581 21.7997C60.2032 21.7997 61.3794 21.2279 62.1485 20.2486L62.1743 20.2158C62.9433 19.2366 63.2311 17.9634 62.9581 16.7486L62.9416 16.6754C62.67 15.4669 61.8644 14.4471 60.7517 13.903Z" fill="#EB5757" />
  <path d="M54.9012 9.99134L54.0199 8.19599L54.9012 9.99134ZM63.0149 9.99134L63.8962 8.19599L63.0149 9.99134ZM49.9742 16.2441L51.9258 16.6811L49.9742 16.2441ZM49.9245 16.4658L47.9729 16.0287L49.9245 16.4658ZM51.5885 24.3378L49.9806 25.5272L49.9806 25.5272L51.5885 24.3378ZM52.3938 25.4265L54.0017 24.2371L54.0017 24.2371L52.3938 25.4265ZM53.7821 27.0086L55.1704 25.5689L55.1704 25.5689L53.7821 27.0086ZM58.7497 31.799L57.3614 33.2387L57.3615 33.2387L58.7497 31.799ZM59.1664 31.799L60.5547 33.2387L60.5547 33.2387L59.1664 31.799ZM64.1341 27.0086L65.5224 28.4483L65.5224 28.4483L64.1341 27.0086ZM65.5223 25.4265L67.1302 26.6159L67.1302 26.6159L65.5223 25.4265ZM66.3277 24.3378L64.7198 23.1484L64.7198 23.1484L66.3277 24.3378ZM67.9916 16.4658L69.9433 16.0287V16.0287L67.9916 16.4658ZM67.942 16.2441L65.9903 16.6811L67.942 16.2441ZM57.1646 13.903L58.0431 15.6997H58.0431L57.1646 13.903ZM60.7517 13.903L59.8731 15.6997V15.6997L60.7517 13.903ZM54.9746 16.6754L56.9259 17.114L56.9259 17.114L54.9746 16.6754ZM54.9582 16.7486L53.0069 16.31L53.0069 16.31L54.9582 16.7486ZM55.742 20.2158L57.3149 18.9805L57.3149 18.9805L55.742 20.2158ZM55.7678 20.2486L54.1949 21.484L54.1949 21.484L55.7678 20.2486ZM62.1485 20.2486L60.5756 19.0133L60.5756 19.0133L62.1485 20.2486ZM62.1743 20.2158L63.7471 21.4512L63.7471 21.4511L62.1743 20.2158ZM62.9581 16.7486L64.9094 16.31L64.9094 16.31L62.9581 16.7486ZM62.9416 16.6754L60.9903 17.114L60.9903 17.1141L62.9416 16.6754ZM55.7826 11.7867C57.7854 10.8035 60.1307 10.8035 62.1336 11.7867L63.8962 8.19599C60.7816 6.66709 57.1345 6.66709 54.0199 8.19599L55.7826 11.7867ZM51.9258 16.6811C52.4032 14.5494 53.8216 12.7493 55.7826 11.7867L54.0199 8.19599C50.9706 9.69288 48.7648 12.4922 48.0225 15.807L51.9258 16.6811ZM51.8762 16.9028L51.9258 16.6811L48.0225 15.807L47.9729 16.0287L51.8762 16.9028ZM53.1964 23.1484C51.871 21.3567 51.3892 19.0776 51.8762 16.9028L47.9729 16.0287C47.2323 19.3362 47.9649 22.8023 49.9806 25.5272L53.1964 23.1484ZM54.0017 24.2371L53.1964 23.1484L49.9806 25.5272L50.7859 26.6159L54.0017 24.2371ZM55.1704 25.5689C54.7445 25.1582 54.3536 24.7127 54.0017 24.2371L50.7859 26.6159C51.27 27.2703 51.8078 27.8832 52.3938 28.4483L55.1704 25.5689ZM60.138 30.3593L55.1704 25.5689L52.3938 28.4483L57.3614 33.2387L60.138 30.3593ZM57.7781 30.3593C58.4366 29.7243 59.4795 29.7243 60.138 30.3593L57.3615 33.2387C58.2525 34.0979 59.6637 34.0979 60.5547 33.2387L57.7781 30.3593ZM62.7458 25.5689L57.7781 30.3593L60.5547 33.2387L65.5224 28.4483L62.7458 25.5689ZM63.9144 24.2371C63.5626 24.7127 63.1717 25.1582 62.7458 25.5689L65.5224 28.4483C66.1083 27.8832 66.6461 27.2703 67.1302 26.6159L63.9144 24.2371ZM64.7198 23.1484L63.9144 24.2371L67.1302 26.6159L67.9356 25.5272L64.7198 23.1484ZM66.04 16.9028C66.5269 19.0776 66.0452 21.3567 64.7198 23.1484L67.9356 25.5272C69.9513 22.8023 70.6839 19.3362 69.9433 16.0287L66.04 16.9028ZM65.9903 16.6811L66.04 16.9028L69.9433 16.0287L69.8937 15.807L65.9903 16.6811ZM62.1336 11.7867C64.0945 12.7493 65.513 14.5494 65.9903 16.6811L69.8937 15.807C69.1514 12.4922 66.9456 9.69288 63.8962 8.19599L62.1336 11.7867ZM58.0431 15.6997C58.6205 15.4174 59.2958 15.4174 59.8731 15.6997L61.6302 12.1063C59.9442 11.2818 57.972 11.2818 56.286 12.1063L58.0431 15.6997ZM56.9259 17.114C57.0645 16.4975 57.4755 15.9772 58.0431 15.6997L56.286 12.1063C54.6282 12.9169 53.428 14.4363 53.0233 16.2368L56.9259 17.114ZM56.9095 17.1872L56.9259 17.114L53.0233 16.2368L53.0069 16.31L56.9095 17.1872ZM57.3149 18.9805C56.9171 18.474 56.7682 17.8155 56.9095 17.1872L53.0069 16.31C52.6019 18.1113 53.0287 19.9992 54.1691 21.4511L57.3149 18.9805ZM57.3407 19.0133L57.3149 18.9805L54.1691 21.4511L54.1949 21.484L57.3407 19.0133ZM58.9581 19.7997C58.3269 19.7997 57.7306 19.5098 57.3407 19.0133L54.1949 21.484C55.3431 22.946 57.0991 23.7997 58.9581 23.7997V19.7997ZM60.5756 19.0133C60.1857 19.5098 59.5894 19.7997 58.9581 19.7997V23.7997C60.8171 23.7997 62.5731 22.9459 63.7214 21.484L60.5756 19.0133ZM60.6014 18.9805L60.5756 19.0133L63.7214 21.484L63.7471 21.4512L60.6014 18.9805ZM61.0068 17.1872C61.148 17.8155 60.9991 18.474 60.6014 18.9805L63.7471 21.4511C64.8875 19.9992 65.3143 18.1113 64.9094 16.31L61.0068 17.1872ZM60.9903 17.1141L61.0068 17.1872L64.9094 16.31L64.8929 16.2368L60.9903 17.1141ZM59.8731 15.6997C60.4408 15.9772 60.8517 16.4975 60.9903 17.114L64.8929 16.2368C64.4882 14.4363 63.288 12.9169 61.6302 12.1063L59.8731 15.6997Z" fill="#EB5757" />
</svg>