<svg width="80" height="80" viewBox="0 0 80 80" fill="none" xmlns="http://www.w3.org/2000/svg">
  <mask id="mask0" mask-type="alpha" maskUnits="userSpaceOnUse" x="11" y="11" width="58" height="58">
    <path fill-rule="evenodd" clip-rule="evenodd" d="M30.146 12.926C33.3323 11.7663 36.6723 11.1871 40.012 11.1885C43.3437 11.1899 46.6754 11.769 49.8541 12.926C56.2193 15.2427 61.5646 19.728 64.9514 25.5942C68.3383 31.4603 69.55 38.3322 68.3737 45.0029C67.7839 48.3478 66.6126 51.535 64.9371 54.4304C63.2712 57.3092 61.1067 59.8999 58.5197 62.0707C53.34 66.4169 46.7558 68.7996 40.0044 68.8113L40.0001 68.8113C33.2264 68.8113 26.6693 66.4247 21.4804 62.0707C18.9147 59.9177 16.7645 57.3517 15.1041 54.5012C13.4067 51.587 12.221 48.3751 11.6264 45.0029C10.4501 38.3322 11.6618 31.4603 15.0487 25.5942C18.4355 19.728 23.7808 15.2427 30.146 12.926ZM37.511 16.3189C35.593 16.5205 33.6937 16.9557 31.8561 17.6245C26.5956 19.5392 22.1778 23.2461 19.3788 28.0942C16.5797 32.9423 15.5783 38.6216 16.5504 44.1347C16.895 46.0889 17.4797 47.9779 18.282 49.7626L37.511 38.6101V16.3189ZM42.511 16.3212V38.606L61.7462 49.6999C62.5341 47.9336 63.1091 46.066 63.4497 44.1347C64.4218 38.6216 63.4204 32.9423 60.6213 28.0942C57.8223 23.2461 53.4045 19.5392 48.144 17.6245C46.3134 16.9582 44.4216 16.5238 42.511 16.3212ZM59.2412 54.0271L42.5092 44.377L42.5012 63.6751C47.194 63.172 51.6734 61.2883 55.3057 58.2405C56.7938 56.9918 58.1126 55.5752 59.2412 54.0271ZM37.5011 63.6798L37.5092 44.3913L20.7995 54.0826C21.9191 55.6091 23.2242 57.0068 24.6944 58.2405C28.3408 61.3002 32.8048 63.1843 37.5011 63.6798Z" fill="#333333" />
  </mask>
  <g mask="url(#mask0)">
    <path d="M40 72C32.4767 72 25.194 69.3493 19.4308 64.5134L40 40L40 72Z" fill="#EB5757" />
    <path d="M19.4308 64.5134C13.6676 59.6775 9.79255 52.9657 8.48615 45.5567L40 40L19.4308 64.5134Z" fill="#F2994A" />
    <path d="M8.48616 45.5567C7.17975 38.1477 8.52555 30.5153 12.2872 24L40 40L8.48616 45.5567Z" fill="#F2C94C" />
    <path d="M12.2872 24C16.0488 17.4846 21.9858 12.5029 29.0554 9.92983L40 40L12.2872 24Z" fill="#219653" />
    <path d="M29.0554 9.92983C36.1249 7.35672 43.8751 7.35672 50.9447 9.92984L40 40L29.0554 9.92983Z" fill="#27AE60" />
    <path d="M50.9446 9.92984C58.0142 12.503 63.9512 17.4847 67.7128 24L40 40L50.9446 9.92984Z" fill="#2F80ED" />
    <path d="M67.7128 24C71.4745 30.5154 72.8203 38.1478 71.5138 45.5568L40 40L67.7128 24Z" fill="#2D9CDB" />
    <path d="M71.5138 45.5567C70.2074 52.9657 66.3324 59.6776 60.5692 64.5134L40 40L71.5138 45.5567Z" fill="#9B51E0" />
    <path d="M60.5692 64.5134C54.806 69.3493 47.5233 72 40 72L40 40L60.5692 64.5134Z" fill="#BB6BD9" />
  </g>
</svg>