<svg width="80" height="80" viewBox="0 0 80 80" fill="none" xmlns="http://www.w3.org/2000/svg">
  <path fill-rule="evenodd" clip-rule="evenodd" d="M56.8143 16.2961L51.271 14L47.1289 24H53.6233L56.8143 16.2961Z" fill="#4F4F4F" />
  <path d="M51.271 14L52.0364 12.1522C51.5464 11.9493 50.9957 11.9493 50.5057 12.1522C50.0156 12.3552 49.6263 12.7446 49.4233 13.2346L51.271 14ZM56.8143 16.2961L58.6621 17.0615C59.0848 16.041 58.6002 14.871 57.5797 14.4483L56.8143 16.2961ZM47.1289 24L45.2811 23.2346C45.0255 23.8518 45.0949 24.5557 45.466 25.1111C45.8371 25.6665 46.4609 26 47.1289 26V24ZM53.6233 24V26C54.4322 26 55.1615 25.5127 55.471 24.7654L53.6233 24ZM50.5057 15.8478L56.049 18.1439L57.5797 14.4483L52.0364 12.1522L50.5057 15.8478ZM48.9767 24.7654L53.1188 14.7654L49.4233 13.2346L45.2811 23.2346L48.9767 24.7654ZM47.1289 26H53.6233V22H47.1289V26ZM54.9666 15.5307L51.7755 23.2346L55.471 24.7654L58.6621 17.0615L54.9666 15.5307Z" fill="#4F4F4F" />
  <path fill-rule="evenodd" clip-rule="evenodd" d="M63 24H17V33.0103L22.9949 45L17 56.9897V66H63V57.0002L57 45.0002L63 33.0002V24Z" fill="#F2F2F2" />
  <path d="M17 24V22C15.8954 22 15 22.8954 15 24H17ZM63 24H65C65 22.8954 64.1046 22 63 22V24ZM17 33.0103H15C15 33.3207 15.0723 33.627 15.2111 33.9047L17 33.0103ZM22.9949 45L24.7837 45.8944C25.0653 45.3314 25.0653 44.6686 24.7837 44.1056L22.9949 45ZM17 56.9897L15.2111 56.0953C15.0723 56.373 15 56.6793 15 56.9897H17ZM17 66H15C15 67.1046 15.8954 68 17 68V66ZM63 66V68C64.1046 68 65 67.1046 65 66H63ZM63 57.0002H65C65 56.6897 64.9277 56.3835 64.7889 56.1058L63 57.0002ZM57 45.0002L55.2111 44.1058C54.9296 44.6689 54.9296 45.3316 55.2111 45.8947L57 45.0002ZM63 33.0002L64.7889 33.8947C64.9277 33.6169 65 33.3107 65 33.0002H63ZM49.6922 47.0001C50.7967 47.0001 51.6922 46.1046 51.6922 45.0001C51.6922 43.8955 50.7967 43.0001 49.6922 43.0001V47.0001ZM30.3075 43.0001C29.203 43.0001 28.3075 43.8955 28.3075 45.0001C28.3075 46.1046 29.203 47.0001 30.3075 47.0001V43.0001ZM40 41.7693L42 41.7693V41.7693H40ZM40 42.0385L38 42.0385V42.0385H40ZM42 35.3078C42 34.2032 41.1045 33.3078 40 33.3078C38.8954 33.3078 38 34.2032 38 35.3078H42ZM38 54.6924C38 55.797 38.8954 56.6924 40 56.6924C41.1045 56.6924 42 55.797 42 54.6924H38ZM17 26H63V22H17V26ZM19 33.0103V24H15V33.0103H19ZM24.7837 44.1056L18.7889 32.1158L15.2111 33.9047L21.206 45.8944L24.7837 44.1056ZM18.7889 57.8842L24.7837 45.8944L21.206 44.1056L15.2111 56.0953L18.7889 57.8842ZM19 66V56.9897H15V66H19ZM63 64H17V68H63V64ZM61 57.0002V66H65V57.0002H61ZM55.2111 45.8947L61.2111 57.8947L64.7889 56.1058L58.7889 44.1058L55.2111 45.8947ZM61.2111 32.1058L55.2111 44.1058L58.7889 45.8947L64.7889 33.8947L61.2111 32.1058ZM61 24V33.0002H65V24H61ZM44.5768 47.0001H44.846V43.0001H44.5768V47.0001ZM44.3075 47.0001H44.5768V43.0001H44.3075V47.0001ZM44.0383 47.0001H44.3075V43.0001H44.0383V47.0001ZM43.7691 47.0001H44.0383V43.0001H43.7691V47.0001ZM43.4999 47.0001H43.7691V43.0001H43.4999V47.0001ZM43.2306 47.0001H43.4999V43.0001H43.2306V47.0001ZM44.846 47.0001H45.1152V43.0001H44.846V47.0001ZM45.1152 47.0001H45.3845V43.0001H45.1152V47.0001ZM45.3845 47.0001H45.6537V43.0001H45.3845V47.0001ZM45.6537 47.0001H45.9229V43.0001H45.6537V47.0001ZM45.9229 47.0001H49.6922V43.0001H45.9229V47.0001ZM42.9614 47.0001H43.2306V43.0001H42.9614V47.0001ZM39.9999 47.0001H42.6922V43.0001H39.9999V47.0001ZM42.6922 47.0001H42.9614V43.0001H42.6922V47.0001ZM30.3075 47.0001H35.1537V43.0001H30.3075V47.0001ZM38.3845 47.0001H39.9999V43.0001H38.3845V47.0001ZM37.846 47.0001H38.1152V43.0001H37.846V47.0001ZM38.1152 47.0001H38.3845V43.0001H38.1152V47.0001ZM37.3075 47.0001H37.5768V43.0001H37.3075V47.0001ZM37.5768 47.0001H37.846V43.0001H37.5768V47.0001ZM36.8289 47.0001H37.0682V43.0001H36.8289V47.0001ZM37.0682 47.0001H37.3075V43.0001H37.0682V47.0001ZM36.2783 47.0001H36.5536V43.0001H36.2783V47.0001ZM36.5536 47.0001H36.8289V43.0001H36.5536V47.0001ZM35.6922 47.0001H35.9852V43.0001H35.6922V47.0001ZM35.9852 47.0001H36.2783V43.0001H35.9852V47.0001ZM35.1537 47.0001H35.4229V43.0001H35.1537V47.0001ZM35.4229 47.0001H35.6922V43.0001H35.4229V47.0001ZM42 41.5001V41.2308H38V41.5001H42ZM42 41.7693V41.5001H38V41.7693H42ZM42 42.0386L42 41.7693L38 41.7693L38 42.0385L42 42.0386ZM42 45.0001V42.3078H38V45.0001H42ZM42 42.3078V42.0385H38V42.3078H42ZM42 46.6155V45.0001H38V46.6155H42ZM42 47.1539V46.8847H38V47.1539H42ZM42 46.8847V46.6155H38V46.8847H42ZM42 47.6924V47.4232H38V47.6924H42ZM42 47.4232V47.1539H38V47.4232H42ZM42 39.077V38.8078H38V39.077H42ZM42 38.8078V38.5385H38V38.8078H42ZM42 38.5385V38.2693H38V38.5385H42ZM42 38.2693V38.0001H38V38.2693H42ZM42 38.0001V37.7308H38V38.0001H42ZM42 37.7308V37.4616H38V37.7308H42ZM42 37.4616V37.1924H38V37.4616H42ZM42 37.1924V36.9232H38V37.1924H42ZM42 36.9232V35.3078H38V36.9232H42ZM42 50.1155V49.8462H38V50.1155H42ZM42 50.3847V50.1155H38V50.3847H42ZM42 50.6539V50.3847H38V50.6539H42ZM42 50.9232V50.6539H38V50.9232H42ZM42 51.1924V50.9232H38V51.1924H42ZM42 51.4616V51.1924H38V51.4616H42ZM42 51.7308V51.4616H38V51.7308H42ZM42 54.6924V52.0001H38V54.6924H42ZM42 52.0001V51.7308H38V52.0001H42ZM42 41.2308V41.0962H38V41.2308H42ZM42 41.0962V40.9616H38V41.0962H42ZM42 40.9616V40.827H38V40.9616H42ZM42 40.827V40.6924H38V40.827H42ZM42 40.6924V40.5578H38V40.6924H42ZM42 40.5578V40.4232H38V40.5578H42ZM42 40.4232V40.2885H38V40.4232H42ZM42 40.2885V40.1539H38V40.2885H42ZM42 47.9317V47.812H38V47.9317H42ZM42 47.812V47.6924H38V47.812H42ZM38 47.9317V48.0514H42V47.9317H38ZM38 48.0514V48.171H42V48.0514H38ZM38 48.171V48.3087H42V48.171H38ZM38 48.3087V48.4463H42V48.3087H38ZM42 48.7216V48.584H38V48.7216H42ZM42 48.584V48.4463H38V48.584H42ZM42 49.0147V48.8681H38V49.0147H42ZM42 48.8681V48.7216H38V48.8681H42ZM38 49.0147V49.1612H42V49.0147H38ZM38 49.1612V49.3078H42V49.1612H38ZM38 49.3078V49.4424H42V49.3078H38ZM38 49.4424V49.577H42V49.4424H38ZM42 49.8462V49.7116H38V49.8462H42ZM42 49.7116V49.577H38V49.7116H42ZM42 40.1539V40.0193H38V40.1539H42ZM42 40.0193V39.8847H38V40.0193H42ZM42 39.8847V39.7501H38V39.8847H42ZM42 39.7501V39.6155H38V39.7501H42ZM42 39.6155V39.4808H38V39.6155H42ZM42 39.4808V39.3462H38V39.4808H42ZM42 39.3462V39.2116H38V39.3462H42ZM42 39.2116V39.077H38V39.2116H42Z" fill="#E0E0E0" />
  <path fill-rule="evenodd" clip-rule="evenodd" d="M37 54.6922V55.6922C37 56.7968 37.8955 57.6922 39 57.6922H41C42.1046 57.6922 43 56.7968 43 55.6922V54.6922V51.9999V51.7307V51.4615V51.1922V50.923V50.6538V50.3845V50.1153V49.8461V49.7115V49.5768V49.4422V49.3076V49.1611V49.0145V48.868V48.7215V48.5838V48.4462V48.3085V48.1709V48.0512C43 48.0229 43.023 47.9999 43.0513 47.9999H43.2307H43.4999H43.7692H44.0384H44.3076H44.5768H44.8461H45.1153H45.3845H45.6538H45.923H49.6922H50.6922C51.7968 47.9999 52.6922 47.1045 52.6922 45.9999V43.9999C52.6922 42.8954 51.7968 41.9999 50.6922 41.9999H49.6922H45.923H45.6538H45.3845H45.1153H44.8461H44.5768H44.3076H44.0384H43.7692H43.4999H43.2307C43.1033 41.9999 43 41.8965 43 41.7692V41.4999V41.2307V41.0961V40.9615V40.8268V40.6922V40.5576V40.423V40.2884V40.1538V40.0192V39.8845V39.7499V39.6153V39.4807V39.3461V39.2115V39.0768V38.8076V38.5384V38.2692V37.9999V37.7307V37.4615L43 37.1922V36.923L43 35.3076V34.3076C43 33.2031 42.1046 32.3076 41 32.3076L39 32.3076C37.8955 32.3076 37 33.203 37 34.3076V35.3076L37 36.923V37.1922L37 37.4615V37.7307V37.9999V38.2692V38.5384V38.8076V39.0768V39.2115V39.3461V39.4807V39.6153V39.7499V39.8845V40.0192V40.1538V40.2884V40.423V40.5576V40.6922V40.8268V40.9615V41.0961V41.2307V41.4999V41.7692V41.8289C37 41.9233 36.9235 41.9999 36.829 41.9999H36.5537H36.2784H35.9853H35.6922H35.423H35.1538H30.3076H29.3076C28.203 41.9999 27.3076 42.8954 27.3076 43.9999L27.3076 45.9999C27.3076 47.1045 28.203 47.9999 29.3076 47.9999H30.3076L35.1538 47.9999H35.423H35.6922H35.9853H36.2784H36.5537H36.829H36.9488C36.9771 47.9999 37 48.0229 37 48.0512V48.1709V48.3085L37 48.4462V48.5838V48.7214V48.868V49.0145V49.1611V49.3076V49.4422V49.5768V49.7115V49.8461V50.1153V50.3845V50.6538V50.923V51.1922V51.4615V51.7307V51.9999V54.6922Z" fill="#EB5757" />
</svg>