<svg width="80" height="80" viewBox="0 0 80 80" fill="none" xmlns="http://www.w3.org/2000/svg">
  <path d="M20 26H60" stroke="#C2CCDE" stroke-width="4" stroke-linecap="round" stroke-linejoin="round" />
  <path d="M17 54L31 26" stroke="#C2CCDE" stroke-width="4" stroke-linecap="round" stroke-linejoin="round" />
  <path d="M13 43L67 43" stroke="#C2CCDE" stroke-width="4" stroke-linecap="round" stroke-linejoin="round" />
  <path d="M63 54L49 26" stroke="#C2CCDE" stroke-width="4" stroke-linecap="round" stroke-linejoin="round" />
</svg>