<svg width="80" height="80" viewBox="0 0 80 80" fill="none" xmlns="http://www.w3.org/2000/svg">
  <path d="M40 12L43.135 12.1761L46.2306 12.702L49.2478 13.5713L52.1487 14.7729L54.8969 16.2917L57.4577 18.1087L59.799 20.201L61.8913 22.5423L63.7083 25.1031L65.2271 27.8513L66.4287 30.7522L67.298 33.7694L67.8239 36.865L68 40L67.8239 43.135L67.298 46.2306L66.4287 49.2478L65.2271 52.1487L63.7083 54.8969L61.8913 57.4577L59.799 59.799L57.4577 61.8913L54.8969 63.7083L52.1487 65.2271L49.2478 66.4287L46.2306 67.298L43.135 67.8239L40 68L36.865 67.8239L33.7694 67.298L30.7522 66.4287L27.8513 65.2271L25.1031 63.7083L22.5423 61.8913L20.201 59.799L18.1087 57.4577L16.2917 54.8969L14.7729 52.1487L13.5713 49.2478L12.702 46.2306L12.1761 43.135L12 40L12.1761 36.865L12.702 33.7694L13.5713 30.7522L14.7729 27.8513L16.2917 25.1031L18.1087 22.5423L20.201 20.201L22.5423 18.1087L25.1031 16.2917L27.8513 14.7729L30.7522 13.5713L33.7694 12.702L36.865 12.1761L40 12Z" fill="#EB5757" />
  <path d="M40 32L40.8957 32.0503L41.7802 32.2006L42.6422 32.4489L43.4711 32.7922L44.2563 33.2262L44.9879 33.7453L45.6569 34.3431L46.2547 35.0121L46.7738 35.7437L47.2078 36.5289L47.5511 37.3578L47.7994 38.2198L47.9497 39.1043L48 40L47.9497 40.8957L47.7994 41.7802L47.5511 42.6422L47.2078 43.4711L46.7738 44.2563L46.2547 44.9879L45.6569 45.6569L44.9879 46.2547L44.2563 46.7738L43.4711 47.2078L42.6422 47.5511L41.7802 47.7994L40.8957 47.9497L40 48L39.1043 47.9497L38.2198 47.7994L37.3578 47.5511L36.5289 47.2078L35.7437 46.7738L35.0121 46.2547L34.3431 45.6569L33.7453 44.9879L33.2262 44.2563L32.7922 43.4711L32.4489 42.6422L32.2006 41.7802L32.0503 40.8957L32 40L32.0503 39.1043L32.2006 38.2198L32.4489 37.3578L32.7922 36.5289L33.2262 35.7437L33.7453 35.0121L34.3431 34.3431L35.0121 33.7453L35.7437 33.2262L36.5289 32.7922L37.3578 32.4489L38.2198 32.2006L39.1043 32.0503L40 32Z" fill="#F2F2F2" />
</svg>