<svg width="80" height="80" viewBox="0 0 80 80" fill="none" xmlns="http://www.w3.org/2000/svg">
  <path d="M29.0544 17.2712C35.9714 13.9402 44.0288 13.9402 50.9457 17.2712C57.8627 20.6022 62.8863 26.9018 64.5947 34.3865C66.303 41.8713 64.5101 49.7266 59.7234 55.7289C54.9367 61.7312 47.6773 65.2272 40.0001 65.2272C32.3228 65.2272 25.0634 61.7312 20.2767 55.7289C15.49 49.7266 13.6971 41.8713 15.4054 34.3865C17.1138 26.9018 22.1375 20.6022 29.0544 17.2712Z" fill="#F2C94C" />
  <path d="M50.6066 50.6066C47.7936 53.4196 43.9782 55 40 55C36.0218 55 32.2064 53.4196 29.3934 50.6066" stroke="#333333" stroke-width="4" stroke-linecap="round" stroke-linejoin="round" />
  <path d="M35.9497 34.6569C35.2997 35.3997 34.5281 35.989 33.6788 36.391C32.8295 36.7931 31.9193 37 31 37C30.0807 37 29.1705 36.7931 28.3212 36.391C27.4719 35.989 26.7003 35.3997 26.0503 34.6569" stroke="#4F4F4F" stroke-width="4" stroke-linecap="round" stroke-linejoin="round" />
  <path d="M53.9497 34.6569C53.2997 35.3997 52.5281 35.989 51.6788 36.391C50.8295 36.7931 49.9193 37 49 37C48.0807 37 47.1705 36.7931 46.3212 36.391C45.4719 35.989 44.7003 35.3997 44.0503 34.6569" stroke="#4F4F4F" stroke-width="4" stroke-linecap="round" stroke-linejoin="round" />
</svg>