<svg width="80" height="80" viewBox="0 0 80 80" fill="none" xmlns="http://www.w3.org/2000/svg">
  <path fill-rule="evenodd" clip-rule="evenodd" d="M31.9996 39.9999H20.0002C17.6929 39.9999 15.864 41.9466 16.0079 44.2494L17.5079 68.2494C17.6397 70.3575 19.3879 71.9999 21.5002 71.9999H57.9846C60.0968 71.9999 61.845 70.3575 61.9768 68.2494L63.4768 44.2494C63.6207 41.9466 61.7918 39.9999 59.4846 39.9999H47.9996V46C47.9996 49.3137 45.3133 52 41.9996 52H37.9996C34.6859 52 31.9996 49.3137 31.9996 46V39.9999Z" fill="#2F80ED" />
  <path fill-rule="evenodd" clip-rule="evenodd" d="M16.0079 44.2494C16.0038 44.1827 16.0013 44.1162 16.0004 44.0501C11.6887 44.5323 8.47443 48.4275 8.94851 52.8522L10.2342 64.8522C10.6698 68.9174 14.1003 72 18.1887 72H61.8114C65.8998 72 69.3303 68.9174 69.7659 64.8523L71.0516 52.8522C71.5444 48.253 68.0521 44.2259 63.4847 44.0092C63.4844 44.0888 63.4818 44.1689 63.4768 44.2494L61.9768 68.2494C61.845 70.3576 60.0968 71.9999 57.9846 71.9999H21.5002C19.3879 71.9999 17.6397 70.3576 17.5079 68.2494L16.0079 44.2494Z" fill="#EB5757" />
  <rect x="15.9995" y="12" width="48" height="20" rx="4" fill="#F2994A" />
  <path fill-rule="evenodd" clip-rule="evenodd" d="M32.3409 12H47.6581C46.8344 9.66962 44.6119 8 41.9995 8H37.9995C35.3871 8 33.1646 9.66962 32.3409 12ZM47.9995 32H31.9995V46C31.9995 49.3137 34.6858 52 37.9995 52H41.9995C45.3132 52 47.9995 49.3137 47.9995 46V32Z" fill="#F2C94C" />
  <rect x="31.9995" y="14" width="16" height="16" rx="8" fill="#56CCF2" />
  <path d="M39.9995 22V22.01" stroke="#2F80ED" stroke-width="6" stroke-linecap="round" stroke-linejoin="round" />
</svg>