<svg width="80" height="80" viewBox="0 0 80 80" fill="none" xmlns="http://www.w3.org/2000/svg">
  <rect x="8" y="49" width="24" height="10" fill="#2F80ED" stroke="#2F80ED" stroke-width="2" stroke-linecap="round" stroke-linejoin="round" />
  <rect width="24" height="10" transform="matrix(-1 0 0 1 72 49)" fill="#2F80ED" stroke="#2F80ED" stroke-width="2" stroke-linecap="round" stroke-linejoin="round" />
  <rect x="32" y="46" width="16" height="16" fill="#F2994A" stroke="#F2994A" stroke-width="2" stroke-linecap="round" stroke-linejoin="round" />
  <path d="M38 62H42V64C42 65.1046 41.1046 66 40 66C38.8954 66 38 65.1046 38 64V62Z" fill="#F2994A" stroke="#F2994A" stroke-width="4" stroke-linecap="round" stroke-linejoin="round" />
  <path fill-rule="evenodd" clip-rule="evenodd" d="M47.5972 36C50.178 36 52.0737 38.4742 50.569 40.571C48.2099 43.8585 44.3551 46 40 46C35.6449 46 31.79 43.8585 29.4309 40.571C27.9262 38.4742 29.822 36 32.4028 36H47.5972Z" fill="#F2C94C" />
  <path d="M40 45C44.0193 45 47.5773 43.025 49.7566 39.988L51.3815 41.1541C48.8426 44.692 44.6908 47 40 47V45ZM30.2434 39.988C32.4227 43.025 35.9807 45 40 45V47C35.3091 47 31.1573 44.692 28.6185 41.1541L30.2434 39.988ZM32.4028 35H47.5972V37H32.4028V35ZM28.6185 41.1541C27.6001 39.7349 27.7335 38.1301 28.5621 36.9308C29.3657 35.7676 30.7991 35 32.4028 35V37C31.4257 37 30.6208 37.4695 30.2075 38.0676C29.8192 38.6297 29.7571 39.3104 30.2434 39.988L28.6185 41.1541ZM49.7566 39.988C50.2429 39.3104 50.1808 38.6297 49.7925 38.0676C49.3792 37.4695 48.5743 37 47.5972 37V35C49.2009 35 50.6343 35.7676 51.4379 36.9308C52.2665 38.1301 52.3999 39.7349 51.3815 41.1541L49.7566 39.988Z" fill="#F2C94C" />
  <path d="M46.9282 28C46.2261 26.7838 45.2162 25.7739 44 25.0718C42.7838 24.3696 41.4043 24 40 24C38.5957 24 37.2162 24.3697 36 25.0718C34.7838 25.7739 33.7739 26.7838 33.0718 28" stroke="#F2C94C" stroke-width="4" stroke-linecap="round" stroke-linejoin="round" />
  <path d="M55.5885 23C54.0086 20.2637 51.7363 17.9914 49 16.4115C46.2637 14.8317 43.1597 14 40 14C36.8403 14 33.7363 14.8317 31 16.4115C28.2637 17.9914 25.9914 20.2637 24.4115 23" stroke="#F2C94C" stroke-width="4" stroke-linecap="round" stroke-linejoin="round" />
</svg>