<svg width="80" height="80" viewBox="0 0 80 80" fill="none" xmlns="http://www.w3.org/2000/svg">
  <path fill-rule="evenodd" clip-rule="evenodd" d="M40.0003 70.2389C38.2027 69.3957 36.4563 68.4316 34.7737 67.3503C27.5059 62.6795 21.7338 56.0182 18.1449 48.1596C14.556 40.3011 13.3016 31.5766 14.5311 23.0253C14.7806 21.2904 15.1301 19.5775 15.5761 17.8946L39.9999 10L64.4246 17.8949C64.8706 19.5777 65.2201 21.2905 65.4695 23.0253C66.699 31.5766 65.4446 40.3011 61.8557 48.1596C58.2668 56.0182 52.4948 62.6795 45.2269 67.3503C43.5443 68.4316 41.7979 69.3957 40.0003 70.2389Z" fill="#2F80ED" />
  <path d="M40.0003 70.2389L39.151 72.0496C39.6891 72.302 40.3115 72.302 40.8496 72.0496L40.0003 70.2389ZM34.7737 67.3503L35.855 65.6678L34.7737 67.3503ZM18.1449 48.1596L19.9642 47.3288L18.1449 48.1596ZM14.5311 23.0253L12.5515 22.7406L14.5311 23.0253ZM15.5761 17.8946L14.9609 15.9915C14.3136 16.2007 13.8171 16.7246 13.6428 17.3822L15.5761 17.8946ZM39.9999 10L40.615 8.09695C40.2151 7.96768 39.7846 7.96768 39.3847 8.09695L39.9999 10ZM64.4246 17.8949L66.3579 17.3826C66.1836 16.725 65.6871 16.201 65.0397 15.9918L64.4246 17.8949ZM65.4695 23.0253L67.4491 22.7406L67.4491 22.7406L65.4695 23.0253ZM61.8557 48.1596L60.0365 47.3288L61.8557 48.1596ZM45.2269 67.3503L44.1457 65.6678L45.2269 67.3503ZM40.8496 68.4282C39.1318 67.6225 37.4629 66.7011 35.855 65.6678L33.6924 69.0328C35.4497 70.1621 37.2736 71.169 39.151 72.0496L40.8496 68.4282ZM35.855 65.6678C28.9097 61.2043 23.3938 54.8386 19.9642 47.3288L16.3256 48.9905C20.0738 57.1978 26.102 64.1548 33.6924 69.0328L35.855 65.6678ZM19.9642 47.3288C16.5346 39.819 15.3358 31.4817 16.5108 23.3099L12.5515 22.7406C11.2674 31.6714 12.5775 40.7832 16.3256 48.9905L19.9642 47.3288ZM16.5108 23.3099C16.7491 21.652 17.0831 20.0151 17.5093 18.4069L13.6428 17.3822C13.177 19.1399 12.812 20.9288 12.5515 22.7406L16.5108 23.3099ZM16.1912 19.7976L40.615 11.9031L39.3847 8.09695L14.9609 15.9915L16.1912 19.7976ZM39.3847 11.9031L63.8095 19.7979L65.0397 15.9918L40.615 8.09695L39.3847 11.9031ZM62.4914 18.4072C62.9175 20.0153 63.2515 21.6521 63.4899 23.3099L67.4491 22.7406C67.1887 20.9289 66.8236 19.1401 66.3579 17.3826L62.4914 18.4072ZM63.4899 23.3099C64.6648 31.4817 63.4661 39.819 60.0365 47.3288L63.675 48.9905C67.4231 40.7832 68.7332 31.6714 67.4491 22.7406L63.4899 23.3099ZM60.0365 47.3288C56.6069 54.8386 51.0909 61.2043 44.1457 65.6678L46.3082 69.0328C53.8986 64.1547 59.9268 57.1978 63.675 48.9905L60.0365 47.3288ZM44.1457 65.6678C42.5377 66.7011 40.8688 67.6225 39.151 68.4282L40.8496 72.0496C42.7271 71.169 44.5509 70.1621 46.3082 69.0328L44.1457 65.6678Z" fill="#2F80ED" />
  <path fill-rule="evenodd" clip-rule="evenodd" d="M40.0002 58.8696C38.8414 58.3287 37.7165 57.7105 36.6346 57.0177C31.9779 54.0353 28.2566 49.7599 25.9528 44.7328C23.646 39.6991 22.8371 34.1015 23.6278 28.6211C23.7879 27.5116 24.0125 26.4157 24.2991 25.3386L40 20.2813L55.7014 25.3388C55.988 26.4158 56.2126 27.5116 56.3727 28.6211C57.1634 34.1015 56.3545 39.6991 54.0476 44.7328C51.7438 49.7599 48.0226 54.0353 43.3659 57.0177C42.284 57.7105 41.1591 58.3287 40.0002 58.8696Z" fill="#56CCF2" />
  <path d="M40.0002 58.8696L39.1544 60.6819C39.6905 60.9322 40.31 60.9322 40.8461 60.6819L40.0002 58.8696ZM36.6346 57.0177L35.556 58.7019H35.556L36.6346 57.0177ZM25.9528 44.7328L27.771 43.8995L25.9528 44.7328ZM23.6278 28.6211L21.6483 28.3355L23.6278 28.6211ZM24.2991 25.3386L23.6859 23.435C23.0384 23.6435 22.5413 24.1669 22.3664 24.8243L24.2991 25.3386ZM40 20.2813L40.6132 18.3776C40.2144 18.2491 39.7855 18.2491 39.3868 18.3776L40 20.2813ZM55.7014 25.3388L57.6342 24.8245C57.4592 24.1671 56.9621 23.6437 56.3146 23.4352L55.7014 25.3388ZM56.3727 28.6211L58.3522 28.3355V28.3355L56.3727 28.6211ZM54.0476 44.7328L52.2295 43.8995H52.2295L54.0476 44.7328ZM43.3659 57.0177L44.4445 58.7019H44.4445L43.3659 57.0177ZM40.8461 57.0573C39.767 56.5536 38.7199 55.9781 37.7132 55.3334L35.556 58.7019C36.7131 59.4429 37.9158 60.1038 39.1544 60.6819L40.8461 57.0573ZM37.7132 55.3334C33.3786 52.5574 29.9146 48.5769 27.771 43.8995L24.1347 45.566C26.5987 50.9428 30.5771 55.5133 35.556 58.7019L37.7132 55.3334ZM27.771 43.8995C25.6243 39.2151 24.8716 34.0059 25.6073 28.9067L21.6483 28.3355C20.8026 34.197 21.6678 40.183 24.1347 45.566L27.771 43.8995ZM25.6073 28.9067C25.7562 27.8746 25.9652 26.8551 26.2319 25.853L22.3664 24.8243C22.0598 25.9762 21.8196 27.1485 21.6483 28.3355L25.6073 28.9067ZM24.9123 27.2423L40.6132 22.1849L39.3868 18.3776L23.6859 23.435L24.9123 27.2423ZM39.3868 22.1849L55.0882 27.2425L56.3146 23.4352L40.6132 18.3776L39.3868 22.1849ZM53.7687 25.8532C54.0353 26.8552 54.2443 27.8747 54.3932 28.9067L58.3522 28.3355C58.1809 27.1486 57.9407 25.9764 57.6342 24.8245L53.7687 25.8532ZM54.3932 28.9067C55.1289 34.0059 54.3762 39.2151 52.2295 43.8995L55.8658 45.566C58.3327 40.183 59.1978 34.197 58.3522 28.3355L54.3932 28.9067ZM52.2295 43.8995C50.0859 48.5769 46.6219 52.5574 42.2873 55.3334L44.4445 58.7019C49.4233 55.5133 53.4018 50.9428 55.8658 45.566L52.2295 43.8995ZM42.2873 55.3334C41.2806 55.9781 40.2335 56.5536 39.1544 57.0573L40.8461 60.6819C42.0847 60.1038 43.2874 59.4429 44.4445 58.7019L42.2873 55.3334Z" fill="#56CCF2" />
</svg>