<svg width="80" height="80" viewBox="0 0 80 80" fill="none" xmlns="http://www.w3.org/2000/svg">
  <path d="M18.6667 38C17.5621 38 16.6667 38.8954 16.6667 40C16.6667 41.1046 17.5621 42 18.6667 42V38ZM37.3333 40H39.3333C39.3333 38.8954 38.4379 38 37.3333 38V40ZM38 70C39.1046 70 40 69.1046 40 68C40 66.8954 39.1046 66 38 66V70ZM18 68H16C16 69.1046 16.8954 70 18 70V68ZM37.3333 40.5833L38.956 41.7525C39.2013 41.412 39.3333 41.003 39.3333 40.5833H37.3333ZM18 67.4167L16.3773 66.2475C16.132 66.588 16 66.997 16 67.4167H18ZM18.6667 42H37.3333V38H18.6667V42ZM38 66H18V70H38V66ZM35.3333 40V40.5833H39.3333V40H35.3333ZM35.7106 39.4142L16.3773 66.2475L19.6227 68.5858L38.956 41.7525L35.7106 39.4142ZM16 67.4167V68H20V67.4167H16Z" fill="#9B51E0" />
  <path d="M48.4667 28C47.3621 28 46.4667 28.8954 46.4667 30C46.4667 31.1046 47.3621 32 48.4667 32V28ZM61.5333 30H63.5333C63.5333 28.8954 62.6379 28 61.5333 28V30ZM62 52C63.1046 52 64 51.1046 64 50C64 48.8954 63.1046 48 62 48V52ZM48 50H46C46 51.1046 46.8954 52 48 52V50ZM61.5333 30.4167L63.1671 31.5703C63.4054 31.2328 63.5333 30.8298 63.5333 30.4167H61.5333ZM48 49.5833L46.3662 48.4297C46.1279 48.7672 46 49.1702 46 49.5833H48ZM48.4667 32H61.5333V28L48.4667 28V32ZM62 48H48V52H62V48ZM59.5333 30V30.4167H63.5333V30H59.5333ZM59.8996 29.2631L46.3662 48.4297L49.6338 50.7369L63.1671 31.5703L59.8996 29.2631ZM46 49.5833V50H50V49.5833H46Z" fill="#2F80ED" />
  <path d="M29.4 10C28.2954 10 27.4 10.8954 27.4 12C27.4 13.1046 28.2954 14 29.4 14V10ZM40.6 12H42.6C42.6 10.8954 41.7046 10 40.6 10V12ZM41 32C42.1046 32 43 31.1046 43 30C43 28.8954 42.1046 28 41 28V32ZM29 30H27C27 31.1046 27.8954 32 29 32V30ZM40.6 12.375L42.2596 13.4911C42.4815 13.1611 42.6 12.7726 42.6 12.375H40.6ZM29 29.625L27.3404 28.5089C27.1185 28.8389 27 29.2274 27 29.625H29ZM29.4 14L40.6 14V10L29.4 10V14ZM41 28L29 28V32H41V28ZM38.6 12V12.375H42.6V12H38.6ZM38.9404 11.2589L27.3404 28.5089L30.6596 30.7411L42.2596 13.4911L38.9404 11.2589ZM27 29.625V30H31V29.625H27Z" fill="#56CCF2" />
</svg>