<svg width="80" height="80" viewBox="0 0 80 80" fill="none" xmlns="http://www.w3.org/2000/svg">
  <path fill-rule="evenodd" clip-rule="evenodd" d="M57.0644 10.1474C60.6954 12.2051 63.344 15.6001 64.4342 19.5938C65.0248 21.7573 65.132 24.0011 64.7757 26.1778C66.0682 26.7693 67.261 27.5844 68.2944 28.5987L68.3765 28.6794C70.6943 30.9545 72 34.0658 72 37.3136C72 40.5613 70.6943 43.6727 68.3765 45.9478L68.2944 46.0284C65.9809 48.2993 62.8686 49.5715 59.6269 49.5715H56.8111C56.8012 49.5723 56.7913 49.5727 56.7813 49.5727H23.2203C23.2179 49.5727 23.2154 49.5726 23.2129 49.5726H20.3731C17.1314 49.5726 14.0191 48.3004 11.7056 46.0295L11.6235 45.9488C9.30573 43.6737 8 40.5624 8 37.3146C8 34.0669 9.30573 30.9555 11.6235 28.6804L11.7056 28.5998C13.5867 26.7533 15.9959 25.5671 18.5734 25.1882C18.6316 24.817 18.7097 24.4475 18.8078 24.0813C19.5518 21.3034 21.3869 18.9393 23.9092 17.5099C26.4315 16.0804 29.4348 15.7025 32.2576 16.459C32.9854 16.654 33.686 16.9204 34.3501 17.2511L35.1356 15.9156C37.2774 12.2743 40.7991 9.61635 44.9174 8.53318C48.986 7.46306 53.3056 8.01715 56.9366 10.0749L57.0644 10.1474Z" fill="#2F80ED" />
  <path d="M36.3782 37.4166C35.5702 36.6635 34.3046 36.708 33.5515 37.516C32.7984 38.324 32.8429 39.5896 33.6509 40.3427L36.3782 37.4166ZM40.0022 43.5284L38.6385 44.9914C39.4067 45.7073 40.5977 45.7073 41.3658 44.9914L40.0022 43.5284ZM31.0265 48.7105L31.6117 50.6229C32.6158 50.3157 33.2113 49.2843 32.9753 48.2611L31.0265 48.7105ZM31.4432 41.6173C31.195 40.541 30.1213 39.8697 29.045 40.1179C27.9686 40.3661 27.2973 41.4398 27.5455 42.5161L31.4432 41.6173ZM46.3522 40.3438C47.1602 39.5907 47.2047 38.3252 46.4516 37.5172C45.6985 36.7091 44.433 36.6646 43.6249 37.4177L46.3522 40.3438ZM52.4584 42.5178C52.7066 41.4414 52.0353 40.3677 50.959 40.1195C49.8827 39.8713 48.8089 40.5426 48.5607 41.6189L52.4584 42.5178ZM48.9779 48.7105L47.029 48.2611C46.7931 49.2843 47.3886 50.3157 48.3926 50.6229L48.9779 48.7105ZM55.0038 52.646C56.06 52.9692 57.1783 52.375 57.5015 51.3187C57.8247 50.2625 57.2305 49.1442 56.1742 48.821L55.0038 52.646ZM56.1742 58.9642C57.2305 58.6409 57.8247 57.5227 57.5015 56.4665C57.1783 55.4102 56.06 54.816 55.0038 55.1392L56.1742 58.9642ZM48.9779 59.0747L48.3926 57.1623C47.3886 57.4695 46.7931 58.5009 47.029 59.5241L48.9779 59.0747ZM48.6048 66.3575C48.853 67.4338 49.9268 68.1052 51.0031 67.857C52.0794 67.6088 52.7507 66.535 52.5025 65.4587L48.6048 66.3575ZM43.7685 70.5013C44.5765 71.2544 45.8421 71.2099 46.5952 70.4019C47.3483 69.5939 47.3038 68.3283 46.4958 67.5752L43.7685 70.5013ZM40.0022 64.2568L41.3658 62.7938C40.5977 62.0779 39.4067 62.0779 38.6385 62.7938L40.0022 64.2568ZM33.5073 67.5763C32.6993 68.3295 32.6548 69.595 33.4079 70.403C34.161 71.211 35.4266 71.2555 36.2346 70.5024L33.5073 67.5763ZM27.5014 65.4603C27.2532 66.5366 27.9245 67.6104 29.0009 67.8586C30.0772 68.1068 31.1509 67.4355 31.3991 66.3592L27.5014 65.4603ZM31.0265 59.0747L32.9753 59.5241C33.2113 58.5009 32.6158 57.4695 31.6117 57.1623L31.0265 59.0747ZM24.9973 55.1382C23.9411 54.815 22.8229 55.4093 22.4996 56.4655C22.1764 57.5217 22.7707 58.64 23.8269 58.9632L24.9973 55.1382ZM23.8269 48.822C22.7707 49.1452 22.1764 50.2635 22.4996 51.3197C22.8229 52.3759 23.9411 52.9702 24.9973 52.647L23.8269 48.822ZM33.6509 40.3427L38.6385 44.9914L41.3658 42.0653L36.3782 37.4166L33.6509 40.3427ZM32.9753 48.2611L31.4432 41.6173L27.5455 42.5161L29.0776 49.1599L32.9753 48.2611ZM41.3658 44.9914L46.3522 40.3438L43.6249 37.4177L38.6385 42.0653L41.3658 44.9914ZM48.5607 41.6189L47.029 48.2611L50.9267 49.1599L52.4584 42.5178L48.5607 41.6189ZM48.3926 50.6229L55.0038 52.646L56.1742 48.821L49.5631 46.798L48.3926 50.6229ZM55.0038 55.1392L48.3926 57.1623L49.5631 60.9872L56.1742 58.9642L55.0038 55.1392ZM47.029 59.5241L48.6048 66.3575L52.5025 65.4587L50.9267 58.6253L47.029 59.5241ZM46.4958 67.5752L41.3658 62.7938L38.6385 65.7199L43.7685 70.5013L46.4958 67.5752ZM38.6385 62.7938L33.5073 67.5763L36.2346 70.5024L41.3658 65.7199L38.6385 62.7938ZM31.3991 66.3592L32.9753 59.5241L29.0776 58.6253L27.5014 65.4603L31.3991 66.3592ZM31.6117 57.1623L24.9973 55.1382L23.8269 58.9632L30.4413 60.9872L31.6117 57.1623ZM24.9973 52.647L31.6117 50.6229L30.4413 46.798L23.8269 48.822L24.9973 52.647Z" fill="#56CCF2" />
  <path d="M40.0001 36L42.0001 35.998C41.999 34.8942 41.1039 34 40.0001 34C38.8963 34 38.0012 34.8942 38.0001 35.998L40.0001 36ZM55.5885 45L56.5903 46.731C57.5456 46.1782 57.8725 44.9559 57.3206 44C56.7687 43.0441 55.5467 42.716 54.5903 43.2669L55.5885 45ZM55.5885 63L54.5903 64.7331C55.5467 65.284 56.7687 64.9559 57.3206 64C57.8725 63.0441 57.5456 61.8218 56.5903 61.269L55.5885 63ZM40.0001 72L38.0001 72.002C38.0012 73.1058 38.8963 74 40.0001 74C41.1039 74 41.999 73.1058 42.0001 72.002L40.0001 72ZM24.4116 63L23.4099 61.269C22.4545 61.8218 22.1277 63.0441 22.6796 64C23.2315 64.9559 24.4534 65.284 25.4099 64.7331L24.4116 63ZM24.4116 45L25.4099 43.2669C24.4534 42.716 23.2315 43.0441 22.6796 44C22.1277 44.9559 22.4545 46.1782 23.4099 46.731L24.4116 45ZM36.416 51.9147L35.4177 53.6478L36.416 51.9147ZM39.9862 49.8534L37.9862 49.8514L39.9862 49.8534ZM36.4021 56.0613L35.4004 54.3302L36.4021 56.0613ZM36.4021 51.9387L37.4039 50.2077L36.4021 51.9387ZM39.9862 58.1466L41.9862 58.1446L39.9862 58.1466ZM36.416 56.0853L37.4143 57.8183L36.416 56.0853ZM43.5842 56.0853L44.5824 54.3522L43.5842 56.0853ZM40.014 58.1466L42.014 58.1486L40.014 58.1466ZM43.598 51.9387L44.5998 53.6698L43.598 51.9387ZM43.598 56.0613L44.5998 54.3302L43.598 56.0613ZM40.014 49.8534L38.014 49.8554L40.014 49.8534ZM38.0001 36.002L38.014 49.8554L42.014 49.8514L42.0001 35.998L38.0001 36.002ZM44.5824 53.6478L56.5868 46.7331L54.5903 43.2669L42.5859 50.1817L44.5824 53.6478ZM54.5868 43.269L42.5963 50.2077L44.5998 53.6698L56.5903 46.731L54.5868 43.269ZM42.5963 57.7923L54.5868 64.731L56.5903 61.269L44.5998 54.3302L42.5963 57.7923ZM56.5868 61.2669L44.5824 54.3522L42.5859 57.8183L54.5903 64.7331L56.5868 61.2669ZM38.014 58.1446L38.0001 71.998L42.0001 72.002L42.014 58.1486L38.014 58.1446ZM42.0001 71.998L41.9862 58.1446L37.9862 58.1486L38.0001 72.002L42.0001 71.998ZM35.4177 54.3522L23.4134 61.2669L25.4099 64.7331L37.4143 57.8183L35.4177 54.3522ZM25.4134 64.731L37.4039 57.7923L35.4004 54.3302L23.4099 61.269L25.4134 64.731ZM37.4039 50.2077L25.4134 43.269L23.4099 46.731L35.4004 53.6698L37.4039 50.2077ZM23.4134 46.7331L35.4177 53.6478L37.4143 50.1817L25.4099 43.2669L23.4134 46.7331ZM41.9862 49.8555L42.0001 36.002L38.0001 35.998L37.9862 49.8514L41.9862 49.8555ZM35.4177 53.6478C38.337 55.3293 41.9828 53.2244 41.9862 49.8555L37.9862 49.8514C37.9859 50.1448 37.6685 50.3281 37.4143 50.1817L35.4177 53.6478ZM37.4039 57.7923C40.3198 56.1049 40.3198 51.8951 37.4039 50.2077L35.4004 53.6698C35.6543 53.8167 35.6543 54.1833 35.4004 54.3302L37.4039 57.7923ZM41.9862 58.1446C41.9828 54.7756 38.3371 52.6707 35.4177 54.3522L37.4143 57.8183C37.6685 57.6719 37.9859 57.8552 37.9862 58.1486L41.9862 58.1446ZM44.5824 54.3522C41.6631 52.6707 38.0173 54.7756 38.014 58.1446L42.014 58.1486C42.0142 57.8552 42.3317 57.6719 42.5859 57.8183L44.5824 54.3522ZM42.5963 50.2077C39.6804 51.8951 39.6804 56.1049 42.5963 57.7923L44.5998 54.3302C44.3459 54.1833 44.3459 53.8167 44.5998 53.6698L42.5963 50.2077ZM38.014 49.8554C38.0173 53.2244 41.6631 55.3293 44.5824 53.6478L42.5859 50.1817C42.3317 50.3281 42.0142 50.1448 42.014 49.8514L38.014 49.8554Z" fill="#56CCF2" />
</svg>