<svg width="80" height="80" viewBox="0 0 80 80" fill="none" xmlns="http://www.w3.org/2000/svg">
  <rect x="19" y="10" width="42" height="60" rx="4" fill="#6FCF97" stroke="#6FCF97" stroke-width="4" stroke-linecap="square" stroke-linejoin="round" />
  <path fill-rule="evenodd" clip-rule="evenodd" d="M46.9291 38C42.642 35.5248 37.3599 35.5248 33.0727 38C28.7855 40.4752 26.1445 45.0495 26.1445 50C26.1445 54.9504 28.7855 59.5248 33.0727 62C37.3599 64.4752 42.642 64.4752 46.9291 62C51.2163 59.5248 53.8573 54.9504 53.8573 50C53.8573 45.0495 51.2163 40.4752 46.9291 38ZM41.733 47C40.6612 46.3812 39.3407 46.3812 38.2689 47C37.1971 47.6188 36.5368 48.7624 36.5368 50C36.5368 51.2376 37.1971 52.3812 38.2689 53C39.3407 53.6188 40.6612 53.6188 41.733 53C42.8048 52.3812 43.465 51.2376 43.465 50C43.465 48.7624 42.8048 47.6188 41.733 47Z" fill="#9B51E0" />
  <path d="M36.5359 17C38.6795 15.7624 41.3205 15.7624 43.4641 17C45.6077 18.2376 46.9282 20.5248 46.9282 23C46.9282 25.4752 45.6077 27.7624 43.4641 29C41.3205 30.2376 38.6795 30.2376 36.5359 29C34.3923 27.7624 33.0718 25.4752 33.0718 23C33.0718 20.5248 34.3923 18.2376 36.5359 17Z" fill="#9B51E0" />
</svg>