<svg width="80" height="80" viewBox="0 0 80 80" fill="none" xmlns="http://www.w3.org/2000/svg">
  <rect x="16" y="16" width="48" height="48" rx="2" fill="#F2F2F2" />
  <path fill-rule="evenodd" clip-rule="evenodd" d="M16 29.4548V24.5717L28.2416 16H35.2154L16 29.4548ZM16 37.4548V32.5717L39.6668 16H40V20.6498L16 37.4548ZM16 45.4548V40.5717L40 23.7667V28.6498L16 45.4548ZM16 53.4548V48.5717L40 31.7667V36.6498L16 53.4548ZM16 61.4489V56.5658L40 39.7608L40 44.6439L16 61.4489ZM23.7902 64H18C17.6812 64 17.3799 63.9254 17.1124 63.7928L40 47.7667V52.6498L23.7902 64ZM35.2147 64H28.2409L40 55.7662V60.6493L35.2147 64ZM40 63.7662V64H39.6661L40 63.7662ZM23.7755 16L16 21.4444V18C16 16.8954 16.8954 16 18 16H23.7755Z" fill="#2F80ED" />
</svg>