<svg width="80" height="80" viewBox="0 0 80 80" fill="none" xmlns="http://www.w3.org/2000/svg">
  <path fill-rule="evenodd" clip-rule="evenodd" d="M22.2787 11.8446C19.5684 13.1997 17.8564 15.9698 17.8564 19L17.8564 42.7063C17.8564 43.3557 17.5346 43.9573 17.0338 44.3707C13.8766 46.9771 12 50.8828 12 55.0557C12 60.0061 14.641 64.5805 18.9282 67.0557C23.2154 69.5309 28.4974 69.5309 32.7846 67.0557C37.0718 64.5805 39.7128 60.0061 39.7128 55.0557C39.7128 50.8828 37.8363 46.9771 34.679 44.3707C34.1782 43.9573 33.8564 43.3557 33.8564 42.7063V19C33.8564 15.9698 32.1444 13.1997 29.4341 11.8446C27.1819 10.7185 24.5309 10.7185 22.2787 11.8446Z" fill="#F2F2F2" />
  <path d="M22.2787 11.8446L23.1731 13.6334V13.6334L22.2787 11.8446ZM18.9282 67.0557L17.9282 68.7878L18.9282 67.0557ZM32.7846 67.0557L33.7846 68.7878L32.7846 67.0557ZM29.4341 11.8446L30.3285 10.0557L30.3285 10.0557L29.4341 11.8446ZM34.679 44.3707L33.4057 45.913L34.679 44.3707ZM17.0338 44.3707L15.7605 42.8284L17.0338 44.3707ZM19.8564 19C19.8564 16.7274 21.1404 14.6498 23.1731 13.6334L21.3843 10.0557C17.9964 11.7496 15.8564 15.2123 15.8564 19H19.8564ZM19.8564 42.7063L19.8564 19H15.8564L15.8564 42.7063H19.8564ZM14 55.0557C14 51.4855 15.6055 48.1433 18.3071 45.913L15.7605 42.8284C12.1476 45.811 10 50.2802 10 55.0557H14ZM19.9282 65.3237C16.2598 63.2057 14 59.2916 14 55.0557H10C10 60.7207 13.0222 65.9553 17.9282 68.7878L19.9282 65.3237ZM31.7846 65.3237C28.1162 67.4416 23.5966 67.4416 19.9282 65.3237L17.9282 68.7878C22.8342 71.6203 28.8786 71.6203 33.7846 68.7878L31.7846 65.3237ZM37.7128 55.0557C37.7128 59.2916 35.453 63.2057 31.7846 65.3237L33.7846 68.7878C38.6906 65.9553 41.7128 60.7207 41.7128 55.0557H37.7128ZM33.4057 45.913C36.1073 48.1433 37.7128 51.4855 37.7128 55.0557H41.7128C41.7128 50.2802 39.5652 45.811 35.9523 42.8284L33.4057 45.913ZM31.8564 19L31.8564 42.7063H35.8564V19H31.8564ZM28.5397 13.6334C30.5724 14.6498 31.8564 16.7274 31.8564 19H35.8564C35.8564 15.2123 33.7164 11.7496 30.3285 10.0557L28.5397 13.6334ZM23.1731 13.6334C24.8623 12.7889 26.8505 12.7889 28.5397 13.6334L30.3285 10.0557C27.5133 8.64809 24.1995 8.64809 21.3843 10.0557L23.1731 13.6334ZM35.9523 42.8284C35.905 42.7893 35.8779 42.7506 35.8651 42.7254C35.8535 42.7024 35.8564 42.6968 35.8564 42.7063H31.8564C31.8564 44.0308 32.5087 45.1725 33.4057 45.913L35.9523 42.8284ZM15.8564 42.7063C15.8564 42.6968 15.8593 42.7024 15.8477 42.7254C15.8349 42.7506 15.8079 42.7893 15.7605 42.8284L18.3071 45.913C19.2041 45.1725 19.8564 44.0308 19.8564 42.7063H15.8564Z" fill="#F2F2F2" />
  <path fill-rule="evenodd" clip-rule="evenodd" d="M26.0395 16.8184C27.1441 16.8184 28.0395 17.7138 28.0395 18.8184L28.0395 47.0185C28.0395 47.8828 28.6126 48.6245 29.3611 49.0566C31.5046 50.2942 32.8252 52.5814 32.8252 55.0566C32.8252 57.5318 31.5046 59.819 29.3611 61.0566C27.2175 62.2942 24.5764 62.2942 22.4329 61.0566C20.2893 59.819 18.9687 57.5318 18.9687 55.0566C18.9687 52.5814 20.2893 50.2942 22.4329 49.0566C22.4987 49.0186 22.5651 48.9817 22.6319 48.946C23.424 48.5227 24.0395 47.7605 24.0395 46.8624L24.0395 18.8184C24.0395 17.7138 24.935 16.8184 26.0395 16.8184Z" fill="#EB5757" />
  <path d="M55 11L57.9849 15.7937L63.4853 14.5147L62.2063 20.0151L67 23L62.2063 25.9849L63.4853 31.4853L57.9849 30.2063L55 35L52.0151 30.2063L46.5147 31.4853L47.7937 25.9849L43 23L47.7937 20.0151L46.5147 14.5147L52.0151 15.7937L55 11Z" fill="#F2C94C" stroke="#F2C94C" stroke-width="4" stroke-linecap="square" stroke-linejoin="round" />
</svg>