<svg width="80" height="80" viewBox="0 0 80 80" fill="none" xmlns="http://www.w3.org/2000/svg">
  <path fill-rule="evenodd" clip-rule="evenodd" d="M4 60L24 20H56L76 60L56 60L44 60H36L24 60L4 60Z" fill="#27AE60" />
  <path d="M24 20V18C23.2425 18 22.5499 18.428 22.2111 19.1056L24 20ZM4 60L2.21115 59.1056C1.90116 59.7255 1.93429 60.4618 2.2987 61.0515C2.66311 61.6411 3.30684 62 4 62L4 60ZM56 20L57.7889 19.1056C57.4501 18.428 56.7575 18 56 18V20ZM76 60V62C76.6932 62 77.3369 61.6411 77.7013 61.0515C78.0657 60.4618 78.0988 59.7255 77.7889 59.1056L76 60ZM56 60V62V60ZM44 60V58V60ZM36 60V58V60ZM24 60V62V60ZM22.2111 19.1056L2.21115 59.1056L5.78885 60.8944L25.7889 20.8944L22.2111 19.1056ZM24 22H56V18H24V22ZM77.7889 59.1056L57.7889 19.1056L54.2111 20.8944L74.2111 60.8944L77.7889 59.1056ZM56 62L76 62V58L56 58V62ZM56 58L44 58V62L56 62V58ZM44 58H36V62H44V58ZM36 58L24 58V62L36 62V58ZM4 62L24 62V58L4 58L4 62Z" fill="#F2994A" />
  <path d="M36 60L56 20L76 60H36Z" fill="#27AE60" stroke="#F2994A" stroke-width="4" stroke-linecap="round" stroke-linejoin="round" />
  <path d="M56 44L56 60" stroke="#F2994A" stroke-width="4" stroke-linecap="round" stroke-linejoin="round" />
</svg>