<svg width="80" height="80" viewBox="0 0 80 80" fill="none" xmlns="http://www.w3.org/2000/svg">
  <rect x="40.0002" y="6" width="48" height="48" rx="2" transform="rotate(45 40.0002 6)" fill="#F2C94C" stroke="#F2C94C" stroke-width="4" stroke-linecap="round" stroke-linejoin="round" />
  <path d="M32.429 46C32.429 47.1046 31.5336 48 30.429 48C29.3245 48 28.429 47.1046 28.429 46L32.429 46ZM38.429 26L38.429 24L38.429 26ZM41.0005 26L41.0005 28L41.0005 26ZM49.0005 40L51.0005 40L49.0005 40ZM49.0005 47L47.0005 47L49.0005 47ZM51.0005 50C51.0005 51.1046 50.105 52 49.0005 52C47.8959 52 47.0005 51.1046 47.0005 50L51.0005 50ZM28.429 46L28.429 34L32.429 34L32.429 46L28.429 46ZM38.429 24L41.0005 24L41.0005 28L38.429 28L38.429 24ZM51.0005 34L51.0005 40L47.0005 40L47.0005 34L51.0005 34ZM51.0005 40L51.0005 47L47.0005 47L47.0005 40L51.0005 40ZM51.0005 47L51.0005 50L47.0005 50L47.0005 47L51.0005 47ZM41.0005 24C46.5233 24 51.0005 28.4771 51.0005 34L47.0005 34C47.0005 30.6863 44.3142 28 41.0005 28L41.0005 24ZM28.429 34C28.429 28.4771 32.9062 24 38.429 24L38.429 28C35.1153 28 32.429 30.6863 32.429 34L28.429 34Z" fill="#333333" />
  <path d="M35.1281 46L25.7295 46C24.6903 46 24.1503 47.2385 24.8574 48L29.0156 52.478C29.7786 53.2997 31.0791 53.2997 31.8421 52.478L36.0002 48C36.7074 47.2385 36.1673 46 35.1281 46Z" fill="#333333" stroke="#333333" stroke-width="2" stroke-linecap="round" stroke-linejoin="round" />
</svg>