<svg width="80" height="80" viewBox="0 0 80 80" fill="none" xmlns="http://www.w3.org/2000/svg">
  <path d="M65.3678 67.8478C66.1488 68.6288 67.4151 68.6288 68.1962 67.8478C68.9772 67.0667 68.9772 65.8004 68.1962 65.0194L65.3678 67.8478ZM55.734 52.5572C54.953 51.7762 53.6867 51.7762 52.9056 52.5572C52.1246 53.3383 52.1246 54.6046 52.9056 55.3857L55.734 52.5572ZM68.1962 65.0194L55.734 52.5572L52.9056 55.3857L65.3678 67.8478L68.1962 65.0194Z" fill="#F2994A" />
  <path d="M13.5776 30.724C15.8198 22.3559 22.356 15.8197 30.7241 13.5775C39.0921 11.3353 48.0207 13.7277 54.1465 19.8536C60.2723 25.9794 62.6647 34.908 60.4225 43.276C58.1803 51.6441 51.6441 58.1802 43.2761 60.4225C34.9081 62.6647 25.9795 60.2723 19.8537 54.1464C13.7278 48.0206 11.3354 39.092 13.5776 30.724Z" fill="#56CCF2" stroke="#2F80ED" stroke-width="4" stroke-linecap="round" stroke-linejoin="round" />
  <path d="M25 37L35.9091 37L38.0909 37L49 37" stroke="#F2F2F2" stroke-width="4" stroke-linecap="round" stroke-linejoin="round" />
</svg>